Temperature (C)	Pressure (bar)	Density (kg/m3)	Volume (m3/kg)	Internal Energy (kJ/kg)	Enthalpy (kJ/kg)	Entropy (J/g*K)	Cv (J/g*K)	Cp (J/g*K)	Sound Spd. (m/s)	Joule-Thomson (K/bar)	Viscosity (Pa*s)	Therm. Cond. (W/m*K)	Phase
0.010000	0.20000	999.80	0.0010002	0.00035993	0.020364	1.3173e-06	4.2173	4.2198	1402.3	-0.024142	0.0017911	0.56105	liquid
1.3433	0.20000	999.88	0.0010001	5.6237	5.6437	0.020538	4.2144	4.2154	1408.9	-0.024013	0.0017110	0.56358	liquid
2.6766	0.20000	999.92	0.0010001	11.242	11.262	0.040954	4.2112	4.2114	1415.3	-0.023887	0.0016364	0.56611	liquid
4.0100	0.20000	999.93	0.0010001	16.854	16.874	0.061254	4.2078	4.2078	1421.6	-0.023765	0.0015669	0.56865	liquid
5.3433	0.20000	999.92	0.0010001	22.462	22.482	0.081440	4.2043	4.2046	1427.6	-0.023646	0.0015020	0.57119	liquid
6.6766	0.20000	999.88	0.0010001	28.066	28.086	0.10151	4.2007	4.2016	1433.4	-0.023530	0.0014413	0.57372	liquid
8.0099	0.20000	999.81	0.0010002	33.667	33.687	0.12148	4.1969	4.1990	1439.0	-0.023416	0.0013844	0.57625	liquid
9.3432	0.20000	999.72	0.0010003	39.264	39.284	0.14134	4.1929	4.1966	1444.5	-0.023305	0.0013310	0.57877	liquid
10.677	0.20000	999.60	0.0010004	44.858	44.878	0.16110	4.1888	4.1944	1449.8	-0.023196	0.0012809	0.58128	liquid
12.010	0.20000	999.46	0.0010005	50.449	50.469	0.18075	4.1846	4.1924	1454.9	-0.023090	0.0012338	0.58378	liquid
13.343	0.20000	999.30	0.0010007	56.037	56.057	0.20030	4.1803	4.1907	1459.9	-0.022985	0.0011893	0.58627	liquid
14.676	0.20000	999.11	0.0010009	61.624	61.644	0.21975	4.1758	4.1891	1464.7	-0.022883	0.0011474	0.58874	liquid
16.010	0.20000	998.91	0.0010011	67.208	67.228	0.23911	4.1713	4.1877	1469.3	-0.022782	0.0011078	0.59120	liquid
17.343	0.20000	998.68	0.0010013	72.791	72.811	0.25837	4.1666	4.1864	1473.8	-0.022684	0.0010704	0.59364	liquid
18.676	0.20000	998.43	0.0010016	78.372	78.392	0.27754	4.1618	4.1853	1478.1	-0.022587	0.0010350	0.59605	liquid
20.010	0.20000	998.17	0.0010018	83.952	83.972	0.29662	4.1569	4.1843	1482.2	-0.022491	0.0010014	0.59844	liquid
21.343	0.20000	997.88	0.0010021	89.530	89.550	0.31560	4.1520	4.1834	1486.3	-0.022397	0.00096955	0.60081	liquid
22.676	0.20000	997.58	0.0010024	95.107	95.127	0.33450	4.1469	4.1827	1490.1	-0.022305	0.00093930	0.60315	liquid
24.010	0.20000	997.26	0.0010027	100.68	100.70	0.35331	4.1417	4.1820	1493.9	-0.022214	0.00091055	0.60546	liquid
25.343	0.20000	996.92	0.0010031	106.26	106.28	0.37203	4.1365	4.1814	1497.5	-0.022124	0.00088319	0.60774	liquid
26.676	0.20000	996.57	0.0010034	111.83	111.85	0.39066	4.1311	4.1809	1500.9	-0.022035	0.00085714	0.60999	liquid
28.010	0.20000	996.20	0.0010038	117.41	117.43	0.40921	4.1257	4.1805	1504.3	-0.021948	0.00083231	0.61221	liquid
29.343	0.20000	995.81	0.0010042	122.98	123.00	0.42768	4.1202	4.1802	1507.5	-0.021861	0.00080863	0.61440	liquid
30.676	0.20000	995.41	0.0010046	128.56	128.58	0.44606	4.1146	4.1799	1510.6	-0.021776	0.00078601	0.61655	liquid
32.010	0.20000	994.99	0.0010050	134.13	134.15	0.46437	4.1090	4.1797	1513.5	-0.021692	0.00076441	0.61867	liquid
33.343	0.20000	994.56	0.0010055	139.70	139.72	0.48259	4.1033	4.1796	1516.3	-0.021608	0.00074375	0.62075	liquid
34.676	0.20000	994.11	0.0010059	145.27	145.29	0.50073	4.0975	4.1795	1519.1	-0.021526	0.00072399	0.62280	liquid
36.010	0.20000	993.65	0.0010064	150.85	150.87	0.51880	4.0916	4.1794	1521.7	-0.021444	0.00070506	0.62481	liquid
37.343	0.20000	993.17	0.0010069	156.42	156.44	0.53678	4.0857	4.1795	1524.1	-0.021363	0.00068692	0.62678	liquid
38.676	0.20000	992.68	0.0010074	161.99	162.01	0.55469	4.0797	4.1795	1526.5	-0.021283	0.00066954	0.62871	liquid
40.010	0.20000	992.18	0.0010079	167.56	167.58	0.57252	4.0736	4.1796	1528.8	-0.021203	0.00065285	0.63060	liquid
41.343	0.20000	991.66	0.0010084	173.14	173.16	0.59028	4.0675	4.1798	1530.9	-0.021124	0.00063684	0.63246	liquid
42.676	0.20000	991.13	0.0010089	178.71	178.73	0.60796	4.0613	4.1799	1533.0	-0.021046	0.00062146	0.63428	liquid
44.009	0.20000	990.59	0.0010095	184.28	184.30	0.62557	4.0550	4.1802	1534.9	-0.020968	0.00060667	0.63605	liquid
45.343	0.20000	990.03	0.0010101	189.86	189.88	0.64311	4.0488	4.1804	1536.8	-0.020891	0.00059245	0.63779	liquid
46.676	0.20000	989.47	0.0010106	195.43	195.45	0.66058	4.0424	4.1807	1538.5	-0.020814	0.00057877	0.63949	liquid
48.009	0.20000	988.89	0.0010112	201.00	201.03	0.67797	4.0360	4.1810	1540.2	-0.020738	0.00056560	0.64115	liquid
49.343	0.20000	988.30	0.0010118	206.58	206.60	0.69529	4.0296	4.1813	1541.7	-0.020662	0.00055292	0.64277	liquid
50.676	0.20000	987.69	0.0010125	212.16	212.18	0.71254	4.0231	4.1817	1543.2	-0.020586	0.00054069	0.64435	liquid
52.009	0.20000	987.08	0.0010131	217.73	217.75	0.72973	4.0166	4.1821	1544.5	-0.020511	0.00052891	0.64590	liquid
53.343	0.20000	986.45	0.0010137	223.31	223.33	0.74684	4.0100	4.1826	1545.8	-0.020436	0.00051754	0.64740	liquid
54.676	0.20000	985.81	0.0010144	228.88	228.90	0.76389	4.0034	4.1830	1547.0	-0.020362	0.00050657	0.64887	liquid
56.009	0.20000	985.17	0.0010151	234.46	234.48	0.78087	3.9967	4.1835	1548.1	-0.020287	0.00049598	0.65030	liquid
57.343	0.20000	984.51	0.0010157	240.04	240.06	0.79778	3.9901	4.1840	1549.1	-0.020213	0.00048575	0.65169	liquid
58.676	0.20000	983.84	0.0010164	245.62	245.64	0.81463	3.9834	4.1846	1550.0	-0.020140	0.00047587	0.65304	liquid
60.009	0.20000	983.16	0.0010171	251.20	251.22	0.83141	3.9766	4.1851	1550.8	-0.020066	0.00046631	0.65436	liquid
60.058	0.20000	983.13	0.0010172	251.40	251.42	0.83202	3.9764	4.1852	1550.9	-0.020063	0.00046597	0.65440	liquid
60.058	0.20000	0.13075	7.6480	2456.0	2608.9	7.9072	1.4790	1.9649	449.54	12.307	1.0936e-05	0.021192	vapor
61.343	0.20000	0.13024	7.6784	2457.9	2611.5	7.9148	1.4756	1.9606	450.49	11.960	1.0979e-05	0.021279	vapor
62.676	0.20000	0.12970	7.7099	2459.9	2614.1	7.9226	1.4726	1.9567	451.46	11.625	1.1024e-05	0.021370	vapor
64.009	0.20000	0.12918	7.7414	2461.8	2616.7	7.9303	1.4700	1.9533	452.42	11.312	1.1069e-05	0.021461	vapor
65.343	0.20000	0.12865	7.7729	2463.8	2619.3	7.9380	1.4677	1.9503	453.36	11.020	1.1114e-05	0.021553	vapor
66.676	0.20000	0.12813	7.8043	2465.8	2621.9	7.9457	1.4657	1.9476	454.30	10.744	1.1160e-05	0.021646	vapor
68.009	0.20000	0.12762	7.8357	2467.8	2624.5	7.9533	1.4640	1.9452	455.24	10.483	1.1205e-05	0.021739	vapor
69.342	0.20000	0.12711	7.8672	2469.7	2627.1	7.9609	1.4624	1.9431	456.16	10.236	1.1251e-05	0.021833	vapor
70.676	0.20000	0.12661	7.8985	2471.7	2629.7	7.9684	1.4610	1.9411	457.08	10.000	1.1296e-05	0.021927	vapor
72.009	0.20000	0.12610	7.9299	2473.6	2632.2	7.9759	1.4598	1.9393	458.00	9.7749	1.1342e-05	0.022022	vapor
73.342	0.20000	0.12561	7.9613	2475.6	2634.8	7.9834	1.4586	1.9377	458.91	9.5591	1.1388e-05	0.022117	vapor
74.676	0.20000	0.12512	7.9926	2477.6	2637.4	7.9908	1.4576	1.9362	459.81	9.3520	1.1434e-05	0.022213	vapor
76.009	0.20000	0.12463	8.0239	2479.5	2640.0	7.9983	1.4567	1.9349	460.71	9.1528	1.1481e-05	0.022309	vapor
77.342	0.20000	0.12414	8.0552	2481.5	2642.6	8.0056	1.4559	1.9336	461.61	8.9608	1.1527e-05	0.022406	vapor
78.676	0.20000	0.12366	8.0865	2483.4	2645.1	8.0130	1.4552	1.9324	462.50	8.7755	1.1574e-05	0.022503	vapor
80.009	0.20000	0.12319	8.1178	2485.4	2647.7	8.0203	1.4545	1.9313	463.39	8.5965	1.1621e-05	0.022601	vapor
81.342	0.20000	0.12271	8.1491	2487.3	2650.3	8.0275	1.4539	1.9303	464.28	8.4234	1.1667e-05	0.022699	vapor
82.676	0.20000	0.12224	8.1803	2489.3	2652.9	8.0348	1.4534	1.9294	465.16	8.2557	1.1714e-05	0.022798	vapor
84.009	0.20000	0.12178	8.2116	2491.2	2655.4	8.0420	1.4529	1.9286	466.04	8.0933	1.1762e-05	0.022897	vapor
85.342	0.20000	0.12132	8.2428	2493.2	2658.0	8.0492	1.4524	1.9278	466.92	7.9358	1.1809e-05	0.022997	vapor
86.676	0.20000	0.12086	8.2740	2495.1	2660.6	8.0563	1.4520	1.9270	467.80	7.7829	1.1856e-05	0.023098	vapor
88.009	0.20000	0.12041	8.3053	2497.0	2663.1	8.0635	1.4517	1.9263	468.67	7.6345	1.1904e-05	0.023198	vapor
89.342	0.20000	0.11996	8.3365	2499.0	2665.7	8.0706	1.4513	1.9257	469.54	7.4904	1.1951e-05	0.023299	vapor
90.676	0.20000	0.11951	8.3676	2500.9	2668.3	8.0776	1.4511	1.9251	470.40	7.3503	1.1999e-05	0.023401	vapor
92.009	0.20000	0.11906	8.3988	2502.9	2670.9	8.0847	1.4508	1.9246	471.27	7.2141	1.2047e-05	0.023503	vapor
93.342	0.20000	0.11862	8.4300	2504.8	2673.4	8.0917	1.4506	1.9241	472.13	7.0816	1.2095e-05	0.023606	vapor
94.675	0.20000	0.11819	8.4611	2506.8	2676.0	8.0987	1.4504	1.9236	472.99	6.9527	1.2143e-05	0.023709	vapor
96.009	0.20000	0.11775	8.4923	2508.7	2678.5	8.1056	1.4503	1.9232	473.85	6.8273	1.2191e-05	0.023812	vapor
97.342	0.20000	0.11732	8.5234	2510.6	2681.1	8.1126	1.4502	1.9228	474.70	6.7051	1.2240e-05	0.023916	vapor
98.675	0.20000	0.11690	8.5546	2512.6	2683.7	8.1195	1.4501	1.9225	475.55	6.5862	1.2288e-05	0.024020	vapor
100.01	0.20000	0.11647	8.5857	2514.5	2686.2	8.1264	1.4500	1.9222	476.40	6.4704	1.2337e-05	0.024125	vapor
101.34	0.20000	0.11605	8.6168	2516.5	2688.8	8.1332	1.4500	1.9219	477.25	6.3576	1.2385e-05	0.024230	vapor
102.68	0.20000	0.11563	8.6479	2518.4	2691.4	8.1400	1.4499	1.9217	478.09	6.2476	1.2434e-05	0.024335	vapor
104.01	0.20000	0.11522	8.6790	2520.3	2693.9	8.1469	1.4500	1.9215	478.94	6.1405	1.2483e-05	0.024441	vapor
105.34	0.20000	0.11481	8.7101	2522.3	2696.5	8.1536	1.4500	1.9213	479.78	6.0360	1.2532e-05	0.024548	vapor
106.68	0.20000	0.11440	8.7412	2524.2	2699.0	8.1604	1.4500	1.9211	480.62	5.9341	1.2581e-05	0.024654	vapor
108.01	0.20000	0.11400	8.7723	2526.2	2701.6	8.1671	1.4501	1.9210	481.45	5.8348	1.2630e-05	0.024762	vapor
109.34	0.20000	0.11359	8.8034	2528.1	2704.2	8.1738	1.4502	1.9209	482.29	5.7379	1.2679e-05	0.024869	vapor
110.68	0.20000	0.11319	8.8344	2530.0	2706.7	8.1805	1.4503	1.9208	483.12	5.6434	1.2729e-05	0.024977	vapor
112.01	0.20000	0.11280	8.8655	2532.0	2709.3	8.1872	1.4505	1.9208	483.95	5.5512	1.2778e-05	0.025085	vapor
113.34	0.20000	0.11240	8.8966	2533.9	2711.9	8.1938	1.4506	1.9207	484.78	5.4611	1.2828e-05	0.025194	vapor
114.68	0.20000	0.11201	8.9276	2535.9	2714.4	8.2004	1.4508	1.9207	485.60	5.3733	1.2877e-05	0.025303	vapor
116.01	0.20000	0.11162	8.9587	2537.8	2717.0	8.2070	1.4510	1.9207	486.43	5.2875	1.2927e-05	0.025413	vapor
117.34	0.20000	0.11124	8.9897	2539.7	2719.5	8.2136	1.4512	1.9208	487.25	5.2038	1.2977e-05	0.025523	vapor
118.68	0.20000	0.11086	9.0207	2541.7	2722.1	8.2201	1.4514	1.9208	488.07	5.1220	1.3027e-05	0.025633	vapor
120.01	0.20000	0.11048	9.0518	2543.6	2724.7	8.2267	1.4516	1.9209	488.89	5.0421	1.3077e-05	0.025743	vapor
121.34	0.20000	0.11010	9.0828	2545.6	2727.2	8.2332	1.4519	1.9210	489.70	4.9641	1.3127e-05	0.025854	vapor
122.68	0.20000	0.10972	9.1138	2547.5	2729.8	8.2396	1.4521	1.9211	490.52	4.8878	1.3177e-05	0.025966	vapor
124.01	0.20000	0.10935	9.1448	2549.4	2732.3	8.2461	1.4524	1.9213	491.33	4.8134	1.3227e-05	0.026077	vapor
125.34	0.20000	0.10898	9.1758	2551.4	2734.9	8.2525	1.4527	1.9214	492.14	4.7406	1.3278e-05	0.026190	vapor
126.68	0.20000	0.10862	9.2068	2553.3	2737.5	8.2590	1.4530	1.9216	492.95	4.6694	1.3328e-05	0.026302	vapor
128.01	0.20000	0.10825	9.2378	2555.3	2740.0	8.2654	1.4533	1.9218	493.76	4.5998	1.3379e-05	0.026415	vapor
129.34	0.20000	0.10789	9.2688	2557.2	2742.6	8.2717	1.4537	1.9220	494.56	4.5318	1.3429e-05	0.026528	vapor
130.68	0.20000	0.10753	9.2998	2559.2	2745.2	8.2781	1.4540	1.9222	495.36	4.4653	1.3480e-05	0.026641	vapor
132.01	0.20000	0.10717	9.3308	2561.1	2747.7	8.2844	1.4543	1.9224	496.17	4.4003	1.3531e-05	0.026755	vapor
133.34	0.20000	0.10682	9.3618	2563.0	2750.3	8.2907	1.4547	1.9226	496.97	4.3366	1.3582e-05	0.026869	vapor
134.67	0.20000	0.10647	9.3928	2565.0	2752.8	8.2970	1.4551	1.9229	497.76	4.2744	1.3633e-05	0.026984	vapor
136.01	0.20000	0.10612	9.4237	2566.9	2755.4	8.3033	1.4555	1.9232	498.56	4.2135	1.3684e-05	0.027099	vapor
137.34	0.20000	0.10577	9.4547	2568.9	2758.0	8.3096	1.4559	1.9235	499.35	4.1539	1.3735e-05	0.027214	vapor
138.67	0.20000	0.10542	9.4857	2570.8	2760.5	8.3158	1.4563	1.9238	500.15	4.0956	1.3786e-05	0.027329	vapor
140.01	0.20000	0.10508	9.5166	2572.8	2763.1	8.3220	1.4567	1.9241	500.94	4.0385	1.3837e-05	0.027445	vapor
141.34	0.20000	0.10474	9.5476	2574.7	2765.7	8.3282	1.4571	1.9244	501.73	3.9826	1.3888e-05	0.027561	vapor
142.67	0.20000	0.10440	9.5785	2576.7	2768.2	8.3344	1.4576	1.9247	502.52	3.9279	1.3940e-05	0.027678	vapor
144.01	0.20000	0.10406	9.6095	2578.6	2770.8	8.3406	1.4580	1.9251	503.30	3.8743	1.3991e-05	0.027795	vapor
145.34	0.20000	0.10373	9.6405	2580.6	2773.4	8.3467	1.4585	1.9254	504.09	3.8218	1.4042e-05	0.027912	vapor
146.67	0.20000	0.10340	9.6714	2582.5	2775.9	8.3528	1.4589	1.9258	504.87	3.7704	1.4094e-05	0.028030	vapor
148.01	0.20000	0.10307	9.7023	2584.5	2778.5	8.3590	1.4594	1.9262	505.65	3.7200	1.4146e-05	0.028147	vapor
149.34	0.20000	0.10274	9.7333	2586.4	2781.1	8.3650	1.4599	1.9266	506.43	3.6707	1.4197e-05	0.028265	vapor
150.67	0.20000	0.10241	9.7642	2588.4	2783.6	8.3711	1.4603	1.9270	507.21	3.6224	1.4249e-05	0.028384	vapor
152.01	0.20000	0.10209	9.7952	2590.3	2786.2	8.3772	1.4608	1.9274	507.99	3.5750	1.4301e-05	0.028503	vapor
153.34	0.20000	0.10177	9.8261	2592.3	2788.8	8.3832	1.4613	1.9278	508.76	3.5285	1.4353e-05	0.028622	vapor
154.67	0.20000	0.10145	9.8570	2594.2	2791.3	8.3892	1.4619	1.9282	509.53	3.4830	1.4405e-05	0.028741	vapor
156.01	0.20000	0.10113	9.8879	2596.2	2793.9	8.3952	1.4624	1.9287	510.31	3.4384	1.4457e-05	0.028861	vapor
157.34	0.20000	0.10082	9.9189	2598.1	2796.5	8.4012	1.4629	1.9291	511.08	3.3946	1.4509e-05	0.028981	vapor
158.67	0.20000	0.10050	9.9498	2600.1	2799.1	8.4072	1.4634	1.9296	511.85	3.3517	1.4561e-05	0.029101	vapor
160.01	0.20000	0.10019	9.9807	2602.0	2801.6	8.4131	1.4640	1.9300	512.61	3.3097	1.4613e-05	0.029222	vapor
161.34	0.20000	0.099884	10.012	2604.0	2804.2	8.4191	1.4645	1.9305	513.38	3.2684	1.4665e-05	0.029343	vapor
162.67	0.20000	0.099576	10.043	2605.9	2806.8	8.4250	1.4650	1.9310	514.14	3.2279	1.4718e-05	0.029464	vapor
164.01	0.20000	0.099271	10.073	2607.9	2809.4	8.4309	1.4656	1.9315	514.91	3.1882	1.4770e-05	0.029585	vapor
165.34	0.20000	0.098967	10.104	2609.8	2811.9	8.4367	1.4662	1.9319	515.67	3.1492	1.4822e-05	0.029707	vapor
166.67	0.20000	0.098665	10.135	2611.8	2814.5	8.4426	1.4667	1.9324	516.43	3.1109	1.4875e-05	0.029829	vapor
168.01	0.20000	0.098365	10.166	2613.8	2817.1	8.4485	1.4673	1.9330	517.19	3.0734	1.4927e-05	0.029951	vapor
169.34	0.20000	0.098067	10.197	2615.7	2819.7	8.4543	1.4679	1.9335	517.94	3.0366	1.4980e-05	0.030074	vapor
170.67	0.20000	0.097771	10.228	2617.7	2822.2	8.4601	1.4685	1.9340	518.70	3.0004	1.5033e-05	0.030197	vapor
172.01	0.20000	0.097476	10.259	2619.6	2824.8	8.4659	1.4691	1.9345	519.45	2.9649	1.5085e-05	0.030320	vapor
173.34	0.20000	0.097184	10.290	2621.6	2827.4	8.4717	1.4696	1.9351	520.21	2.9300	1.5138e-05	0.030444	vapor
174.67	0.20000	0.096893	10.321	2623.6	2830.0	8.4775	1.4702	1.9356	520.96	2.8958	1.5191e-05	0.030568	vapor
176.01	0.20000	0.096604	10.352	2625.5	2832.6	8.4832	1.4708	1.9361	521.71	2.8622	1.5244e-05	0.030692	vapor
177.34	0.20000	0.096316	10.382	2627.5	2835.1	8.4890	1.4715	1.9367	522.45	2.8291	1.5296e-05	0.030816	vapor
178.67	0.20000	0.096030	10.413	2629.5	2837.7	8.4947	1.4721	1.9372	523.20	2.7967	1.5349e-05	0.030941	vapor
180.01	0.20000	0.095746	10.444	2631.4	2840.3	8.5004	1.4727	1.9378	523.95	2.7648	1.5402e-05	0.031066	vapor
181.34	0.20000	0.095464	10.475	2633.4	2842.9	8.5061	1.4733	1.9384	524.69	2.7335	1.5455e-05	0.031191	vapor
182.67	0.20000	0.095184	10.506	2635.4	2845.5	8.5118	1.4739	1.9390	525.44	2.7027	1.5508e-05	0.031316	vapor
184.01	0.20000	0.094905	10.537	2637.3	2848.1	8.5174	1.4746	1.9395	526.18	2.6725	1.5561e-05	0.031442	vapor
185.34	0.20000	0.094627	10.568	2639.3	2850.7	8.5231	1.4752	1.9401	526.92	2.6428	1.5615e-05	0.031568	vapor
186.67	0.20000	0.094351	10.599	2641.3	2853.2	8.5287	1.4758	1.9407	527.66	2.6136	1.5668e-05	0.031694	vapor
188.01	0.20000	0.094077	10.630	2643.2	2855.8	8.5343	1.4765	1.9413	528.39	2.5848	1.5721e-05	0.031821	vapor
189.34	0.20000	0.093805	10.660	2645.2	2858.4	8.5400	1.4771	1.9419	529.13	2.5566	1.5774e-05	0.031948	vapor
190.67	0.20000	0.093534	10.691	2647.2	2861.0	8.5455	1.4778	1.9425	529.87	2.5289	1.5828e-05	0.032075	vapor
192.01	0.20000	0.093265	10.722	2649.2	2863.6	8.5511	1.4784	1.9431	530.60	2.5016	1.5881e-05	0.032202	vapor
193.34	0.20000	0.092997	10.753	2651.1	2866.2	8.5567	1.4791	1.9437	531.33	2.4747	1.5935e-05	0.032330	vapor
194.67	0.20000	0.092731	10.784	2653.1	2868.8	8.5622	1.4798	1.9444	532.06	2.4483	1.5988e-05	0.032457	vapor
196.01	0.20000	0.092466	10.815	2655.1	2871.4	8.5678	1.4804	1.9450	532.79	2.4223	1.6041e-05	0.032586	vapor
197.34	0.20000	0.092203	10.846	2657.1	2874.0	8.5733	1.4811	1.9456	533.52	2.3968	1.6095e-05	0.032714	vapor
198.67	0.20000	0.091941	10.877	2659.0	2876.6	8.5788	1.4818	1.9462	534.25	2.3717	1.6149e-05	0.032843	vapor
200.01	0.20000	0.091681	10.907	2661.0	2879.2	8.5843	1.4824	1.9469	534.98	2.3469	1.6202e-05	0.032971	vapor
201.34	0.20000	0.091422	10.938	2663.0	2881.8	8.5898	1.4831	1.9475	535.70	2.3226	1.6256e-05	0.033101	vapor
202.67	0.20000	0.091165	10.969	2665.0	2884.4	8.5952	1.4838	1.9482	536.42	2.2987	1.6310e-05	0.033230	vapor
204.01	0.20000	0.090909	11.000	2666.9	2886.9	8.6007	1.4845	1.9488	537.15	2.2751	1.6363e-05	0.033360	vapor
205.34	0.20000	0.090655	11.031	2668.9	2889.5	8.6061	1.4852	1.9495	537.87	2.2519	1.6417e-05	0.033490	vapor
206.67	0.20000	0.090402	11.062	2670.9	2892.1	8.6115	1.4859	1.9501	538.59	2.2291	1.6471e-05	0.033620	vapor
208.01	0.20000	0.090151	11.093	2672.9	2894.7	8.6170	1.4866	1.9508	539.31	2.2066	1.6525e-05	0.033750	vapor
209.34	0.20000	0.089901	11.123	2674.9	2897.3	8.6224	1.4873	1.9514	540.02	2.1844	1.6579e-05	0.033881	vapor
210.67	0.20000	0.089652	11.154	2676.9	2900.0	8.6277	1.4880	1.9521	540.74	2.1627	1.6632e-05	0.034012	vapor
212.01	0.20000	0.089405	11.185	2678.9	2902.6	8.6331	1.4887	1.9528	541.46	2.1412	1.6686e-05	0.034143	vapor
213.34	0.20000	0.089159	11.216	2680.8	2905.2	8.6385	1.4894	1.9534	542.17	2.1201	1.6740e-05	0.034274	vapor
214.67	0.20000	0.088914	11.247	2682.8	2907.8	8.6438	1.4901	1.9541	542.88	2.0993	1.6794e-05	0.034406	vapor
216.01	0.20000	0.088671	11.278	2684.8	2910.4	8.6492	1.4908	1.9548	543.59	2.0788	1.6848e-05	0.034538	vapor
217.34	0.20000	0.088429	11.309	2686.8	2913.0	8.6545	1.4915	1.9555	544.30	2.0586	1.6903e-05	0.034670	vapor
218.67	0.20000	0.088188	11.339	2688.8	2915.6	8.6598	1.4922	1.9562	545.01	2.0387	1.6957e-05	0.034802	vapor
220.01	0.20000	0.087949	11.370	2690.8	2918.2	8.6651	1.4929	1.9569	545.72	2.0191	1.7011e-05	0.034935	vapor
221.34	0.20000	0.087711	11.401	2692.8	2920.8	8.6704	1.4937	1.9575	546.43	1.9998	1.7065e-05	0.035068	vapor
222.67	0.20000	0.087474	11.432	2694.8	2923.4	8.6756	1.4944	1.9582	547.13	1.9808	1.7119e-05	0.035201	vapor
224.01	0.20000	0.087239	11.463	2696.8	2926.0	8.6809	1.4951	1.9589	547.84	1.9620	1.7173e-05	0.035334	vapor
225.34	0.20000	0.087005	11.494	2698.8	2928.6	8.6862	1.4958	1.9596	548.54	1.9435	1.7228e-05	0.035468	vapor
226.67	0.20000	0.086772	11.524	2700.8	2931.3	8.6914	1.4966	1.9603	549.25	1.9253	1.7282e-05	0.035601	vapor
228.01	0.20000	0.086540	11.555	2702.8	2933.9	8.6966	1.4973	1.9610	549.95	1.9074	1.7336e-05	0.035735	vapor
229.34	0.20000	0.086310	11.586	2704.8	2936.5	8.7018	1.4980	1.9618	550.65	1.8897	1.7391e-05	0.035870	vapor
230.67	0.20000	0.086081	11.617	2706.8	2939.1	8.7070	1.4988	1.9625	551.35	1.8723	1.7445e-05	0.036004	vapor
232.01	0.20000	0.085853	11.648	2708.8	2941.7	8.7122	1.4995	1.9632	552.04	1.8551	1.7499e-05	0.036139	vapor
233.34	0.20000	0.085626	11.679	2710.8	2944.3	8.7174	1.5002	1.9639	552.74	1.8381	1.7554e-05	0.036274	vapor
234.67	0.20000	0.085401	11.709	2712.8	2946.9	8.7225	1.5010	1.9646	553.44	1.8214	1.7608e-05	0.036409	vapor
236.01	0.20000	0.085176	11.740	2714.8	2949.6	8.7277	1.5017	1.9653	554.13	1.8049	1.7663e-05	0.036544	vapor
237.34	0.20000	0.084953	11.771	2716.8	2952.2	8.7328	1.5025	1.9661	554.82	1.7886	1.7717e-05	0.036680	vapor
238.67	0.20000	0.084731	11.802	2718.8	2954.8	8.7380	1.5032	1.9668	555.52	1.7726	1.7772e-05	0.036816	vapor
240.01	0.20000	0.084511	11.833	2720.8	2957.4	8.7431	1.5040	1.9675	556.21	1.7568	1.7826e-05	0.036952	vapor
241.34	0.20000	0.084291	11.864	2722.8	2960.1	8.7482	1.5047	1.9682	556.90	1.7412	1.7881e-05	0.037088	vapor
242.67	0.20000	0.084072	11.895	2724.8	2962.7	8.7533	1.5055	1.9690	557.59	1.7258	1.7935e-05	0.037225	vapor
244.01	0.20000	0.083855	11.925	2726.8	2965.3	8.7584	1.5062	1.9697	558.28	1.7106	1.7990e-05	0.037361	vapor
245.34	0.20000	0.083639	11.956	2728.8	2967.9	8.7634	1.5070	1.9704	558.96	1.6957	1.8045e-05	0.037498	vapor
246.67	0.20000	0.083424	11.987	2730.8	2970.6	8.7685	1.5077	1.9712	559.65	1.6809	1.8099e-05	0.037635	vapor
248.01	0.20000	0.083210	12.018	2732.8	2973.2	8.7736	1.5085	1.9719	560.33	1.6663	1.8154e-05	0.037773	vapor
249.34	0.20000	0.082997	12.049	2734.8	2975.8	8.7786	1.5093	1.9727	561.02	1.6519	1.8209e-05	0.037910	vapor
250.67	0.20000	0.082785	12.079	2736.9	2978.5	8.7836	1.5100	1.9734	561.70	1.6377	1.8263e-05	0.038048	vapor
252.01	0.20000	0.082574	12.110	2738.9	2981.1	8.7886	1.5108	1.9741	562.38	1.6237	1.8318e-05	0.038186	vapor
253.34	0.20000	0.082365	12.141	2740.9	2983.7	8.7937	1.5116	1.9749	563.06	1.6099	1.8373e-05	0.038324	vapor
254.67	0.20000	0.082156	12.172	2742.9	2986.4	8.7986	1.5123	1.9756	563.74	1.5962	1.8428e-05	0.038463	vapor
256.01	0.20000	0.081948	12.203	2744.9	2989.0	8.8036	1.5131	1.9764	564.42	1.5827	1.8483e-05	0.038602	vapor
257.34	0.20000	0.081742	12.234	2746.9	2991.6	8.8086	1.5139	1.9771	565.10	1.5694	1.8537e-05	0.038741	vapor
258.67	0.20000	0.081536	12.264	2749.0	2994.3	8.8136	1.5147	1.9779	565.78	1.5563	1.8592e-05	0.038880	vapor
260.01	0.20000	0.081332	12.295	2751.0	2996.9	8.8185	1.5154	1.9787	566.45	1.5433	1.8647e-05	0.039019	vapor
261.34	0.20000	0.081129	12.326	2753.0	2999.5	8.8235	1.5162	1.9794	567.13	1.5305	1.8702e-05	0.039158	vapor
262.67	0.20000	0.080926	12.357	2755.0	3002.2	8.8284	1.5170	1.9802	567.80	1.5179	1.8757e-05	0.039298	vapor
264.01	0.20000	0.080725	12.388	2757.1	3004.8	8.8333	1.5178	1.9809	568.47	1.5054	1.8812e-05	0.039438	vapor
265.34	0.20000	0.080525	12.419	2759.1	3007.5	8.8382	1.5185	1.9817	569.15	1.4931	1.8867e-05	0.039578	vapor
266.67	0.20000	0.080325	12.449	2761.1	3010.1	8.8431	1.5193	1.9825	569.82	1.4809	1.8922e-05	0.039719	vapor
268.01	0.20000	0.080127	12.480	2763.1	3012.7	8.8480	1.5201	1.9832	570.49	1.4689	1.8977e-05	0.039859	vapor
269.34	0.20000	0.079929	12.511	2765.2	3015.4	8.8529	1.5209	1.9840	571.15	1.4570	1.9032e-05	0.040000	vapor
270.67	0.20000	0.079733	12.542	2767.2	3018.0	8.8578	1.5217	1.9848	571.82	1.4452	1.9087e-05	0.040141	vapor
272.01	0.20000	0.079538	12.573	2769.2	3020.7	8.8626	1.5225	1.9855	572.49	1.4337	1.9142e-05	0.040282	vapor
273.34	0.20000	0.079343	12.603	2771.3	3023.3	8.8675	1.5233	1.9863	573.16	1.4222	1.9197e-05	0.040424	vapor
274.67	0.20000	0.079150	12.634	2773.3	3026.0	8.8723	1.5240	1.9871	573.82	1.4109	1.9252e-05	0.040565	vapor
276.01	0.20000	0.078957	12.665	2775.3	3028.6	8.8772	1.5248	1.9879	574.48	1.3997	1.9307e-05	0.040707	vapor
277.34	0.20000	0.078765	12.696	2777.4	3031.3	8.8820	1.5256	1.9886	575.15	1.3887	1.9362e-05	0.040849	vapor
278.67	0.20000	0.078575	12.727	2779.4	3033.9	8.8868	1.5264	1.9894	575.81	1.3778	1.9417e-05	0.040991	vapor
280.01	0.20000	0.078385	12.758	2781.4	3036.6	8.8916	1.5272	1.9902	576.47	1.3670	1.9472e-05	0.041133	vapor
281.34	0.20000	0.078196	12.788	2783.5	3039.2	8.8964	1.5280	1.9910	577.13	1.3563	1.9527e-05	0.041276	vapor
282.67	0.20000	0.078008	12.819	2785.5	3041.9	8.9012	1.5288	1.9918	577.79	1.3458	1.9582e-05	0.041419	vapor
284.01	0.20000	0.077821	12.850	2787.5	3044.5	8.9059	1.5296	1.9926	578.45	1.3354	1.9637e-05	0.041562	vapor
285.34	0.20000	0.077635	12.881	2789.6	3047.2	8.9107	1.5304	1.9933	579.11	1.3251	1.9693e-05	0.041705	vapor
286.67	0.20000	0.077449	12.912	2791.6	3049.9	8.9155	1.5312	1.9941	579.76	1.3149	1.9748e-05	0.041848	vapor
288.01	0.20000	0.077265	12.942	2793.7	3052.5	8.9202	1.5320	1.9949	580.42	1.3049	1.9803e-05	0.041992	vapor
289.34	0.20000	0.077082	12.973	2795.7	3055.2	8.9249	1.5328	1.9957	581.07	1.2949	1.9858e-05	0.042136	vapor
290.67	0.20000	0.076899	13.004	2797.8	3057.8	8.9297	1.5336	1.9965	581.73	1.2851	1.9913e-05	0.042280	vapor
292.01	0.20000	0.076717	13.035	2799.8	3060.5	8.9344	1.5344	1.9973	582.38	1.2754	1.9969e-05	0.042424	vapor
293.34	0.20000	0.076536	13.066	2801.9	3063.2	8.9391	1.5352	1.9981	583.03	1.2658	2.0024e-05	0.042568	vapor
294.67	0.20000	0.076356	13.097	2803.9	3065.8	8.9438	1.5360	1.9989	583.68	1.2563	2.0079e-05	0.042713	vapor
296.01	0.20000	0.076177	13.127	2806.0	3068.5	8.9485	1.5369	1.9997	584.33	1.2469	2.0134e-05	0.042857	vapor
297.34	0.20000	0.075999	13.158	2808.0	3071.2	8.9532	1.5377	2.0005	584.98	1.2376	2.0189e-05	0.043002	vapor
298.67	0.20000	0.075821	13.189	2810.1	3073.8	8.9578	1.5385	2.0013	585.63	1.2285	2.0245e-05	0.043148	vapor
300.01	0.20000	0.075644	13.220	2812.1	3076.5	8.9625	1.5393	2.0021	586.28	1.2194	2.0300e-05	0.043293	vapor
301.34	0.20000	0.075468	13.251	2814.2	3079.2	8.9671	1.5401	2.0029	586.92	1.2104	2.0355e-05	0.043438	vapor
302.67	0.20000	0.075293	13.281	2816.2	3081.8	8.9718	1.5409	2.0037	587.57	1.2015	2.0411e-05	0.043584	vapor
304.01	0.20000	0.075119	13.312	2818.3	3084.5	8.9764	1.5417	2.0045	588.21	1.1928	2.0466e-05	0.043730	vapor
305.34	0.20000	0.074946	13.343	2820.3	3087.2	8.9811	1.5425	2.0053	588.86	1.1841	2.0521e-05	0.043876	vapor
306.67	0.20000	0.074773	13.374	2822.4	3089.9	8.9857	1.5434	2.0061	589.50	1.1755	2.0576e-05	0.044022	vapor
308.01	0.20000	0.074601	13.405	2824.4	3092.5	8.9903	1.5442	2.0069	590.14	1.1670	2.0632e-05	0.044169	vapor
309.34	0.20000	0.074430	13.435	2826.5	3095.2	8.9949	1.5450	2.0077	590.78	1.1586	2.0687e-05	0.044315	vapor
310.67	0.20000	0.074260	13.466	2828.6	3097.9	8.9995	1.5458	2.0085	591.42	1.1503	2.0742e-05	0.044462	vapor
312.01	0.20000	0.074090	13.497	2830.6	3100.6	9.0041	1.5466	2.0093	592.06	1.1420	2.0798e-05	0.044609	vapor
313.34	0.20000	0.073922	13.528	2832.7	3103.3	9.0086	1.5475	2.0101	592.70	1.1339	2.0853e-05	0.044756	vapor
314.67	0.20000	0.073754	13.559	2834.8	3105.9	9.0132	1.5483	2.0109	593.34	1.1259	2.0908e-05	0.044903	vapor
316.01	0.20000	0.073586	13.589	2836.8	3108.6	9.0178	1.5491	2.0118	593.98	1.1179	2.0964e-05	0.045051	vapor
317.34	0.20000	0.073420	13.620	2838.9	3111.3	9.0223	1.5499	2.0126	594.61	1.1100	2.1019e-05	0.045199	vapor
318.67	0.20000	0.073254	13.651	2841.0	3114.0	9.0268	1.5508	2.0134	595.25	1.1022	2.1075e-05	0.045346	vapor
320.01	0.20000	0.073089	13.682	2843.0	3116.7	9.0314	1.5516	2.0142	595.88	1.0945	2.1130e-05	0.045495	vapor
321.34	0.20000	0.072925	13.713	2845.1	3119.4	9.0359	1.5524	2.0150	596.52	1.0868	2.1185e-05	0.045643	vapor
322.67	0.20000	0.072762	13.743	2847.2	3122.0	9.0404	1.5532	2.0158	597.15	1.0793	2.1241e-05	0.045791	vapor
324.01	0.20000	0.072599	13.774	2849.2	3124.7	9.0449	1.5541	2.0167	597.78	1.0718	2.1296e-05	0.045940	vapor
325.34	0.20000	0.072437	13.805	2851.3	3127.4	9.0494	1.5549	2.0175	598.41	1.0644	2.1351e-05	0.046089	vapor
326.67	0.20000	0.072276	13.836	2853.4	3130.1	9.0539	1.5557	2.0183	599.04	1.0571	2.1407e-05	0.046238	vapor
328.01	0.20000	0.072115	13.867	2855.5	3132.8	9.0584	1.5566	2.0191	599.67	1.0498	2.1462e-05	0.046387	vapor
329.34	0.20000	0.071955	13.897	2857.5	3135.5	9.0629	1.5574	2.0199	600.30	1.0426	2.1518e-05	0.046536	vapor
330.67	0.20000	0.071796	13.928	2859.6	3138.2	9.0673	1.5582	2.0208	600.93	1.0355	2.1573e-05	0.046685	vapor
332.01	0.20000	0.071638	13.959	2861.7	3140.9	9.0718	1.5591	2.0216	601.55	1.0285	2.1628e-05	0.046835	vapor
333.34	0.20000	0.071480	13.990	2863.8	3143.6	9.0762	1.5599	2.0224	602.18	1.0215	2.1684e-05	0.046985	vapor
334.67	0.20000	0.071323	14.021	2865.9	3146.3	9.0807	1.5607	2.0232	602.81	1.0146	2.1739e-05	0.047135	vapor
336.01	0.20000	0.071167	14.051	2867.9	3149.0	9.0851	1.5616	2.0241	603.43	1.0078	2.1795e-05	0.047285	vapor
337.34	0.20000	0.071011	14.082	2870.0	3151.7	9.0895	1.5624	2.0249	604.05	1.0010	2.1850e-05	0.047435	vapor
338.67	0.20000	0.070856	14.113	2872.1	3154.4	9.0940	1.5632	2.0257	604.68	0.99433	2.1906e-05	0.047586	vapor
340.01	0.20000	0.070702	14.144	2874.2	3157.1	9.0984	1.5641	2.0266	605.30	0.98771	2.1961e-05	0.047737	vapor
341.34	0.20000	0.070548	14.175	2876.3	3159.8	9.1028	1.5649	2.0274	605.92	0.98114	2.2016e-05	0.047888	vapor
342.67	0.20000	0.070395	14.205	2878.4	3162.5	9.1072	1.5658	2.0282	606.54	0.97464	2.2072e-05	0.048039	vapor
344.01	0.20000	0.070243	14.236	2880.5	3165.2	9.1116	1.5666	2.0291	607.16	0.96821	2.2127e-05	0.048190	vapor
345.34	0.20000	0.070091	14.267	2882.5	3167.9	9.1159	1.5674	2.0299	607.78	0.96184	2.2183e-05	0.048341	vapor
346.67	0.20000	0.069940	14.298	2884.6	3170.6	9.1203	1.5683	2.0307	608.40	0.95552	2.2238e-05	0.048493	vapor
348.01	0.20000	0.069790	14.329	2886.7	3173.3	9.1247	1.5691	2.0316	609.01	0.94927	2.2293e-05	0.048644	vapor
349.34	0.20000	0.069640	14.359	2888.8	3176.0	9.1290	1.5700	2.0324	609.63	0.94308	2.2349e-05	0.048796	vapor
350.67	0.20000	0.069491	14.390	2890.9	3178.7	9.1334	1.5708	2.0332	610.25	0.93695	2.2404e-05	0.048948	vapor
352.01	0.20000	0.069343	14.421	2893.0	3181.4	9.1377	1.5717	2.0341	610.86	0.93088	2.2460e-05	0.049100	vapor
353.34	0.20000	0.069195	14.452	2895.1	3184.1	9.1421	1.5725	2.0349	611.48	0.92486	2.2515e-05	0.049253	vapor
354.67	0.20000	0.069048	14.483	2897.2	3186.9	9.1464	1.5734	2.0358	612.09	0.91890	2.2571e-05	0.049405	vapor
356.01	0.20000	0.068901	14.513	2899.3	3189.6	9.1507	1.5742	2.0366	612.70	0.91300	2.2626e-05	0.049558	vapor
357.34	0.20000	0.068756	14.544	2901.4	3192.3	9.1550	1.5751	2.0374	613.31	0.90716	2.2681e-05	0.049711	vapor
358.67	0.20000	0.068610	14.575	2903.5	3195.0	9.1593	1.5759	2.0383	613.93	0.90136	2.2737e-05	0.049864	vapor
360.01	0.20000	0.068466	14.606	2905.6	3197.7	9.1636	1.5768	2.0391	614.54	0.89563	2.2792e-05	0.050017	vapor
361.34	0.20000	0.068322	14.637	2907.7	3200.4	9.1679	1.5776	2.0400	615.15	0.88994	2.2848e-05	0.050171	vapor
362.67	0.20000	0.068178	14.667	2909.8	3203.2	9.1722	1.5785	2.0408	615.75	0.88431	2.2903e-05	0.050324	vapor
364.01	0.20000	0.068035	14.698	2911.9	3205.9	9.1765	1.5793	2.0417	616.36	0.87873	2.2959e-05	0.050478	vapor
365.34	0.20000	0.067893	14.729	2914.0	3208.6	9.1807	1.5802	2.0425	616.97	0.87320	2.3014e-05	0.050632	vapor
366.67	0.20000	0.067751	14.760	2916.1	3211.3	9.1850	1.5810	2.0434	617.58	0.86772	2.3069e-05	0.050786	vapor
368.01	0.20000	0.067610	14.791	2918.3	3214.1	9.1893	1.5819	2.0442	618.18	0.86230	2.3125e-05	0.050940	vapor
369.34	0.20000	0.067470	14.821	2920.4	3216.8	9.1935	1.5827	2.0451	618.79	0.85692	2.3180e-05	0.051094	vapor
370.67	0.20000	0.067330	14.852	2922.5	3219.5	9.1977	1.5836	2.0459	619.39	0.85159	2.3236e-05	0.051249	vapor
372.01	0.20000	0.067191	14.883	2924.6	3222.2	9.2020	1.5845	2.0468	620.00	0.84631	2.3291e-05	0.051403	vapor
373.34	0.20000	0.067052	14.914	2926.7	3225.0	9.2062	1.5853	2.0476	620.60	0.84107	2.3346e-05	0.051558	vapor
374.67	0.20000	0.066914	14.945	2928.8	3227.7	9.2104	1.5862	2.0485	621.20	0.83589	2.3402e-05	0.051713	vapor
376.01	0.20000	0.066776	14.975	2930.9	3230.4	9.2146	1.5870	2.0493	621.80	0.83075	2.3457e-05	0.051868	vapor
377.34	0.20000	0.066639	15.006	2933.0	3233.2	9.2188	1.5879	2.0502	622.40	0.82565	2.3513e-05	0.052023	vapor
378.67	0.20000	0.066503	15.037	2935.2	3235.9	9.2230	1.5887	2.0510	623.00	0.82060	2.3568e-05	0.052179	vapor
380.01	0.20000	0.066367	15.068	2937.3	3238.6	9.2272	1.5896	2.0519	623.60	0.81560	2.3623e-05	0.052334	vapor
381.34	0.20000	0.066231	15.099	2939.4	3241.4	9.2314	1.5905	2.0527	624.20	0.81064	2.3679e-05	0.052490	vapor
382.67	0.20000	0.066097	15.129	2941.5	3244.1	9.2356	1.5913	2.0536	624.80	0.80572	2.3734e-05	0.052646	vapor
384.01	0.20000	0.065962	15.160	2943.6	3246.9	9.2398	1.5922	2.0545	625.40	0.80085	2.3789e-05	0.052802	vapor
385.34	0.20000	0.065829	15.191	2945.8	3249.6	9.2439	1.5931	2.0553	625.99	0.79602	2.3845e-05	0.052958	vapor
386.67	0.20000	0.065696	15.222	2947.9	3252.3	9.2481	1.5939	2.0562	626.59	0.79123	2.3900e-05	0.053115	vapor
388.01	0.20000	0.065563	15.253	2950.0	3255.1	9.2522	1.5948	2.0570	627.18	0.78649	2.3956e-05	0.053271	vapor
389.34	0.20000	0.065431	15.283	2952.2	3257.8	9.2564	1.5957	2.0579	627.78	0.78178	2.4011e-05	0.053428	vapor
390.67	0.20000	0.065299	15.314	2954.3	3260.6	9.2605	1.5965	2.0588	628.37	0.77712	2.4066e-05	0.053585	vapor
392.01	0.20000	0.065168	15.345	2956.4	3263.3	9.2647	1.5974	2.0596	628.96	0.77249	2.4122e-05	0.053742	vapor
393.34	0.20000	0.065038	15.376	2958.5	3266.1	9.2688	1.5983	2.0605	629.56	0.76791	2.4177e-05	0.053899	vapor
394.67	0.20000	0.064908	15.406	2960.7	3268.8	9.2729	1.5991	2.0613	630.15	0.76336	2.4232e-05	0.054056	vapor
396.01	0.20000	0.064778	15.437	2962.8	3271.6	9.2770	1.6000	2.0622	630.74	0.75886	2.4288e-05	0.054214	vapor
397.34	0.20000	0.064649	15.468	2964.9	3274.3	9.2811	1.6009	2.0631	631.33	0.75439	2.4343e-05	0.054371	vapor
398.67	0.20000	0.064521	15.499	2967.1	3277.1	9.2852	1.6017	2.0639	631.92	0.74996	2.4398e-05	0.054529	vapor
400.01	0.20000	0.064393	15.530	2969.2	3279.8	9.2893	1.6026	2.0648	632.51	0.74557	2.4453e-05	0.054687	vapor
401.34	0.20000	0.064266	15.560	2971.3	3282.6	9.2934	1.6035	2.0657	633.10	0.74121	2.4509e-05	0.054845	vapor
402.67	0.20000	0.064139	15.591	2973.5	3285.3	9.2975	1.6044	2.0665	633.68	0.73689	2.4564e-05	0.055003	vapor
404.00	0.20000	0.064012	15.622	2975.6	3288.1	9.3015	1.6052	2.0674	634.27	0.73261	2.4619e-05	0.055161	vapor
405.34	0.20000	0.063886	15.653	2977.8	3290.8	9.3056	1.6061	2.0683	634.86	0.72836	2.4675e-05	0.055320	vapor
406.67	0.20000	0.063761	15.684	2979.9	3293.6	9.3097	1.6070	2.0691	635.44	0.72415	2.4730e-05	0.055478	vapor
408.00	0.20000	0.063636	15.714	2982.1	3296.3	9.3137	1.6078	2.0700	636.02	0.71997	2.4785e-05	0.055637	vapor
409.34	0.20000	0.063512	15.745	2984.2	3299.1	9.3178	1.6087	2.0709	636.61	0.71583	2.4840e-05	0.055796	vapor
410.67	0.20000	0.063388	15.776	2986.3	3301.9	9.3218	1.6096	2.0718	637.19	0.71172	2.4896e-05	0.055955	vapor
412.00	0.20000	0.063264	15.807	2988.5	3304.6	9.3259	1.6105	2.0726	637.77	0.70765	2.4951e-05	0.056114	vapor
413.34	0.20000	0.063141	15.838	2990.6	3307.4	9.3299	1.6114	2.0735	638.36	0.70361	2.5006e-05	0.056274	vapor
414.67	0.20000	0.063019	15.868	2992.8	3310.2	9.3339	1.6122	2.0744	638.94	0.69960	2.5061e-05	0.056433	vapor
416.00	0.20000	0.062897	15.899	2994.9	3312.9	9.3379	1.6131	2.0752	639.52	0.69563	2.5117e-05	0.056593	vapor
417.34	0.20000	0.062775	15.930	2997.1	3315.7	9.3419	1.6140	2.0761	640.10	0.69168	2.5172e-05	0.056753	vapor
418.67	0.20000	0.062654	15.961	2999.2	3318.5	9.3459	1.6149	2.0770	640.68	0.68777	2.5227e-05	0.056912	vapor
420.00	0.20000	0.062533	15.991	3001.4	3321.2	9.3499	1.6158	2.0779	641.26	0.68389	2.5282e-05	0.057073	vapor
421.34	0.20000	0.062413	16.022	3003.6	3324.0	9.3539	1.6166	2.0788	641.83	0.68005	2.5337e-05	0.057233	vapor
422.67	0.20000	0.062293	16.053	3005.7	3326.8	9.3579	1.6175	2.0796	642.41	0.67623	2.5393e-05	0.057393	vapor
424.00	0.20000	0.062174	16.084	3007.9	3329.5	9.3619	1.6184	2.0805	642.99	0.67244	2.5448e-05	0.057554	vapor
425.34	0.20000	0.062055	16.115	3010.0	3332.3	9.3659	1.6193	2.0814	643.56	0.66869	2.5503e-05	0.057714	vapor
426.67	0.20000	0.061937	16.145	3012.2	3335.1	9.3699	1.6202	2.0823	644.14	0.66496	2.5558e-05	0.057875	vapor
428.00	0.20000	0.061819	16.176	3014.4	3337.9	9.3738	1.6210	2.0831	644.71	0.66127	2.5613e-05	0.058036	vapor
429.34	0.20000	0.061702	16.207	3016.5	3340.7	9.3778	1.6219	2.0840	645.29	0.65760	2.5668e-05	0.058197	vapor
430.67	0.20000	0.061585	16.238	3018.7	3343.4	9.3817	1.6228	2.0849	645.86	0.65396	2.5723e-05	0.058358	vapor
432.00	0.20000	0.061468	16.269	3020.8	3346.2	9.3857	1.6237	2.0858	646.43	0.65035	2.5778e-05	0.058520	vapor
433.34	0.20000	0.061352	16.299	3023.0	3349.0	9.3896	1.6246	2.0867	647.01	0.64677	2.5834e-05	0.058681	vapor
434.67	0.20000	0.061236	16.330	3025.2	3351.8	9.3936	1.6255	2.0876	647.58	0.64322	2.5889e-05	0.058843	vapor
436.00	0.20000	0.061121	16.361	3027.3	3354.6	9.3975	1.6264	2.0884	648.15	0.63969	2.5944e-05	0.059004	vapor
437.34	0.20000	0.061006	16.392	3029.5	3357.3	9.4014	1.6273	2.0893	648.72	0.63620	2.5999e-05	0.059166	vapor
438.67	0.20000	0.060892	16.422	3031.7	3360.1	9.4053	1.6281	2.0902	649.29	0.63273	2.6054e-05	0.059328	vapor
440.00	0.20000	0.060778	16.453	3033.9	3362.9	9.4092	1.6290	2.0911	649.86	0.62928	2.6109e-05	0.059490	vapor
441.34	0.20000	0.060665	16.484	3036.0	3365.7	9.4131	1.6299	2.0920	650.43	0.62586	2.6164e-05	0.059653	vapor
442.67	0.20000	0.060552	16.515	3038.2	3368.5	9.4170	1.6308	2.0929	650.99	0.62247	2.6219e-05	0.059815	vapor
444.00	0.20000	0.060439	16.546	3040.4	3371.3	9.4209	1.6317	2.0938	651.56	0.61911	2.6274e-05	0.059978	vapor
445.34	0.20000	0.060327	16.576	3042.6	3374.1	9.4248	1.6326	2.0946	652.13	0.61577	2.6329e-05	0.060141	vapor
446.67	0.20000	0.060215	16.607	3044.7	3376.9	9.4287	1.6335	2.0955	652.69	0.61246	2.6384e-05	0.060303	vapor
448.00	0.20000	0.060103	16.638	3046.9	3379.7	9.4326	1.6344	2.0964	653.26	0.60917	2.6439e-05	0.060466	vapor
449.34	0.20000	0.059992	16.669	3049.1	3382.5	9.4365	1.6353	2.0973	653.82	0.60591	2.6494e-05	0.060630	vapor
450.67	0.20000	0.059882	16.700	3051.3	3385.3	9.4403	1.6362	2.0982	654.39	0.60267	2.6549e-05	0.060793	vapor
452.00	0.20000	0.059772	16.730	3053.5	3388.1	9.4442	1.6371	2.0991	654.95	0.59946	2.6604e-05	0.060956	vapor
453.34	0.20000	0.059662	16.761	3055.6	3390.9	9.4481	1.6380	2.1000	655.51	0.59627	2.6659e-05	0.061120	vapor
454.67	0.20000	0.059552	16.792	3057.8	3393.7	9.4519	1.6389	2.1009	656.08	0.59310	2.6714e-05	0.061283	vapor
456.00	0.20000	0.059443	16.823	3060.0	3396.5	9.4558	1.6398	2.1018	656.64	0.58996	2.6769e-05	0.061447	vapor
457.34	0.20000	0.059335	16.853	3062.2	3399.3	9.4596	1.6406	2.1027	657.20	0.58684	2.6824e-05	0.061611	vapor
458.67	0.20000	0.059227	16.884	3064.4	3402.1	9.4634	1.6415	2.1036	657.76	0.58375	2.6878e-05	0.061775	vapor
460.00	0.20000	0.059119	16.915	3066.6	3404.9	9.4673	1.6424	2.1045	658.32	0.58067	2.6933e-05	0.061939	vapor
461.34	0.20000	0.059012	16.946	3068.8	3407.7	9.4711	1.6433	2.1054	658.88	0.57762	2.6988e-05	0.062104	vapor
462.67	0.20000	0.058905	16.977	3071.0	3410.5	9.4749	1.6442	2.1062	659.44	0.57460	2.7043e-05	0.062268	vapor
464.00	0.20000	0.058798	17.007	3073.1	3413.3	9.4787	1.6451	2.1071	659.99	0.57159	2.7098e-05	0.062433	vapor
465.34	0.20000	0.058692	17.038	3075.3	3416.1	9.4825	1.6460	2.1080	660.55	0.56861	2.7153e-05	0.062597	vapor
466.67	0.20000	0.058586	17.069	3077.5	3418.9	9.4863	1.6469	2.1089	661.11	0.56565	2.7208e-05	0.062762	vapor
468.00	0.20000	0.058480	17.100	3079.7	3421.7	9.4901	1.6478	2.1098	661.66	0.56271	2.7262e-05	0.062927	vapor
469.34	0.20000	0.058375	17.131	3081.9	3424.5	9.4939	1.6487	2.1107	662.22	0.55980	2.7317e-05	0.063092	vapor
470.67	0.20000	0.058271	17.161	3084.1	3427.4	9.4977	1.6496	2.1116	662.78	0.55690	2.7372e-05	0.063258	vapor
472.00	0.20000	0.058166	17.192	3086.3	3430.2	9.5015	1.6506	2.1125	663.33	0.55403	2.7427e-05	0.063423	vapor
473.34	0.20000	0.058062	17.223	3088.5	3433.0	9.5053	1.6515	2.1134	663.88	0.55117	2.7482e-05	0.063588	vapor
474.67	0.20000	0.057959	17.254	3090.7	3435.8	9.5090	1.6524	2.1143	664.44	0.54834	2.7536e-05	0.063754	vapor
476.00	0.20000	0.057855	17.284	3092.9	3438.6	9.5128	1.6533	2.1152	664.99	0.54553	2.7591e-05	0.063920	vapor
477.34	0.20000	0.057753	17.315	3095.1	3441.5	9.5166	1.6542	2.1161	665.54	0.54273	2.7646e-05	0.064086	vapor
478.67	0.20000	0.057650	17.346	3097.4	3444.3	9.5203	1.6551	2.1170	666.09	0.53996	2.7700e-05	0.064252	vapor
480.00	0.20000	0.057548	17.377	3099.6	3447.1	9.5241	1.6560	2.1179	666.64	0.53721	2.7755e-05	0.064418	vapor
481.34	0.20000	0.057446	17.408	3101.8	3449.9	9.5278	1.6569	2.1189	667.19	0.53448	2.7810e-05	0.064584	vapor
482.67	0.20000	0.057345	17.438	3104.0	3452.7	9.5316	1.6578	2.1198	667.74	0.53176	2.7865e-05	0.064750	vapor
484.00	0.20000	0.057244	17.469	3106.2	3455.6	9.5353	1.6587	2.1207	668.29	0.52907	2.7919e-05	0.064917	vapor
485.34	0.20000	0.057143	17.500	3108.4	3458.4	9.5390	1.6596	2.1216	668.84	0.52639	2.7974e-05	0.065083	vapor
486.67	0.20000	0.057043	17.531	3110.6	3461.2	9.5428	1.6605	2.1225	669.39	0.52374	2.8028e-05	0.065250	vapor
488.00	0.20000	0.056943	17.561	3112.8	3464.1	9.5465	1.6614	2.1234	669.94	0.52110	2.8083e-05	0.065417	vapor
489.34	0.20000	0.056843	17.592	3115.0	3466.9	9.5502	1.6623	2.1243	670.48	0.51848	2.8138e-05	0.065584	vapor
490.67	0.20000	0.056744	17.623	3117.3	3469.7	9.5539	1.6632	2.1252	671.03	0.51588	2.8192e-05	0.065751	vapor
492.00	0.20000	0.056645	17.654	3119.5	3472.6	9.5576	1.6642	2.1261	671.58	0.51330	2.8247e-05	0.065919	vapor
493.34	0.20000	0.056546	17.685	3121.7	3475.4	9.5613	1.6651	2.1270	672.12	0.51074	2.8301e-05	0.066086	vapor
494.67	0.20000	0.056448	17.715	3123.9	3478.2	9.5650	1.6660	2.1279	672.67	0.50819	2.8356e-05	0.066253	vapor
496.00	0.20000	0.056350	17.746	3126.1	3481.1	9.5687	1.6669	2.1288	673.21	0.50566	2.8410e-05	0.066421	vapor
497.34	0.20000	0.056253	17.777	3128.4	3483.9	9.5724	1.6678	2.1297	673.75	0.50315	2.8465e-05	0.066589	vapor
498.67	0.20000	0.056155	17.808	3130.6	3486.8	9.5761	1.6687	2.1306	674.30	0.50066	2.8519e-05	0.066757	vapor
500.00	0.20000	0.056058	17.839	3132.8	3489.6	9.5798	1.6696	2.1316	674.84	0.49818	2.8574e-05	0.066925	vapor
501.34	0.20000	0.055962	17.869	3135.0	3492.4	9.5834	1.6705	2.1325	675.38	0.49572	2.8628e-05	0.067093	vapor
502.67	0.20000	0.055866	17.900	3137.3	3495.3	9.5871	1.6715	2.1334	675.92	0.49328	2.8683e-05	0.067261	vapor
504.00	0.20000	0.055770	17.931	3139.5	3498.1	9.5908	1.6724	2.1343	676.46	0.49085	2.8737e-05	0.067429	vapor
505.34	0.20000	0.055674	17.962	3141.7	3501.0	9.5944	1.6733	2.1352	677.00	0.48844	2.8792e-05	0.067598	vapor
506.67	0.20000	0.055579	17.992	3144.0	3503.8	9.5981	1.6742	2.1361	677.54	0.48605	2.8846e-05	0.067766	vapor
508.00	0.20000	0.055484	18.023	3146.2	3506.7	9.6017	1.6751	2.1370	678.08	0.48367	2.8901e-05	0.067935	vapor
509.34	0.20000	0.055389	18.054	3148.4	3509.5	9.6054	1.6760	2.1379	678.62	0.48131	2.8955e-05	0.068104	vapor
510.67	0.20000	0.055295	18.085	3150.7	3512.4	9.6090	1.6770	2.1389	679.16	0.47897	2.9009e-05	0.068273	vapor
512.00	0.20000	0.055201	18.116	3152.9	3515.2	9.6127	1.6779	2.1398	679.70	0.47664	2.9064e-05	0.068442	vapor
513.34	0.20000	0.055108	18.146	3155.1	3518.1	9.6163	1.6788	2.1407	680.23	0.47433	2.9118e-05	0.068611	vapor
514.67	0.20000	0.055014	18.177	3157.4	3520.9	9.6199	1.6797	2.1416	680.77	0.47203	2.9172e-05	0.068780	vapor
516.00	0.20000	0.054921	18.208	3159.6	3523.8	9.6235	1.6806	2.1425	681.31	0.46975	2.9227e-05	0.068950	vapor
517.34	0.20000	0.054829	18.239	3161.9	3526.6	9.6272	1.6815	2.1434	681.84	0.46748	2.9281e-05	0.069119	vapor
518.67	0.20000	0.054736	18.269	3164.1	3529.5	9.6308	1.6825	2.1444	682.38	0.46523	2.9335e-05	0.069289	vapor
520.00	0.20000	0.054644	18.300	3166.4	3532.4	9.6344	1.6834	2.1453	682.91	0.46300	2.9390e-05	0.069459	vapor
521.34	0.20000	0.054552	18.331	3168.6	3535.2	9.6380	1.6843	2.1462	683.44	0.46077	2.9444e-05	0.069629	vapor
522.67	0.20000	0.054461	18.362	3170.8	3538.1	9.6416	1.6852	2.1471	683.98	0.45857	2.9498e-05	0.069799	vapor
524.00	0.20000	0.054370	18.393	3173.1	3540.9	9.6452	1.6861	2.1480	684.51	0.45638	2.9552e-05	0.069969	vapor
525.34	0.20000	0.054279	18.423	3175.3	3543.8	9.6488	1.6871	2.1490	685.04	0.45420	2.9606e-05	0.070139	vapor
526.67	0.20000	0.054188	18.454	3177.6	3546.7	9.6524	1.6880	2.1499	685.57	0.45204	2.9661e-05	0.070309	vapor
528.00	0.20000	0.054098	18.485	3179.8	3549.5	9.6559	1.6889	2.1508	686.11	0.44989	2.9715e-05	0.070480	vapor
529.34	0.20000	0.054008	18.516	3182.1	3552.4	9.6595	1.6898	2.1517	686.64	0.44775	2.9769e-05	0.070650	vapor
530.67	0.20000	0.053919	18.546	3184.4	3555.3	9.6631	1.6908	2.1526	687.17	0.44563	2.9823e-05	0.070821	vapor
532.00	0.20000	0.053829	18.577	3186.6	3558.2	9.6667	1.6917	2.1536	687.70	0.44352	2.9877e-05	0.070992	vapor
533.34	0.20000	0.053740	18.608	3188.9	3561.0	9.6702	1.6926	2.1545	688.23	0.44143	2.9931e-05	0.071163	vapor
534.67	0.20000	0.053651	18.639	3191.1	3563.9	9.6738	1.6935	2.1554	688.75	0.43935	2.9985e-05	0.071334	vapor
536.00	0.20000	0.053563	18.670	3193.4	3566.8	9.6773	1.6945	2.1563	689.28	0.43728	3.0039e-05	0.071505	vapor
537.34	0.20000	0.053475	18.700	3195.6	3569.6	9.6809	1.6954	2.1572	689.81	0.43523	3.0093e-05	0.071676	vapor
538.67	0.20000	0.053387	18.731	3197.9	3572.5	9.6844	1.6963	2.1582	690.34	0.43319	3.0148e-05	0.071848	vapor
540.00	0.20000	0.053299	18.762	3200.2	3575.4	9.6880	1.6972	2.1591	690.86	0.43117	3.0202e-05	0.072019	vapor
541.34	0.20000	0.053212	18.793	3202.4	3578.3	9.6915	1.6982	2.1600	691.39	0.42915	3.0256e-05	0.072191	vapor
542.67	0.20000	0.053125	18.823	3204.7	3581.2	9.6950	1.6991	2.1609	691.91	0.42715	3.0310e-05	0.072363	vapor
544.00	0.20000	0.053038	18.854	3207.0	3584.0	9.6986	1.7000	2.1619	692.44	0.42516	3.0364e-05	0.072534	vapor
545.34	0.20000	0.052952	18.885	3209.2	3586.9	9.7021	1.7009	2.1628	692.96	0.42319	3.0417e-05	0.072706	vapor
546.67	0.20000	0.052866	18.916	3211.5	3589.8	9.7056	1.7019	2.1637	693.49	0.42123	3.0471e-05	0.072878	vapor
548.00	0.20000	0.052780	18.947	3213.8	3592.7	9.7091	1.7028	2.1647	694.01	0.41928	3.0525e-05	0.073051	vapor
549.34	0.20000	0.052694	18.977	3216.0	3595.6	9.7126	1.7037	2.1656	694.54	0.41734	3.0579e-05	0.073223	vapor
550.67	0.20000	0.052609	19.008	3218.3	3598.5	9.7162	1.7047	2.1665	695.06	0.41541	3.0633e-05	0.073395	vapor
552.00	0.20000	0.052524	19.039	3220.6	3601.4	9.7197	1.7056	2.1674	695.58	0.41350	3.0687e-05	0.073568	vapor
553.34	0.20000	0.052439	19.070	3222.9	3604.3	9.7232	1.7065	2.1684	696.10	0.41160	3.0741e-05	0.073740	vapor
554.67	0.20000	0.052355	19.100	3225.1	3607.1	9.7267	1.7074	2.1693	696.62	0.40971	3.0795e-05	0.073913	vapor
556.00	0.20000	0.052270	19.131	3227.4	3610.0	9.7301	1.7084	2.1702	697.14	0.40784	3.0848e-05	0.074086	vapor
557.34	0.20000	0.052186	19.162	3229.7	3612.9	9.7336	1.7093	2.1711	697.66	0.40597	3.0902e-05	0.074259	vapor
558.67	0.20000	0.052103	19.193	3232.0	3615.8	9.7371	1.7102	2.1721	698.18	0.40412	3.0956e-05	0.074432	vapor
560.00	0.20000	0.052019	19.224	3234.3	3618.7	9.7406	1.7112	2.1730	698.70	0.40227	3.1010e-05	0.074605	vapor
561.34	0.20000	0.051936	19.254	3236.5	3621.6	9.7441	1.7121	2.1739	699.22	0.40044	3.1064e-05	0.074778	vapor
562.67	0.20000	0.051853	19.285	3238.8	3624.5	9.7475	1.7130	2.1749	699.74	0.39862	3.1117e-05	0.074952	vapor
564.00	0.20000	0.051771	19.316	3241.1	3627.4	9.7510	1.7140	2.1758	700.26	0.39682	3.1171e-05	0.075125	vapor
565.34	0.20000	0.051688	19.347	3243.4	3630.3	9.7545	1.7149	2.1767	700.77	0.39502	3.1225e-05	0.075299	vapor
566.67	0.20000	0.051606	19.377	3245.7	3633.2	9.7579	1.7158	2.1777	701.29	0.39323	3.1278e-05	0.075472	vapor
568.00	0.20000	0.051524	19.408	3248.0	3636.1	9.7614	1.7168	2.1786	701.81	0.39146	3.1332e-05	0.075646	vapor
569.34	0.20000	0.051443	19.439	3250.3	3639.0	9.7648	1.7177	2.1795	702.32	0.38970	3.1386e-05	0.075820	vapor
570.67	0.20000	0.051362	19.470	3252.5	3641.9	9.7683	1.7186	2.1805	702.84	0.38794	3.1439e-05	0.075994	vapor
572.00	0.20000	0.051280	19.501	3254.8	3644.8	9.7717	1.7196	2.1814	703.35	0.38620	3.1493e-05	0.076168	vapor
573.34	0.20000	0.051200	19.531	3257.1	3647.8	9.7752	1.7205	2.1823	703.87	0.38447	3.1547e-05	0.076342	vapor
574.67	0.20000	0.051119	19.562	3259.4	3650.7	9.7786	1.7214	2.1833	704.38	0.38275	3.1600e-05	0.076517	vapor
576.00	0.20000	0.051039	19.593	3261.7	3653.6	9.7820	1.7224	2.1842	704.89	0.38104	3.1654e-05	0.076691	vapor
577.34	0.20000	0.050959	19.624	3264.0	3656.5	9.7855	1.7233	2.1851	705.41	0.37934	3.1707e-05	0.076866	vapor
578.67	0.20000	0.050879	19.654	3266.3	3659.4	9.7889	1.7243	2.1861	705.92	0.37765	3.1761e-05	0.077040	vapor
580.00	0.20000	0.050799	19.685	3268.6	3662.3	9.7923	1.7252	2.1870	706.43	0.37597	3.1814e-05	0.077215	vapor
581.34	0.20000	0.050720	19.716	3270.9	3665.2	9.7957	1.7261	2.1879	706.94	0.37430	3.1868e-05	0.077390	vapor
582.67	0.20000	0.050641	19.747	3273.2	3668.2	9.7991	1.7271	2.1889	707.45	0.37264	3.1921e-05	0.077565	vapor
584.00	0.20000	0.050562	19.778	3275.5	3671.1	9.8025	1.7280	2.1898	707.96	0.37099	3.1975e-05	0.077740	vapor
585.34	0.20000	0.050484	19.808	3277.8	3674.0	9.8060	1.7289	2.1907	708.47	0.36935	3.2028e-05	0.077915	vapor
586.67	0.20000	0.050405	19.839	3280.1	3676.9	9.8094	1.7299	2.1917	708.98	0.36772	3.2082e-05	0.078090	vapor
588.00	0.20000	0.050327	19.870	3282.4	3679.8	9.8127	1.7308	2.1926	709.49	0.36610	3.2135e-05	0.078266	vapor
589.34	0.20000	0.050249	19.901	3284.8	3682.8	9.8161	1.7318	2.1936	710.00	0.36449	3.2188e-05	0.078441	vapor
590.67	0.20000	0.050172	19.931	3287.1	3685.7	9.8195	1.7327	2.1945	710.51	0.36289	3.2242e-05	0.078617	vapor
592.00	0.20000	0.050095	19.962	3289.4	3688.6	9.8229	1.7336	2.1954	711.02	0.36130	3.2295e-05	0.078792	vapor
593.34	0.20000	0.050017	19.993	3291.7	3691.5	9.8263	1.7346	2.1964	711.52	0.35972	3.2348e-05	0.078968	vapor
594.67	0.20000	0.049941	20.024	3294.0	3694.5	9.8297	1.7355	2.1973	712.03	0.35815	3.2402e-05	0.079144	vapor
596.00	0.20000	0.049864	20.055	3296.3	3697.4	9.8330	1.7364	2.1982	712.54	0.35658	3.2455e-05	0.079320	vapor
597.34	0.20000	0.049787	20.085	3298.6	3700.3	9.8364	1.7374	2.1992	713.04	0.35503	3.2508e-05	0.079496	vapor
598.67	0.20000	0.049711	20.116	3300.9	3703.3	9.8398	1.7383	2.2001	713.55	0.35349	3.2561e-05	0.079672	vapor
600.00	0.20000	0.049635	20.147	3303.3	3706.2	9.8431	1.7393	2.2011	714.05	0.35195	3.2615e-05	0.079849	vapor
601.34	0.20000	0.049560	20.178	3305.6	3709.1	9.8465	1.7402	2.2020	714.56	0.35042	3.2668e-05	0.080025	vapor
602.67	0.20000	0.049484	20.208	3307.9	3712.1	9.8499	1.7411	2.2029	715.06	0.34891	3.2721e-05	0.080202	vapor
604.00	0.20000	0.049409	20.239	3310.2	3715.0	9.8532	1.7421	2.2039	715.57	0.34740	3.2774e-05	0.080378	vapor
605.34	0.20000	0.049334	20.270	3312.6	3718.0	9.8566	1.7430	2.2048	716.07	0.34590	3.2827e-05	0.080555	vapor
606.67	0.20000	0.049259	20.301	3314.9	3720.9	9.8599	1.7440	2.2058	716.57	0.34441	3.2880e-05	0.080732	vapor
608.00	0.20000	0.049185	20.332	3317.2	3723.8	9.8632	1.7449	2.2067	717.08	0.34293	3.2934e-05	0.080908	vapor
609.34	0.20000	0.049110	20.362	3319.5	3726.8	9.8666	1.7459	2.2076	717.58	0.34145	3.2987e-05	0.081085	vapor
610.67	0.20000	0.049036	20.393	3321.9	3729.7	9.8699	1.7468	2.2086	718.08	0.33999	3.3040e-05	0.081262	vapor
612.00	0.20000	0.048962	20.424	3324.2	3732.7	9.8733	1.7477	2.2095	718.58	0.33853	3.3093e-05	0.081440	vapor
613.34	0.20000	0.048889	20.455	3326.5	3735.6	9.8766	1.7487	2.2105	719.08	0.33708	3.3146e-05	0.081617	vapor
614.67	0.20000	0.048815	20.485	3328.9	3738.6	9.8799	1.7496	2.2114	719.58	0.33564	3.3199e-05	0.081794	vapor
616.00	0.20000	0.048742	20.516	3331.2	3741.5	9.8832	1.7506	2.2123	720.08	0.33421	3.3252e-05	0.081972	vapor
617.34	0.20000	0.048669	20.547	3333.5	3744.5	9.8865	1.7515	2.2133	720.58	0.33279	3.3305e-05	0.082149	vapor
618.67	0.20000	0.048596	20.578	3335.9	3747.4	9.8898	1.7525	2.2142	721.08	0.33137	3.3358e-05	0.082327	vapor
620.00	0.20000	0.048524	20.609	3338.2	3750.4	9.8932	1.7534	2.2152	721.58	0.32996	3.3411e-05	0.082505	vapor
621.34	0.20000	0.048451	20.639	3340.5	3753.3	9.8965	1.7543	2.2161	722.08	0.32856	3.3464e-05	0.082683	vapor
622.67	0.20000	0.048379	20.670	3342.9	3756.3	9.8998	1.7553	2.2171	722.57	0.32717	3.3517e-05	0.082860	vapor
624.00	0.20000	0.048307	20.701	3345.2	3759.2	9.9031	1.7562	2.2180	723.07	0.32579	3.3569e-05	0.083039	vapor
625.34	0.20000	0.048235	20.732	3347.6	3762.2	9.9064	1.7572	2.2189	723.57	0.32441	3.3622e-05	0.083217	vapor
626.67	0.20000	0.048164	20.762	3349.9	3765.1	9.9096	1.7581	2.2199	724.06	0.32305	3.3675e-05	0.083395	vapor
628.00	0.20000	0.048093	20.793	3352.2	3768.1	9.9129	1.7591	2.2208	724.56	0.32168	3.3728e-05	0.083573	vapor
629.34	0.20000	0.048022	20.824	3354.6	3771.1	9.9162	1.7600	2.2218	725.06	0.32033	3.3781e-05	0.083752	vapor
630.67	0.20000	0.047951	20.855	3356.9	3774.0	9.9195	1.7610	2.2227	725.55	0.31899	3.3834e-05	0.083930	vapor
632.00	0.20000	0.047880	20.886	3359.3	3777.0	9.9228	1.7619	2.2237	726.05	0.31765	3.3886e-05	0.084109	vapor
633.34	0.20000	0.047810	20.916	3361.6	3780.0	9.9260	1.7628	2.2246	726.54	0.31632	3.3939e-05	0.084287	vapor
634.67	0.20000	0.047739	20.947	3364.0	3782.9	9.9293	1.7638	2.2255	727.03	0.31500	3.3992e-05	0.084466	vapor
636.00	0.20000	0.047669	20.978	3366.3	3785.9	9.9326	1.7647	2.2265	727.53	0.31368	3.4045e-05	0.084645	vapor
637.34	0.20000	0.047599	21.009	3368.7	3788.9	9.9359	1.7657	2.2274	728.02	0.31238	3.4097e-05	0.084824	vapor
638.67	0.20000	0.047530	21.039	3371.0	3791.8	9.9391	1.7666	2.2284	728.51	0.31108	3.4150e-05	0.085003	vapor
640.00	0.20000	0.047460	21.070	3373.4	3794.8	9.9424	1.7676	2.2293	729.01	0.30978	3.4203e-05	0.085182	vapor
641.34	0.20000	0.047391	21.101	3375.8	3797.8	9.9456	1.7685	2.2303	729.50	0.30850	3.4255e-05	0.085362	vapor
642.67	0.20000	0.047322	21.132	3378.1	3800.8	9.9489	1.7695	2.2312	729.99	0.30722	3.4308e-05	0.085541	vapor
644.00	0.20000	0.047253	21.163	3380.5	3803.7	9.9521	1.7704	2.2322	730.48	0.30595	3.4360e-05	0.085721	vapor
645.34	0.20000	0.047185	21.193	3382.8	3806.7	9.9554	1.7714	2.2331	730.97	0.30468	3.4413e-05	0.085900	vapor
646.67	0.20000	0.047116	21.224	3385.2	3809.7	9.9586	1.7723	2.2340	731.46	0.30342	3.4466e-05	0.086080	vapor
648.00	0.20000	0.047048	21.255	3387.6	3812.7	9.9618	1.7732	2.2350	731.95	0.30217	3.4518e-05	0.086259	vapor
649.34	0.20000	0.046980	21.286	3389.9	3815.6	9.9651	1.7742	2.2359	732.44	0.30093	3.4571e-05	0.086439	vapor
650.67	0.20000	0.046912	21.316	3392.3	3818.6	9.9683	1.7751	2.2369	732.93	0.29969	3.4623e-05	0.086619	vapor
652.00	0.20000	0.046845	21.347	3394.7	3821.6	9.9715	1.7761	2.2378	733.42	0.29846	3.4676e-05	0.086799	vapor
653.34	0.20000	0.046777	21.378	3397.0	3824.6	9.9748	1.7770	2.2388	733.90	0.29724	3.4728e-05	0.086979	vapor
654.67	0.20000	0.046710	21.409	3399.4	3827.6	9.9780	1.7780	2.2397	734.39	0.29602	3.4780e-05	0.087159	vapor
656.00	0.20000	0.046643	21.439	3401.8	3830.6	9.9812	1.7789	2.2407	734.88	0.29481	3.4833e-05	0.087340	vapor
657.34	0.20000	0.046576	21.470	3404.2	3833.6	9.9844	1.7799	2.2416	735.37	0.29361	3.4885e-05	0.087520	vapor
658.67	0.20000	0.046509	21.501	3406.5	3836.5	9.9876	1.7808	2.2426	735.85	0.29241	3.4938e-05	0.087701	vapor
660.00	0.20000	0.046443	21.532	3408.9	3839.5	9.9908	1.7818	2.2435	736.34	0.29122	3.4990e-05	0.087881	vapor
661.34	0.20000	0.046377	21.563	3411.3	3842.5	9.9940	1.7827	2.2445	736.82	0.29003	3.5042e-05	0.088062	vapor
662.67	0.20000	0.046311	21.593	3413.7	3845.5	9.9972	1.7837	2.2454	737.31	0.28886	3.5095e-05	0.088242	vapor
664.00	0.20000	0.046245	21.624	3416.0	3848.5	10.000	1.7846	2.2463	737.80	0.28768	3.5147e-05	0.088423	vapor
665.34	0.20000	0.046179	21.655	3418.4	3851.5	10.004	1.7856	2.2473	738.28	0.28652	3.5199e-05	0.088604	vapor
666.67	0.20000	0.046113	21.686	3420.8	3854.5	10.007	1.7865	2.2482	738.76	0.28536	3.5252e-05	0.088785	vapor
668.00	0.20000	0.046048	21.716	3423.2	3857.5	10.010	1.7875	2.2492	739.25	0.28421	3.5304e-05	0.088966	vapor
669.33	0.20000	0.045983	21.747	3425.6	3860.5	10.013	1.7884	2.2501	739.73	0.28306	3.5356e-05	0.089147	vapor
670.67	0.20000	0.045918	21.778	3427.9	3863.5	10.016	1.7894	2.2511	740.21	0.28192	3.5408e-05	0.089329	vapor
672.00	0.20000	0.045853	21.809	3430.3	3866.5	10.020	1.7903	2.2520	740.70	0.28078	3.5460e-05	0.089510	vapor
673.33	0.20000	0.045788	21.840	3432.7	3869.5	10.023	1.7912	2.2530	741.18	0.27966	3.5512e-05	0.089691	vapor
674.67	0.20000	0.045724	21.870	3435.1	3872.5	10.026	1.7922	2.2539	741.66	0.27853	3.5565e-05	0.089873	vapor
676.00	0.20000	0.045660	21.901	3437.5	3875.5	10.029	1.7931	2.2549	742.14	0.27742	3.5617e-05	0.090054	vapor
677.33	0.20000	0.045596	21.932	3439.9	3878.5	10.032	1.7941	2.2558	742.62	0.27631	3.5669e-05	0.090236	vapor
678.67	0.20000	0.045532	21.963	3442.3	3881.5	10.035	1.7950	2.2568	743.10	0.27520	3.5721e-05	0.090418	vapor
680.00	0.20000	0.045468	21.993	3444.7	3884.5	10.039	1.7960	2.2577	743.58	0.27410	3.5773e-05	0.090600	vapor
681.33	0.20000	0.045405	22.024	3447.1	3887.6	10.042	1.7969	2.2587	744.06	0.27301	3.5825e-05	0.090782	vapor
682.67	0.20000	0.045341	22.055	3449.5	3890.6	10.045	1.7979	2.2596	744.54	0.27192	3.5877e-05	0.090964	vapor
684.00	0.20000	0.045278	22.086	3451.9	3893.6	10.048	1.7988	2.2605	745.02	0.27084	3.5929e-05	0.091146	vapor
685.33	0.20000	0.045215	22.117	3454.3	3896.6	10.051	1.7998	2.2615	745.50	0.26976	3.5981e-05	0.091328	vapor
686.67	0.20000	0.045152	22.147	3456.7	3899.6	10.054	1.8007	2.2624	745.98	0.26869	3.6033e-05	0.091510	vapor
688.00	0.20000	0.045090	22.178	3459.1	3902.6	10.057	1.8017	2.2634	746.46	0.26763	3.6085e-05	0.091693	vapor
689.33	0.20000	0.045027	22.209	3461.5	3905.7	10.061	1.8026	2.2643	746.94	0.26657	3.6137e-05	0.091875	vapor
690.67	0.20000	0.044965	22.240	3463.9	3908.7	10.064	1.8036	2.2653	747.41	0.26552	3.6189e-05	0.092058	vapor
692.00	0.20000	0.044903	22.270	3466.3	3911.7	10.067	1.8045	2.2662	747.89	0.26447	3.6241e-05	0.092240	vapor
693.33	0.20000	0.044841	22.301	3468.7	3914.7	10.070	1.8055	2.2672	748.37	0.26342	3.6292e-05	0.092423	vapor
694.67	0.20000	0.044779	22.332	3471.1	3917.7	10.073	1.8064	2.2681	748.84	0.26239	3.6344e-05	0.092606	vapor
696.00	0.20000	0.044717	22.363	3473.5	3920.8	10.076	1.8074	2.2691	749.32	0.26135	3.6396e-05	0.092789	vapor
697.33	0.20000	0.044656	22.393	3475.9	3923.8	10.079	1.8083	2.2700	749.79	0.26033	3.6448e-05	0.092972	vapor
698.67	0.20000	0.044595	22.424	3478.3	3926.8	10.082	1.8093	2.2710	750.27	0.25931	3.6500e-05	0.093155	vapor
700.00	0.20000	0.044533	22.455	3480.7	3929.8	10.086	1.8102	2.2719	750.74	0.25829	3.6551e-05	0.093338	vapor
701.33	0.20000	0.044472	22.486	3483.2	3932.9	10.089	1.8112	2.2729	751.22	0.25728	3.6603e-05	0.093521	vapor
702.67	0.20000	0.044412	22.517	3485.6	3935.9	10.092	1.8121	2.2738	751.69	0.25627	3.6655e-05	0.093704	vapor
704.00	0.20000	0.044351	22.547	3488.0	3938.9	10.095	1.8130	2.2748	752.16	0.25527	3.6706e-05	0.093888	vapor
705.33	0.20000	0.044291	22.578	3490.4	3942.0	10.098	1.8140	2.2757	752.64	0.25428	3.6758e-05	0.094071	vapor
706.67	0.20000	0.044230	22.609	3492.8	3945.0	10.101	1.8149	2.2766	753.11	0.25329	3.6810e-05	0.094255	vapor
708.00	0.20000	0.044170	22.640	3495.2	3948.0	10.104	1.8159	2.2776	753.58	0.25230	3.6861e-05	0.094438	vapor
709.33	0.20000	0.044110	22.670	3497.7	3951.1	10.107	1.8168	2.2785	754.06	0.25132	3.6913e-05	0.094622	vapor
710.67	0.20000	0.044050	22.701	3500.1	3954.1	10.110	1.8178	2.2795	754.53	0.25034	3.6965e-05	0.094806	vapor
712.00	0.20000	0.043991	22.732	3502.5	3957.2	10.113	1.8187	2.2804	755.00	0.24937	3.7016e-05	0.094990	vapor
713.33	0.20000	0.043931	22.763	3504.9	3960.2	10.117	1.8197	2.2814	755.47	0.24841	3.7068e-05	0.095174	vapor
714.67	0.20000	0.043872	22.794	3507.4	3963.2	10.120	1.8206	2.2823	755.94	0.24745	3.7119e-05	0.095358	vapor
716.00	0.20000	0.043813	22.824	3509.8	3966.3	10.123	1.8216	2.2833	756.41	0.24649	3.7171e-05	0.095542	vapor
717.33	0.20000	0.043754	22.855	3512.2	3969.3	10.126	1.8225	2.2842	756.88	0.24554	3.7222e-05	0.095726	vapor
718.67	0.20000	0.043695	22.886	3514.7	3972.4	10.129	1.8235	2.2852	757.35	0.24459	3.7274e-05	0.095910	vapor
720.00	0.20000	0.043636	22.917	3517.1	3975.4	10.132	1.8244	2.2861	757.82	0.24365	3.7325e-05	0.096095	vapor
721.33	0.20000	0.043578	22.947	3519.5	3978.5	10.135	1.8254	2.2871	758.29	0.24272	3.7376e-05	0.096279	vapor
722.67	0.20000	0.043520	22.978	3522.0	3981.5	10.138	1.8263	2.2880	758.76	0.24178	3.7428e-05	0.096464	vapor
724.00	0.20000	0.043461	23.009	3524.4	3984.6	10.141	1.8273	2.2889	759.23	0.24086	3.7479e-05	0.096648	vapor
725.33	0.20000	0.043403	23.040	3526.8	3987.6	10.144	1.8282	2.2899	759.69	0.23993	3.7531e-05	0.096833	vapor
726.67	0.20000	0.043345	23.071	3529.3	3990.7	10.147	1.8291	2.2908	760.16	0.23902	3.7582e-05	0.097018	vapor
728.00	0.20000	0.043288	23.101	3531.7	3993.7	10.150	1.8301	2.2918	760.63	0.23810	3.7633e-05	0.097203	vapor
729.33	0.20000	0.043230	23.132	3534.1	3996.8	10.153	1.8310	2.2927	761.09	0.23719	3.7685e-05	0.097387	vapor
730.67	0.20000	0.043173	23.163	3536.6	3999.8	10.156	1.8320	2.2937	761.56	0.23629	3.7736e-05	0.097572	vapor
732.00	0.20000	0.043115	23.194	3539.0	4002.9	10.159	1.8329	2.2946	762.03	0.23539	3.7787e-05	0.097758	vapor
733.33	0.20000	0.043058	23.224	3541.5	4006.0	10.162	1.8339	2.2956	762.49	0.23449	3.7838e-05	0.097943	vapor
734.67	0.20000	0.043001	23.255	3543.9	4009.0	10.166	1.8348	2.2965	762.96	0.23360	3.7890e-05	0.098128	vapor
736.00	0.20000	0.042944	23.286	3546.4	4012.1	10.169	1.8358	2.2975	763.42	0.23271	3.7941e-05	0.098313	vapor
737.33	0.20000	0.042888	23.317	3548.8	4015.2	10.172	1.8367	2.2984	763.89	0.23183	3.7992e-05	0.098499	vapor
738.67	0.20000	0.042831	23.347	3551.3	4018.2	10.175	1.8377	2.2993	764.35	0.23095	3.8043e-05	0.098684	vapor
740.00	0.20000	0.042775	23.378	3553.7	4021.3	10.178	1.8386	2.3003	764.82	0.23008	3.8094e-05	0.098870	vapor
741.33	0.20000	0.042719	23.409	3556.2	4024.4	10.181	1.8395	2.3012	765.28	0.22921	3.8145e-05	0.099055	vapor
742.67	0.20000	0.042662	23.440	3558.6	4027.4	10.184	1.8405	2.3022	765.74	0.22834	3.8196e-05	0.099241	vapor
744.00	0.20000	0.042607	23.471	3561.1	4030.5	10.187	1.8414	2.3031	766.21	0.22748	3.8247e-05	0.099427	vapor
745.33	0.20000	0.042551	23.501	3563.5	4033.6	10.190	1.8424	2.3041	766.67	0.22663	3.8298e-05	0.099612	vapor
746.67	0.20000	0.042495	23.532	3566.0	4036.6	10.193	1.8433	2.3050	767.13	0.22577	3.8349e-05	0.099798	vapor
748.00	0.20000	0.042440	23.563	3568.5	4039.7	10.196	1.8443	2.3059	767.59	0.22493	3.8400e-05	0.099984	vapor
749.33	0.20000	0.042384	23.594	3570.9	4042.8	10.199	1.8452	2.3069	768.06	0.22408	3.8451e-05	0.10017	vapor
750.67	0.20000	0.042329	23.624	3573.4	4045.9	10.202	1.8462	2.3078	768.52	0.22324	3.8502e-05	0.10036	vapor
752.00	0.20000	0.042274	23.655	3575.8	4048.9	10.205	1.8471	2.3088	768.98	0.22240	3.8553e-05	0.10054	vapor
753.33	0.20000	0.042219	23.686	3578.3	4052.0	10.208	1.8480	2.3097	769.44	0.22157	3.8604e-05	0.10073	vapor
754.67	0.20000	0.042164	23.717	3580.8	4055.1	10.211	1.8490	2.3107	769.90	0.22074	3.8655e-05	0.10092	vapor
756.00	0.20000	0.042110	23.748	3583.2	4058.2	10.214	1.8499	2.3116	770.36	0.21992	3.8706e-05	0.10110	vapor
757.33	0.20000	0.042055	23.778	3585.7	4061.3	10.217	1.8509	2.3125	770.82	0.21910	3.8757e-05	0.10129	vapor
758.67	0.20000	0.042001	23.809	3588.2	4064.3	10.220	1.8518	2.3135	771.28	0.21828	3.8808e-05	0.10148	vapor
760.00	0.20000	0.041947	23.840	3590.6	4067.4	10.223	1.8528	2.3144	771.74	0.21747	3.8859e-05	0.10166	vapor
761.33	0.20000	0.041893	23.871	3593.1	4070.5	10.226	1.8537	2.3154	772.20	0.21666	3.8909e-05	0.10185	vapor
762.67	0.20000	0.041839	23.901	3595.6	4073.6	10.229	1.8546	2.3163	772.66	0.21586	3.8960e-05	0.10204	vapor
764.00	0.20000	0.041785	23.932	3598.1	4076.7	10.232	1.8556	2.3172	773.11	0.21506	3.9011e-05	0.10222	vapor
765.33	0.20000	0.041731	23.963	3600.5	4079.8	10.235	1.8565	2.3182	773.57	0.21426	3.9062e-05	0.10241	vapor
766.67	0.20000	0.041678	23.994	3603.0	4082.9	10.238	1.8575	2.3191	774.03	0.21347	3.9112e-05	0.10260	vapor
768.00	0.20000	0.041624	24.024	3605.5	4086.0	10.241	1.8584	2.3201	774.49	0.21268	3.9163e-05	0.10278	vapor
769.33	0.20000	0.041571	24.055	3608.0	4089.1	10.244	1.8593	2.3210	774.94	0.21189	3.9214e-05	0.10297	vapor
770.67	0.20000	0.041518	24.086	3610.4	4092.2	10.247	1.8603	2.3219	775.40	0.21111	3.9264e-05	0.10316	vapor
772.00	0.20000	0.041465	24.117	3612.9	4095.3	10.250	1.8612	2.3229	775.86	0.21033	3.9315e-05	0.10335	vapor
773.33	0.20000	0.041412	24.148	3615.4	4098.4	10.252	1.8622	2.3238	776.31	0.20956	3.9365e-05	0.10353	vapor
774.67	0.20000	0.041359	24.178	3617.9	4101.5	10.255	1.8631	2.3248	776.77	0.20878	3.9416e-05	0.10372	vapor
776.00	0.20000	0.041307	24.209	3620.4	4104.6	10.258	1.8640	2.3257	777.22	0.20802	3.9467e-05	0.10391	vapor
777.33	0.20000	0.041254	24.240	3622.9	4107.7	10.261	1.8650	2.3266	777.68	0.20725	3.9517e-05	0.10410	vapor
778.67	0.20000	0.041202	24.271	3625.3	4110.8	10.264	1.8659	2.3276	778.13	0.20649	3.9568e-05	0.10428	vapor
780.00	0.20000	0.041150	24.301	3627.8	4113.9	10.267	1.8669	2.3285	778.59	0.20574	3.9618e-05	0.10447	vapor
781.33	0.20000	0.041098	24.332	3630.3	4117.0	10.270	1.8678	2.3295	779.04	0.20498	3.9669e-05	0.10466	vapor
782.67	0.20000	0.041046	24.363	3632.8	4120.1	10.273	1.8687	2.3304	779.49	0.20423	3.9719e-05	0.10485	vapor
784.00	0.20000	0.040994	24.394	3635.3	4123.2	10.276	1.8697	2.3313	779.95	0.20349	3.9770e-05	0.10503	vapor
785.33	0.20000	0.040942	24.425	3637.8	4126.3	10.279	1.8706	2.3323	780.40	0.20275	3.9820e-05	0.10522	vapor
786.67	0.20000	0.040891	24.455	3640.3	4129.4	10.282	1.8715	2.3332	780.85	0.20201	3.9870e-05	0.10541	vapor
788.00	0.20000	0.040840	24.486	3642.8	4132.5	10.285	1.8725	2.3341	781.31	0.20127	3.9921e-05	0.10560	vapor
789.33	0.20000	0.040788	24.517	3645.3	4135.6	10.288	1.8734	2.3351	781.76	0.20054	3.9971e-05	0.10579	vapor
790.67	0.20000	0.040737	24.548	3647.8	4138.7	10.291	1.8744	2.3360	782.21	0.19981	4.0021e-05	0.10598	vapor
792.00	0.20000	0.040686	24.578	3650.3	4141.9	10.294	1.8753	2.3370	782.66	0.19908	4.0072e-05	0.10616	vapor
793.33	0.20000	0.040635	24.609	3652.8	4145.0	10.297	1.8762	2.3379	783.11	0.19836	4.0122e-05	0.10635	vapor
794.67	0.20000	0.040585	24.640	3655.3	4148.1	10.300	1.8772	2.3388	783.56	0.19764	4.0172e-05	0.10654	vapor
796.00	0.20000	0.040534	24.671	3657.8	4151.2	10.302	1.8781	2.3398	784.01	0.19693	4.0223e-05	0.10673	vapor
797.33	0.20000	0.040483	24.701	3660.3	4154.3	10.305	1.8790	2.3407	784.46	0.19622	4.0273e-05	0.10692	vapor
798.67	0.20000	0.040433	24.732	3662.8	4157.4	10.308	1.8800	2.3416	784.91	0.19551	4.0323e-05	0.10711	vapor
800.00	0.20000	0.040383	24.763	3665.3	4160.6	10.311	1.8809	2.3426	785.36	0.19480	4.0373e-05	0.10730	vapor
