Temperature (C)	Pressure (bar)	Density (kg/m3)	Volume (m3/kg)	Internal Energy (kJ/kg)	Enthalpy (kJ/kg)	Entropy (J/g*K)	Cv (J/g*K)	Cp (J/g*K)	Sound Spd. (m/s)	Joule-Thomson (K/bar)	Viscosity (Pa*s)	Therm. Cond. (W/m*K)	Phase
0.010000	20.000	1000.8	0.00099919	0.036029	2.0344	0.00012819	4.2081	4.2101	1405.5	-0.024125	0.0017862	0.56214	liquid
1.3433	20.000	1000.9	0.00099913	5.6468	7.6450	0.020618	4.2053	4.2061	1412.1	-0.023996	0.0017065	0.56465	liquid
2.6766	20.000	1000.9	0.00099909	11.252	13.251	0.040990	4.2023	4.2024	1418.5	-0.023871	0.0016324	0.56716	liquid
4.0100	20.000	1000.9	0.00099909	16.853	18.852	0.061247	4.1991	4.1992	1424.7	-0.023749	0.0015633	0.56968	liquid
5.3433	20.000	1000.9	0.00099911	22.450	24.448	0.081392	4.1958	4.1962	1430.8	-0.023631	0.0014988	0.57219	liquid
6.6766	20.000	1000.8	0.00099916	28.043	30.041	0.10143	4.1923	4.1936	1436.6	-0.023515	0.0014384	0.57471	liquid
8.0099	20.000	1000.8	0.00099923	33.633	35.631	0.12136	4.1886	4.1912	1442.2	-0.023402	0.0013819	0.57723	liquid
9.3432	20.000	1000.7	0.00099933	39.219	41.218	0.14118	4.1848	4.1890	1447.7	-0.023292	0.0013288	0.57974	liquid
10.677	20.000	1000.5	0.00099946	44.803	46.802	0.16090	4.1809	4.1870	1453.0	-0.023184	0.0012789	0.58224	liquid
12.010	20.000	1000.4	0.00099960	50.384	52.383	0.18052	4.1768	4.1853	1458.1	-0.023078	0.0012320	0.58473	liquid
13.343	20.000	1000.2	0.00099977	55.963	57.963	0.20004	4.1726	4.1837	1463.1	-0.022974	0.0011877	0.58721	liquid
14.676	20.000	1000.0	0.00099996	61.540	63.540	0.21946	4.1683	4.1823	1467.9	-0.022872	0.0011460	0.58967	liquid
16.010	20.000	999.83	0.0010002	67.115	69.115	0.23879	4.1639	4.1811	1472.5	-0.022773	0.0011066	0.59212	liquid
17.343	20.000	999.59	0.0010004	72.689	74.689	0.25802	4.1593	4.1800	1477.0	-0.022675	0.0010693	0.59455	liquid
18.676	20.000	999.34	0.0010007	78.261	80.262	0.27716	4.1547	4.1790	1481.3	-0.022578	0.0010340	0.59696	liquid
20.010	20.000	999.07	0.0010009	83.831	85.833	0.29621	4.1499	4.1782	1485.5	-0.022483	0.0010006	0.59935	liquid
21.343	20.000	998.78	0.0010012	89.401	91.404	0.31516	4.1450	4.1774	1489.6	-0.022390	0.00096882	0.60171	liquid
22.676	20.000	998.48	0.0010015	94.970	96.973	0.33403	4.1401	4.1768	1493.4	-0.022298	0.00093868	0.60405	liquid
24.010	20.000	998.15	0.0010018	100.54	102.54	0.35281	4.1350	4.1762	1497.2	-0.022208	0.00091002	0.60636	liquid
25.343	20.000	997.81	0.0010022	106.10	108.11	0.37151	4.1299	4.1757	1500.8	-0.022119	0.00088276	0.60864	liquid
26.676	20.000	997.46	0.0010026	111.67	113.68	0.39012	4.1246	4.1754	1504.3	-0.022031	0.00085679	0.61089	liquid
28.010	20.000	997.08	0.0010029	117.24	119.24	0.40864	4.1193	4.1750	1507.6	-0.021944	0.00083203	0.61311	liquid
29.343	20.000	996.69	0.0010033	122.80	124.81	0.42709	4.1139	4.1748	1510.8	-0.021858	0.00080841	0.61529	liquid
30.676	20.000	996.29	0.0010037	128.37	130.38	0.44545	4.1084	4.1746	1513.9	-0.021773	0.00078586	0.61745	liquid
32.010	20.000	995.87	0.0010042	133.93	135.94	0.46373	4.1029	4.1745	1516.9	-0.021690	0.00076431	0.61956	liquid
33.343	20.000	995.43	0.0010046	139.50	141.51	0.48193	4.0972	4.1744	1519.7	-0.021607	0.00074371	0.62165	liquid
34.676	20.000	994.98	0.0010050	145.06	147.07	0.50005	4.0915	4.1744	1522.5	-0.021525	0.00072399	0.62369	liquid
36.010	20.000	994.52	0.0010055	150.63	152.64	0.51809	4.0857	4.1744	1525.1	-0.021444	0.00070511	0.62570	liquid
37.343	20.000	994.04	0.0010060	156.19	158.21	0.53605	4.0799	4.1745	1527.6	-0.021363	0.00068701	0.62767	liquid
38.676	20.000	993.55	0.0010065	161.76	163.77	0.55394	4.0740	4.1746	1530.0	-0.021284	0.00066966	0.62961	liquid
40.010	20.000	993.04	0.0010070	167.32	169.34	0.57175	4.0680	4.1748	1532.2	-0.021205	0.00065301	0.63150	liquid
41.343	20.000	992.53	0.0010075	172.89	174.90	0.58949	4.0619	4.1750	1534.4	-0.021126	0.00063703	0.63336	liquid
42.676	20.000	992.00	0.0010081	178.45	180.47	0.60715	4.0558	4.1752	1536.5	-0.021049	0.00062168	0.63518	liquid
44.009	20.000	991.45	0.0010086	184.02	186.04	0.62474	4.0497	4.1754	1538.4	-0.020972	0.00060692	0.63696	liquid
45.343	20.000	990.90	0.0010092	189.59	191.61	0.64226	4.0435	4.1757	1540.3	-0.020895	0.00059272	0.63870	liquid
46.676	20.000	990.33	0.0010098	195.15	197.17	0.65971	4.0372	4.1761	1542.0	-0.020819	0.00057907	0.64040	liquid
48.009	20.000	989.75	0.0010104	200.72	202.74	0.67708	4.0309	4.1764	1543.7	-0.020743	0.00056592	0.64207	liquid
49.343	20.000	989.16	0.0010110	206.29	208.31	0.69438	4.0245	4.1768	1545.3	-0.020668	0.00055325	0.64369	liquid
50.676	20.000	988.55	0.0010116	211.86	213.88	0.71162	4.0181	4.1772	1546.7	-0.020593	0.00054104	0.64527	liquid
52.009	20.000	987.94	0.0010122	217.42	219.45	0.72878	4.0116	4.1776	1548.1	-0.020519	0.00052928	0.64682	liquid
53.343	20.000	987.31	0.0010128	222.99	225.02	0.74588	4.0051	4.1781	1549.4	-0.020444	0.00051792	0.64833	liquid
54.676	20.000	986.68	0.0010135	228.56	230.59	0.76291	3.9986	4.1786	1550.6	-0.020370	0.00050697	0.64980	liquid
56.009	20.000	986.03	0.0010142	234.13	236.16	0.77987	3.9920	4.1791	1551.7	-0.020297	0.00049639	0.65123	liquid
57.343	20.000	985.37	0.0010148	239.70	241.73	0.79676	3.9854	4.1796	1552.7	-0.020223	0.00048617	0.65262	liquid
58.676	20.000	984.70	0.0010155	245.28	247.31	0.81359	3.9787	4.1802	1553.6	-0.020150	0.00047630	0.65398	liquid
60.009	20.000	984.02	0.0010162	250.85	252.88	0.83036	3.9721	4.1808	1554.5	-0.020077	0.00046676	0.65530	liquid
61.343	20.000	983.33	0.0010170	256.42	258.46	0.84706	3.9653	4.1814	1555.3	-0.020004	0.00045753	0.65658	liquid
62.676	20.000	982.63	0.0010177	262.00	264.03	0.86369	3.9586	4.1820	1556.0	-0.019932	0.00044860	0.65783	liquid
64.009	20.000	981.92	0.0010184	267.57	269.61	0.88026	3.9518	4.1827	1556.6	-0.019859	0.00043996	0.65904	liquid
65.343	20.000	981.20	0.0010192	273.15	275.19	0.89677	3.9450	4.1834	1557.1	-0.019786	0.00043159	0.66022	liquid
66.676	20.000	980.47	0.0010199	278.72	280.76	0.91322	3.9382	4.1841	1557.6	-0.019714	0.00042349	0.66136	liquid
68.009	20.000	979.73	0.0010207	284.30	286.34	0.92961	3.9314	4.1848	1558.0	-0.019641	0.00041564	0.66247	liquid
69.342	20.000	978.97	0.0010215	289.88	291.92	0.94593	3.9245	4.1856	1558.3	-0.019569	0.00040803	0.66354	liquid
70.676	20.000	978.21	0.0010223	295.46	297.50	0.96219	3.9177	4.1863	1558.5	-0.019496	0.00040066	0.66458	liquid
72.009	20.000	977.45	0.0010231	301.04	303.09	0.97840	3.9108	4.1872	1558.7	-0.019424	0.00039351	0.66559	liquid
73.342	20.000	976.67	0.0010239	306.62	308.67	0.99454	3.9039	4.1880	1558.8	-0.019351	0.00038657	0.66657	liquid
74.676	20.000	975.88	0.0010247	312.20	314.25	1.0106	3.8970	4.1889	1558.8	-0.019278	0.00037984	0.66751	liquid
76.009	20.000	975.08	0.0010256	317.79	319.84	1.0267	3.8900	4.1898	1558.7	-0.019206	0.00037330	0.66843	liquid
77.342	20.000	974.27	0.0010264	323.37	325.43	1.0426	3.8831	4.1907	1558.6	-0.019133	0.00036696	0.66931	liquid
78.676	20.000	973.46	0.0010273	328.96	331.01	1.0585	3.8762	4.1916	1558.4	-0.019059	0.00036079	0.67016	liquid
80.009	20.000	972.63	0.0010281	334.55	336.60	1.0744	3.8692	4.1926	1558.2	-0.018986	0.00035481	0.67099	liquid
81.342	20.000	971.80	0.0010290	340.14	342.20	1.0902	3.8623	4.1936	1557.9	-0.018913	0.00034899	0.67178	liquid
82.676	20.000	970.96	0.0010299	345.73	347.79	1.1059	3.8553	4.1947	1557.5	-0.018839	0.00034333	0.67255	liquid
84.009	20.000	970.11	0.0010308	351.32	353.38	1.1216	3.8484	4.1958	1557.1	-0.018765	0.00033784	0.67328	liquid
85.342	20.000	969.25	0.0010317	356.91	358.98	1.1373	3.8414	4.1969	1556.6	-0.018691	0.00033249	0.67399	liquid
86.676	20.000	968.38	0.0010327	362.51	364.57	1.1529	3.8345	4.1980	1556.0	-0.018616	0.00032729	0.67468	liquid
88.009	20.000	967.50	0.0010336	368.10	370.17	1.1684	3.8275	4.1992	1555.4	-0.018541	0.00032222	0.67534	liquid
89.342	20.000	966.62	0.0010345	373.70	375.77	1.1839	3.8205	4.2004	1554.7	-0.018466	0.00031730	0.67597	liquid
90.676	20.000	965.72	0.0010355	379.30	381.37	1.1993	3.8136	4.2016	1554.0	-0.018391	0.00031250	0.67657	liquid
92.009	20.000	964.82	0.0010365	384.90	386.97	1.2147	3.8067	4.2029	1553.2	-0.018315	0.00030783	0.67715	liquid
93.342	20.000	963.91	0.0010374	390.50	392.58	1.2300	3.7997	4.2042	1552.3	-0.018238	0.00030328	0.67771	liquid
94.675	20.000	962.99	0.0010384	396.11	398.19	1.2452	3.7928	4.2056	1551.4	-0.018162	0.00029885	0.67824	liquid
96.009	20.000	962.06	0.0010394	401.71	403.79	1.2605	3.7859	4.2069	1550.5	-0.018085	0.00029453	0.67875	liquid
97.342	20.000	961.13	0.0010404	407.32	409.40	1.2756	3.7790	4.2084	1549.4	-0.018007	0.00029033	0.67923	liquid
98.675	20.000	960.18	0.0010415	412.93	415.02	1.2908	3.7721	4.2098	1548.4	-0.017929	0.00028622	0.67969	liquid
100.01	20.000	959.23	0.0010425	418.54	420.63	1.3058	3.7652	4.2113	1547.2	-0.017851	0.00028222	0.68013	liquid
101.34	20.000	958.27	0.0010435	424.16	426.25	1.3208	3.7583	4.2129	1546.0	-0.017772	0.00027832	0.68055	liquid
102.68	20.000	957.30	0.0010446	429.77	431.86	1.3358	3.7515	4.2144	1544.8	-0.017692	0.00027452	0.68095	liquid
104.01	20.000	956.33	0.0010457	435.39	437.48	1.3508	3.7446	4.2161	1543.5	-0.017612	0.00027081	0.68132	liquid
105.34	20.000	955.34	0.0010467	441.01	443.11	1.3656	3.7378	4.2177	1542.2	-0.017532	0.00026718	0.68167	liquid
106.68	20.000	954.35	0.0010478	446.64	448.73	1.3805	3.7310	4.2194	1540.8	-0.017451	0.00026365	0.68201	liquid
108.01	20.000	953.35	0.0010489	452.26	454.36	1.3953	3.7242	4.2212	1539.3	-0.017369	0.00026020	0.68232	liquid
109.34	20.000	952.34	0.0010500	457.89	459.99	1.4100	3.7174	4.2230	1537.8	-0.017287	0.00025683	0.68261	liquid
110.68	20.000	951.33	0.0010512	463.52	465.62	1.4247	3.7106	4.2248	1536.3	-0.017204	0.00025353	0.68288	liquid
112.01	20.000	950.31	0.0010523	469.15	471.25	1.4394	3.7039	4.2267	1534.7	-0.017120	0.00025032	0.68313	liquid
113.34	20.000	949.27	0.0010534	474.78	476.89	1.4540	3.6972	4.2286	1533.0	-0.017036	0.00024718	0.68337	liquid
114.68	20.000	948.23	0.0010546	480.42	482.53	1.4685	3.6905	4.2306	1531.3	-0.016951	0.00024411	0.68358	liquid
116.01	20.000	947.19	0.0010558	486.06	488.17	1.4831	3.6838	4.2326	1529.6	-0.016866	0.00024111	0.68378	liquid
117.34	20.000	946.13	0.0010569	491.70	493.82	1.4975	3.6771	4.2347	1527.8	-0.016779	0.00023818	0.68396	liquid
118.68	20.000	945.07	0.0010581	497.35	499.46	1.5120	3.6705	4.2368	1526.0	-0.016692	0.00023531	0.68412	liquid
120.01	20.000	944.00	0.0010593	503.00	505.11	1.5264	3.6639	4.2389	1524.1	-0.016604	0.00023251	0.68426	liquid
121.34	20.000	942.92	0.0010605	508.65	510.77	1.5407	3.6573	4.2411	1522.2	-0.016516	0.00022977	0.68438	liquid
122.68	20.000	941.84	0.0010618	514.30	516.42	1.5550	3.6507	4.2434	1520.2	-0.016426	0.00022708	0.68449	liquid
124.01	20.000	940.74	0.0010630	519.96	522.08	1.5693	3.6442	4.2457	1518.2	-0.016336	0.00022446	0.68458	liquid
125.34	20.000	939.64	0.0010642	525.62	527.75	1.5835	3.6376	4.2481	1516.1	-0.016245	0.00022189	0.68465	liquid
126.68	20.000	938.53	0.0010655	531.28	533.41	1.5977	3.6311	4.2505	1514.0	-0.016153	0.00021938	0.68470	liquid
128.01	20.000	937.41	0.0010668	536.95	539.08	1.6119	3.6247	4.2530	1511.8	-0.016060	0.00021692	0.68474	liquid
129.34	20.000	936.29	0.0010680	542.62	544.75	1.6260	3.6182	4.2555	1509.6	-0.015967	0.00021451	0.68476	liquid
130.68	20.000	935.16	0.0010693	548.29	550.43	1.6401	3.6118	4.2581	1507.4	-0.015872	0.00021216	0.68477	liquid
132.01	20.000	934.02	0.0010706	553.97	556.11	1.6541	3.6054	4.2607	1505.1	-0.015776	0.00020985	0.68476	liquid
133.34	20.000	932.87	0.0010720	559.65	561.79	1.6681	3.5990	4.2634	1502.8	-0.015680	0.00020759	0.68473	liquid
134.67	20.000	931.71	0.0010733	565.33	567.48	1.6821	3.5927	4.2662	1500.4	-0.015582	0.00020537	0.68469	liquid
136.01	20.000	930.55	0.0010746	571.02	573.17	1.6960	3.5864	4.2690	1498.0	-0.015484	0.00020320	0.68463	liquid
137.34	20.000	929.38	0.0010760	576.71	578.86	1.7099	3.5801	4.2718	1495.5	-0.015384	0.00020108	0.68455	liquid
138.67	20.000	928.20	0.0010774	582.40	584.56	1.7238	3.5738	4.2748	1493.0	-0.015283	0.00019899	0.68446	liquid
140.01	20.000	927.01	0.0010787	588.10	590.26	1.7376	3.5676	4.2778	1490.4	-0.015182	0.00019695	0.68436	liquid
141.34	20.000	925.82	0.0010801	593.81	595.97	1.7514	3.5614	4.2808	1487.8	-0.015079	0.00019495	0.68424	liquid
142.67	20.000	924.62	0.0010815	599.51	601.68	1.7651	3.5552	4.2839	1485.2	-0.014975	0.00019298	0.68410	liquid
144.01	20.000	923.41	0.0010829	605.22	607.39	1.7789	3.5491	4.2871	1482.5	-0.014870	0.00019106	0.68395	liquid
145.34	20.000	922.19	0.0010844	610.94	613.11	1.7925	3.5430	4.2903	1479.8	-0.014764	0.00018917	0.68378	liquid
146.67	20.000	920.96	0.0010858	616.66	618.83	1.8062	3.5369	4.2936	1477.0	-0.014656	0.00018732	0.68360	liquid
148.01	20.000	919.73	0.0010873	622.38	624.56	1.8198	3.5308	4.2970	1474.2	-0.014547	0.00018550	0.68340	liquid
149.34	20.000	918.49	0.0010887	628.11	630.29	1.8334	3.5248	4.3004	1471.4	-0.014437	0.00018372	0.68318	liquid
150.67	20.000	917.24	0.0010902	633.84	636.02	1.8470	3.5188	4.3039	1468.5	-0.014326	0.00018197	0.68295	liquid
152.01	20.000	915.98	0.0010917	639.58	641.77	1.8605	3.5128	4.3075	1465.6	-0.014213	0.00018025	0.68271	liquid
153.34	20.000	914.72	0.0010932	645.32	647.51	1.8740	3.5068	4.3111	1462.6	-0.014099	0.00017856	0.68245	liquid
154.67	20.000	913.44	0.0010948	651.07	653.26	1.8874	3.5009	4.3149	1459.6	-0.013984	0.00017691	0.68218	liquid
156.01	20.000	912.16	0.0010963	656.82	659.02	1.9009	3.4950	4.3186	1456.6	-0.013867	0.00017528	0.68189	liquid
157.34	20.000	910.87	0.0010979	662.58	664.78	1.9143	3.4892	4.3225	1453.5	-0.013749	0.00017368	0.68159	liquid
158.67	20.000	909.57	0.0010994	668.34	670.54	1.9276	3.4833	4.3264	1450.4	-0.013630	0.00017212	0.68127	liquid
160.01	20.000	908.27	0.0011010	674.11	676.31	1.9410	3.4775	4.3304	1447.2	-0.013509	0.00017058	0.68093	liquid
161.34	20.000	906.95	0.0011026	679.89	682.09	1.9543	3.4718	4.3345	1444.0	-0.013386	0.00016906	0.68058	liquid
162.67	20.000	905.63	0.0011042	685.67	687.87	1.9676	3.4660	4.3387	1440.7	-0.013262	0.00016758	0.68022	liquid
164.01	20.000	904.30	0.0011058	691.45	693.66	1.9809	3.4603	4.3429	1437.4	-0.013136	0.00016612	0.67984	liquid
165.34	20.000	902.96	0.0011075	697.24	699.45	1.9941	3.4546	4.3473	1434.1	-0.013009	0.00016468	0.67944	liquid
166.67	20.000	901.61	0.0011091	703.04	705.25	2.0073	3.4490	4.3517	1430.8	-0.012879	0.00016327	0.67904	liquid
168.01	20.000	900.25	0.0011108	708.84	711.06	2.0205	3.4434	4.3561	1427.3	-0.012749	0.00016188	0.67861	liquid
169.34	20.000	898.89	0.0011125	714.65	716.87	2.0336	3.4378	4.3607	1423.9	-0.012616	0.00016052	0.67817	liquid
170.67	20.000	897.52	0.0011142	720.46	722.69	2.0467	3.4322	4.3654	1420.4	-0.012482	0.00015918	0.67772	liquid
172.01	20.000	896.13	0.0011159	726.28	728.51	2.0598	3.4267	4.3701	1416.9	-0.012346	0.00015786	0.67725	liquid
173.34	20.000	894.74	0.0011176	732.11	734.34	2.0729	3.4212	4.3750	1413.3	-0.012208	0.00015656	0.67676	liquid
174.67	20.000	893.34	0.0011194	737.94	740.18	2.0860	3.4157	4.3799	1409.7	-0.012068	0.00015528	0.67626	liquid
176.01	20.000	891.94	0.0011212	743.78	746.02	2.0990	3.4103	4.3849	1406.1	-0.011926	0.00015403	0.67574	liquid
177.34	20.000	890.52	0.0011229	749.62	751.87	2.1120	3.4049	4.3900	1402.4	-0.011782	0.00015279	0.67521	liquid
178.67	20.000	889.09	0.0011247	755.48	757.73	2.1250	3.3995	4.3952	1398.7	-0.011636	0.00015157	0.67466	liquid
180.01	20.000	887.66	0.0011266	761.34	763.59	2.1380	3.3942	4.4005	1394.9	-0.011488	0.00015038	0.67410	liquid
181.34	20.000	886.21	0.0011284	767.20	769.46	2.1509	3.3888	4.4059	1391.1	-0.011338	0.00014920	0.67352	liquid
182.67	20.000	884.76	0.0011303	773.08	775.34	2.1638	3.3836	4.4114	1387.3	-0.011186	0.00014804	0.67292	liquid
184.01	20.000	883.30	0.0011321	778.96	781.23	2.1767	3.3783	4.4171	1383.4	-0.011032	0.00014689	0.67231	liquid
185.34	20.000	881.82	0.0011340	784.85	787.12	2.1896	3.3731	4.4228	1379.4	-0.010875	0.00014577	0.67169	liquid
186.67	20.000	880.34	0.0011359	790.75	793.02	2.2024	3.3679	4.4286	1375.5	-0.010716	0.00014466	0.67104	liquid
188.01	20.000	878.85	0.0011378	796.65	798.93	2.2153	3.3627	4.4345	1371.5	-0.010554	0.00014357	0.67038	liquid
189.34	20.000	877.35	0.0011398	802.57	804.84	2.2281	3.3576	4.4406	1367.4	-0.010390	0.00014249	0.66971	liquid
190.67	20.000	875.84	0.0011418	808.49	810.77	2.2409	3.3525	4.4467	1363.4	-0.010224	0.00014143	0.66902	liquid
192.01	20.000	874.32	0.0011437	814.42	816.70	2.2536	3.3474	4.4530	1359.2	-0.010055	0.00014039	0.66831	liquid
193.34	20.000	872.79	0.0011457	820.35	822.64	2.2664	3.3424	4.4594	1355.1	-0.0098834	0.00013936	0.66758	liquid
194.67	20.000	871.25	0.0011478	826.30	828.59	2.2791	3.3374	4.4659	1350.9	-0.0097091	0.00013834	0.66684	liquid
196.01	20.000	869.70	0.0011498	832.25	834.55	2.2918	3.3324	4.4726	1346.6	-0.0095321	0.00013734	0.66608	liquid
197.34	20.000	868.14	0.0011519	838.22	840.52	2.3045	3.3274	4.4793	1342.3	-0.0093523	0.00013636	0.66530	liquid
198.67	20.000	866.57	0.0011540	844.19	846.50	2.3172	3.3225	4.4862	1338.0	-0.0091695	0.00013538	0.66451	liquid
200.01	20.000	864.99	0.0011561	850.17	852.48	2.3299	3.3176	4.4933	1333.7	-0.0089838	0.00013442	0.66370	liquid
201.34	20.000	863.40	0.0011582	856.16	858.48	2.3426	3.3128	4.5005	1329.3	-0.0087951	0.00013348	0.66287	liquid
202.67	20.000	861.79	0.0011604	862.16	864.49	2.3552	3.3079	4.5078	1324.8	-0.0086033	0.00013254	0.66203	liquid
204.01	20.000	860.18	0.0011625	868.18	870.50	2.3678	3.3031	4.5152	1320.3	-0.0084082	0.00013162	0.66116	liquid
205.34	20.000	858.56	0.0011647	874.20	876.53	2.3804	3.2984	4.5228	1315.8	-0.0082099	0.00013071	0.66028	liquid
206.67	20.000	856.92	0.0011670	880.23	882.56	2.3930	3.2936	4.5306	1311.2	-0.0080082	0.00012981	0.65938	liquid
208.01	20.000	855.28	0.0011692	886.27	888.61	2.4056	3.2889	4.5385	1306.6	-0.0078031	0.00012893	0.65846	liquid
209.34	20.000	853.62	0.0011715	892.32	894.66	2.4182	3.2843	4.5465	1301.9	-0.0075944	0.00012805	0.65752	liquid
210.67	20.000	851.95	0.0011738	898.38	900.73	2.4307	3.2796	4.5548	1297.2	-0.0073821	0.00012719	0.65657	liquid
212.01	20.000	850.27	0.0011761	904.46	906.81	2.4433	3.2750	4.5631	1292.5	-0.0071661	0.00012634	0.65559	liquid
212.38	20.000	849.80	0.0011767	906.14	908.50	2.4468	3.2737	4.5655	1291.2	-0.0071054	0.00012610	0.65532	liquid
212.38	20.000	10.042	0.099585	2599.1	2798.3	6.3390	2.1585	3.1910	504.70	2.2025	1.6144e-05	0.042572	vapor
213.34	20.000	10.008	0.099921	2601.5	2801.3	6.3453	2.1361	3.1530	505.77	2.1854	1.6189e-05	0.042567	vapor
214.67	20.000	9.9620	0.10038	2604.8	2805.5	6.3539	2.1079	3.1050	507.22	2.1621	1.6250e-05	0.042562	vapor
216.01	20.000	9.9170	0.10084	2608.0	2809.6	6.3623	2.0828	3.0617	508.61	2.1393	1.6312e-05	0.042562	vapor
217.34	20.000	9.8728	0.10129	2611.1	2813.7	6.3706	2.0601	3.0224	509.97	2.1171	1.6373e-05	0.042565	vapor
218.67	20.000	9.8294	0.10174	2614.2	2817.7	6.3787	2.0396	2.9865	511.28	2.0953	1.6435e-05	0.042571	vapor
220.01	20.000	9.7868	0.10218	2617.3	2821.7	6.3867	2.0209	2.9535	512.57	2.0739	1.6496e-05	0.042581	vapor
221.34	20.000	9.7448	0.10262	2620.3	2825.6	6.3947	2.0039	2.9231	513.83	2.0530	1.6557e-05	0.042594	vapor
222.67	20.000	9.7035	0.10306	2623.3	2829.4	6.4025	1.9882	2.8950	515.06	2.0325	1.6618e-05	0.042610	vapor
224.01	20.000	9.6628	0.10349	2626.3	2833.3	6.4103	1.9737	2.8688	516.26	2.0123	1.6679e-05	0.042629	vapor
225.34	20.000	9.6227	0.10392	2629.3	2837.1	6.4179	1.9603	2.8444	517.45	1.9926	1.6740e-05	0.042651	vapor
226.67	20.000	9.5832	0.10435	2632.2	2840.9	6.4255	1.9478	2.8214	518.62	1.9732	1.6801e-05	0.042675	vapor
228.01	20.000	9.5443	0.10477	2635.1	2844.6	6.4330	1.9361	2.7998	519.76	1.9541	1.6862e-05	0.042703	vapor
229.34	20.000	9.5059	0.10520	2637.9	2848.3	6.4404	1.9252	2.7794	520.90	1.9354	1.6923e-05	0.042733	vapor
230.67	20.000	9.4681	0.10562	2640.8	2852.0	6.4477	1.9148	2.7601	522.01	1.9169	1.6983e-05	0.042765	vapor
232.01	20.000	9.4307	0.10604	2643.6	2855.7	6.4550	1.9051	2.7418	523.11	1.8988	1.7044e-05	0.042800	vapor
233.34	20.000	9.3938	0.10645	2646.4	2859.3	6.4622	1.8959	2.7244	524.20	1.8809	1.7104e-05	0.042838	vapor
234.67	20.000	9.3574	0.10687	2649.2	2863.0	6.4693	1.8871	2.7078	525.28	1.8633	1.7165e-05	0.042877	vapor
236.01	20.000	9.3215	0.10728	2652.0	2866.6	6.4764	1.8788	2.6919	526.35	1.8460	1.7225e-05	0.042919	vapor
237.34	20.000	9.2860	0.10769	2654.8	2870.1	6.4834	1.8709	2.6767	527.40	1.8289	1.7286e-05	0.042964	vapor
238.67	20.000	9.2509	0.10810	2657.5	2873.7	6.4904	1.8633	2.6621	528.45	1.8121	1.7346e-05	0.043010	vapor
240.01	20.000	9.2163	0.10850	2660.2	2877.2	6.4973	1.8561	2.6481	529.48	1.7955	1.7406e-05	0.043059	vapor
241.34	20.000	9.1820	0.10891	2663.0	2880.8	6.5041	1.8491	2.6347	530.51	1.7792	1.7467e-05	0.043109	vapor
242.67	20.000	9.1482	0.10931	2665.6	2884.3	6.5109	1.8425	2.6218	531.53	1.7630	1.7527e-05	0.043162	vapor
244.01	20.000	9.1147	0.10971	2668.3	2887.8	6.5177	1.8361	2.6093	532.54	1.7471	1.7587e-05	0.043216	vapor
245.34	20.000	9.0817	0.11011	2671.0	2891.2	6.5244	1.8300	2.5973	533.54	1.7315	1.7647e-05	0.043273	vapor
246.67	20.000	9.0490	0.11051	2673.7	2894.7	6.5311	1.8240	2.5857	534.53	1.7160	1.7707e-05	0.043331	vapor
248.01	20.000	9.0166	0.11091	2676.3	2898.1	6.5377	1.8183	2.5744	535.52	1.7007	1.7767e-05	0.043391	vapor
249.34	20.000	8.9846	0.11130	2678.9	2901.6	6.5442	1.8128	2.5636	536.50	1.6856	1.7827e-05	0.043453	vapor
250.67	20.000	8.9530	0.11170	2681.6	2905.0	6.5508	1.8075	2.5531	537.47	1.6707	1.7887e-05	0.043517	vapor
252.01	20.000	8.9216	0.11209	2684.2	2908.4	6.5572	1.8024	2.5430	538.44	1.6560	1.7946e-05	0.043582	vapor
253.34	20.000	8.8906	0.11248	2686.8	2911.7	6.5637	1.7975	2.5332	539.39	1.6416	1.8006e-05	0.043649	vapor
254.67	20.000	8.8599	0.11287	2689.4	2915.1	6.5701	1.7927	2.5236	540.35	1.6272	1.8066e-05	0.043718	vapor
256.01	20.000	8.8296	0.11326	2692.0	2918.5	6.5764	1.7881	2.5144	541.29	1.6131	1.8126e-05	0.043788	vapor
257.34	20.000	8.7995	0.11364	2694.5	2921.8	6.5827	1.7837	2.5055	542.23	1.5992	1.8185e-05	0.043860	vapor
258.67	20.000	8.7697	0.11403	2697.1	2925.2	6.5890	1.7793	2.4968	543.17	1.5854	1.8245e-05	0.043933	vapor
260.01	20.000	8.7403	0.11441	2699.7	2928.5	6.5953	1.7752	2.4884	544.10	1.5718	1.8305e-05	0.044008	vapor
261.34	20.000	8.7111	0.11480	2702.2	2931.8	6.6015	1.7711	2.4802	545.02	1.5583	1.8364e-05	0.044084	vapor
262.67	20.000	8.6822	0.11518	2704.7	2935.1	6.6076	1.7672	2.4723	545.94	1.5451	1.8424e-05	0.044162	vapor
264.01	20.000	8.6535	0.11556	2707.3	2938.4	6.6138	1.7634	2.4646	546.85	1.5320	1.8483e-05	0.044241	vapor
265.34	20.000	8.6252	0.11594	2709.8	2941.7	6.6199	1.7598	2.4571	547.76	1.5190	1.8542e-05	0.044321	vapor
266.67	20.000	8.5971	0.11632	2712.3	2944.9	6.6259	1.7562	2.4499	548.66	1.5063	1.8602e-05	0.044403	vapor
268.01	20.000	8.5692	0.11670	2714.8	2948.2	6.6320	1.7528	2.4428	549.56	1.4936	1.8661e-05	0.044486	vapor
269.34	20.000	8.5416	0.11707	2717.3	2951.4	6.6380	1.7495	2.4360	550.46	1.4812	1.8720e-05	0.044570	vapor
270.67	20.000	8.5143	0.11745	2719.8	2954.7	6.6439	1.7462	2.4293	551.34	1.4688	1.8780e-05	0.044656	vapor
272.01	20.000	8.4872	0.11782	2722.3	2957.9	6.6499	1.7431	2.4228	552.23	1.4567	1.8839e-05	0.044743	vapor
273.34	20.000	8.4604	0.11820	2724.8	2961.2	6.6558	1.7401	2.4165	553.11	1.4447	1.8898e-05	0.044831	vapor
274.67	20.000	8.4337	0.11857	2727.2	2964.4	6.6617	1.7372	2.4104	553.98	1.4328	1.8957e-05	0.044920	vapor
276.01	20.000	8.4073	0.11894	2729.7	2967.6	6.6675	1.7343	2.4044	554.85	1.4211	1.9016e-05	0.045010	vapor
277.34	20.000	8.3812	0.11931	2732.2	2970.8	6.6733	1.7316	2.3986	555.72	1.4095	1.9076e-05	0.045102	vapor
278.67	20.000	8.3552	0.11969	2734.6	2974.0	6.6791	1.7289	2.3929	556.58	1.3980	1.9135e-05	0.045195	vapor
280.01	20.000	8.3295	0.12005	2737.1	2977.2	6.6849	1.7263	2.3874	557.44	1.3867	1.9194e-05	0.045288	vapor
281.34	20.000	8.3040	0.12042	2739.5	2980.3	6.6907	1.7238	2.3821	558.29	1.3755	1.9253e-05	0.045383	vapor
282.67	20.000	8.2787	0.12079	2741.9	2983.5	6.6964	1.7214	2.3769	559.14	1.3645	1.9312e-05	0.045479	vapor
284.01	20.000	8.2536	0.12116	2744.4	2986.7	6.7021	1.7190	2.3718	559.99	1.3536	1.9371e-05	0.045576	vapor
285.34	20.000	8.2287	0.12153	2746.8	2989.8	6.7077	1.7168	2.3669	560.83	1.3428	1.9429e-05	0.045674	vapor
286.67	20.000	8.2041	0.12189	2749.2	2993.0	6.7134	1.7146	2.3621	561.67	1.3322	1.9488e-05	0.045773	vapor
288.01	20.000	8.1796	0.12226	2751.6	2996.1	6.7190	1.7124	2.3574	562.51	1.3216	1.9547e-05	0.045873	vapor
289.34	20.000	8.1553	0.12262	2754.0	2999.3	6.7246	1.7103	2.3528	563.34	1.3112	1.9606e-05	0.045974	vapor
290.67	20.000	8.1312	0.12298	2756.4	3002.4	6.7301	1.7083	2.3484	564.17	1.3009	1.9665e-05	0.046076	vapor
292.01	20.000	8.1073	0.12335	2758.8	3005.5	6.7357	1.7064	2.3440	564.99	1.2908	1.9723e-05	0.046179	vapor
293.34	20.000	8.0835	0.12371	2761.2	3008.7	6.7412	1.7045	2.3398	565.81	1.2807	1.9782e-05	0.046283	vapor
294.67	20.000	8.0600	0.12407	2763.6	3011.8	6.7467	1.7027	2.3357	566.63	1.2708	1.9841e-05	0.046387	vapor
296.01	20.000	8.0366	0.12443	2766.0	3014.9	6.7522	1.7009	2.3317	567.45	1.2610	1.9900e-05	0.046493	vapor
297.34	20.000	8.0135	0.12479	2768.4	3018.0	6.7576	1.6992	2.3278	568.26	1.2513	1.9958e-05	0.046600	vapor
298.67	20.000	7.9904	0.12515	2770.8	3021.1	6.7630	1.6976	2.3240	569.07	1.2417	2.0017e-05	0.046707	vapor
300.01	20.000	7.9676	0.12551	2773.2	3024.2	6.7684	1.6960	2.3203	569.87	1.2322	2.0075e-05	0.046815	vapor
301.34	20.000	7.9449	0.12587	2775.6	3027.3	6.7738	1.6945	2.3167	570.67	1.2228	2.0134e-05	0.046924	vapor
302.67	20.000	7.9224	0.12622	2777.9	3030.4	6.7792	1.6930	2.3132	571.47	1.2136	2.0192e-05	0.047034	vapor
304.01	20.000	7.9001	0.12658	2780.3	3033.5	6.7845	1.6915	2.3098	572.27	1.2044	2.0251e-05	0.047145	vapor
305.34	20.000	7.8779	0.12694	2782.7	3036.5	6.7899	1.6901	2.3064	573.06	1.1954	2.0309e-05	0.047256	vapor
306.67	20.000	7.8559	0.12729	2785.0	3039.6	6.7952	1.6888	2.3032	573.85	1.1864	2.0368e-05	0.047368	vapor
308.01	20.000	7.8340	0.12765	2787.4	3042.7	6.8005	1.6875	2.3000	574.64	1.1776	2.0426e-05	0.047481	vapor
309.34	20.000	7.8123	0.12800	2789.7	3045.7	6.8057	1.6862	2.2969	575.43	1.1688	2.0485e-05	0.047595	vapor
310.67	20.000	7.7907	0.12836	2792.1	3048.8	6.8110	1.6850	2.2939	576.21	1.1601	2.0543e-05	0.047709	vapor
312.01	20.000	7.7693	0.12871	2794.4	3051.9	6.8162	1.6838	2.2910	576.99	1.1516	2.0601e-05	0.047825	vapor
313.34	20.000	7.7481	0.12906	2796.8	3054.9	6.8214	1.6827	2.2881	577.76	1.1431	2.0660e-05	0.047941	vapor
314.67	20.000	7.7270	0.12942	2799.1	3058.0	6.8266	1.6816	2.2853	578.54	1.1348	2.0718e-05	0.048057	vapor
316.01	20.000	7.7060	0.12977	2801.5	3061.0	6.8318	1.6806	2.2826	579.31	1.1265	2.0776e-05	0.048175	vapor
317.34	20.000	7.6852	0.13012	2803.8	3064.0	6.8369	1.6795	2.2800	580.08	1.1183	2.0834e-05	0.048293	vapor
318.67	20.000	7.6645	0.13047	2806.1	3067.1	6.8421	1.6786	2.2774	580.84	1.1102	2.0893e-05	0.048411	vapor
320.01	20.000	7.6439	0.13082	2808.5	3070.1	6.8472	1.6776	2.2749	581.60	1.1022	2.0951e-05	0.048531	vapor
321.34	20.000	7.6235	0.13117	2810.8	3073.2	6.8523	1.6767	2.2724	582.37	1.0943	2.1009e-05	0.048651	vapor
322.67	20.000	7.6033	0.13152	2813.1	3076.2	6.8574	1.6759	2.2700	583.12	1.0864	2.1067e-05	0.048771	vapor
324.01	20.000	7.5831	0.13187	2815.5	3079.2	6.8625	1.6750	2.2677	583.88	1.0787	2.1125e-05	0.048893	vapor
325.34	20.000	7.5631	0.13222	2817.8	3082.2	6.8675	1.6742	2.2654	584.63	1.0710	2.1183e-05	0.049015	vapor
326.67	20.000	7.5432	0.13257	2820.1	3085.2	6.8726	1.6734	2.2632	585.39	1.0634	2.1241e-05	0.049137	vapor
328.01	20.000	7.5235	0.13292	2822.4	3088.3	6.8776	1.6727	2.2610	586.13	1.0559	2.1300e-05	0.049260	vapor
329.34	20.000	7.5039	0.13326	2824.7	3091.3	6.8826	1.6720	2.2589	586.88	1.0485	2.1358e-05	0.049384	vapor
330.67	20.000	7.4844	0.13361	2827.1	3094.3	6.8876	1.6713	2.2569	587.63	1.0411	2.1416e-05	0.049509	vapor
332.01	20.000	7.4650	0.13396	2829.4	3097.3	6.8926	1.6707	2.2549	588.37	1.0338	2.1473e-05	0.049633	vapor
333.34	20.000	7.4458	0.13430	2831.7	3100.3	6.8975	1.6700	2.2529	589.11	1.0266	2.1531e-05	0.049759	vapor
334.67	20.000	7.4266	0.13465	2834.0	3103.3	6.9025	1.6695	2.2510	589.85	1.0195	2.1589e-05	0.049885	vapor
336.01	20.000	7.4076	0.13500	2836.3	3106.3	6.9074	1.6689	2.2492	590.58	1.0125	2.1647e-05	0.050012	vapor
337.34	20.000	7.3887	0.13534	2838.6	3109.3	6.9123	1.6683	2.2474	591.32	1.0055	2.1705e-05	0.050139	vapor
338.67	20.000	7.3700	0.13569	2840.9	3112.3	6.9172	1.6678	2.2456	592.05	0.99861	2.1763e-05	0.050267	vapor
340.01	20.000	7.3513	0.13603	2843.2	3115.3	6.9221	1.6673	2.2439	592.78	0.99178	2.1821e-05	0.050395	vapor
341.34	20.000	7.3328	0.13637	2845.5	3118.3	6.9270	1.6669	2.2422	593.50	0.98502	2.1879e-05	0.050524	vapor
342.67	20.000	7.3143	0.13672	2847.8	3121.3	6.9318	1.6664	2.2406	594.23	0.97833	2.1936e-05	0.050653	vapor
344.01	20.000	7.2960	0.13706	2850.1	3124.3	6.9367	1.6660	2.2390	594.95	0.97171	2.1994e-05	0.050783	vapor
345.34	20.000	7.2778	0.13740	2852.4	3127.2	6.9415	1.6656	2.2375	595.67	0.96515	2.2052e-05	0.050913	vapor
346.67	20.000	7.2597	0.13775	2854.7	3130.2	6.9463	1.6653	2.2360	596.39	0.95866	2.2110e-05	0.051044	vapor
348.01	20.000	7.2417	0.13809	2857.0	3133.2	6.9511	1.6649	2.2345	597.11	0.95224	2.2167e-05	0.051175	vapor
349.34	20.000	7.2238	0.13843	2859.3	3136.2	6.9559	1.6646	2.2331	597.83	0.94588	2.2225e-05	0.051307	vapor
350.67	20.000	7.2060	0.13877	2861.6	3139.2	6.9607	1.6643	2.2317	598.54	0.93959	2.2283e-05	0.051440	vapor
352.01	20.000	7.1884	0.13911	2863.9	3142.1	6.9654	1.6640	2.2304	599.25	0.93336	2.2340e-05	0.051572	vapor
353.34	20.000	7.1708	0.13945	2866.2	3145.1	6.9702	1.6637	2.2291	599.96	0.92719	2.2398e-05	0.051706	vapor
354.67	20.000	7.1533	0.13980	2868.5	3148.1	6.9749	1.6635	2.2278	600.67	0.92108	2.2455e-05	0.051839	vapor
356.01	20.000	7.1359	0.14014	2870.8	3151.0	6.9797	1.6632	2.2266	601.38	0.91503	2.2513e-05	0.051974	vapor
357.34	20.000	7.1187	0.14048	2873.1	3154.0	6.9844	1.6630	2.2254	602.08	0.90904	2.2571e-05	0.052108	vapor
358.67	20.000	7.1015	0.14082	2875.3	3157.0	6.9891	1.6628	2.2242	602.78	0.90311	2.2628e-05	0.052243	vapor
360.01	20.000	7.0844	0.14115	2877.6	3159.9	6.9938	1.6627	2.2231	603.48	0.89723	2.2686e-05	0.052379	vapor
361.34	20.000	7.0674	0.14149	2879.9	3162.9	6.9984	1.6625	2.2220	604.18	0.89142	2.2743e-05	0.052515	vapor
362.67	20.000	7.0506	0.14183	2882.2	3165.9	7.0031	1.6624	2.2209	604.88	0.88566	2.2800e-05	0.052651	vapor
364.01	20.000	7.0338	0.14217	2884.5	3168.8	7.0078	1.6623	2.2198	605.58	0.87996	2.2858e-05	0.052788	vapor
365.34	20.000	7.0171	0.14251	2886.8	3171.8	7.0124	1.6622	2.2188	606.27	0.87431	2.2915e-05	0.052925	vapor
366.67	20.000	7.0005	0.14285	2889.0	3174.7	7.0170	1.6621	2.2178	606.96	0.86871	2.2973e-05	0.053063	vapor
368.01	20.000	6.9840	0.14318	2891.3	3177.7	7.0216	1.6620	2.2169	607.65	0.86317	2.3030e-05	0.053201	vapor
369.34	20.000	6.9676	0.14352	2893.6	3180.7	7.0262	1.6620	2.2160	608.34	0.85768	2.3087e-05	0.053339	vapor
370.67	20.000	6.9512	0.14386	2895.9	3183.6	7.0308	1.6619	2.2151	609.03	0.85224	2.3145e-05	0.053478	vapor
372.01	20.000	6.9350	0.14420	2898.2	3186.6	7.0354	1.6619	2.2142	609.72	0.84686	2.3202e-05	0.053617	vapor
373.34	20.000	6.9188	0.14453	2900.4	3189.5	7.0400	1.6619	2.2133	610.40	0.84152	2.3259e-05	0.053757	vapor
374.67	20.000	6.9028	0.14487	2902.7	3192.5	7.0445	1.6619	2.2125	611.08	0.83624	2.3317e-05	0.053897	vapor
376.01	20.000	6.8868	0.14521	2905.0	3195.4	7.0491	1.6619	2.2117	611.77	0.83100	2.3374e-05	0.054037	vapor
377.34	20.000	6.8709	0.14554	2907.3	3198.4	7.0536	1.6619	2.2110	612.45	0.82582	2.3431e-05	0.054178	vapor
378.67	20.000	6.8551	0.14588	2909.6	3201.3	7.0582	1.6620	2.2102	613.12	0.82068	2.3488e-05	0.054319	vapor
380.01	20.000	6.8394	0.14621	2911.8	3204.3	7.0627	1.6621	2.2095	613.80	0.81559	2.3545e-05	0.054461	vapor
381.34	20.000	6.8237	0.14655	2914.1	3207.2	7.0672	1.6621	2.2088	614.48	0.81054	2.3602e-05	0.054602	vapor
382.67	20.000	6.8082	0.14688	2916.4	3210.1	7.0717	1.6622	2.2081	615.15	0.80554	2.3660e-05	0.054745	vapor
384.01	20.000	6.7927	0.14722	2918.7	3213.1	7.0762	1.6623	2.2075	615.82	0.80059	2.3717e-05	0.054887	vapor
385.34	20.000	6.7773	0.14755	2920.9	3216.0	7.0806	1.6624	2.2068	616.49	0.79568	2.3774e-05	0.055030	vapor
386.67	20.000	6.7620	0.14789	2923.2	3219.0	7.0851	1.6625	2.2062	617.16	0.79082	2.3831e-05	0.055173	vapor
388.01	20.000	6.7467	0.14822	2925.5	3221.9	7.0895	1.6627	2.2057	617.83	0.78600	2.3888e-05	0.055317	vapor
389.34	20.000	6.7316	0.14855	2927.7	3224.9	7.0940	1.6628	2.2051	618.50	0.78122	2.3945e-05	0.055461	vapor
390.67	20.000	6.7165	0.14889	2930.0	3227.8	7.0984	1.6630	2.2046	619.16	0.77649	2.4002e-05	0.055605	vapor
392.01	20.000	6.7015	0.14922	2932.3	3230.7	7.1028	1.6632	2.2040	619.82	0.77180	2.4059e-05	0.055750	vapor
393.34	20.000	6.6866	0.14955	2934.6	3233.7	7.1073	1.6633	2.2035	620.49	0.76715	2.4116e-05	0.055895	vapor
394.67	20.000	6.6717	0.14989	2936.8	3236.6	7.1117	1.6635	2.2030	621.15	0.76255	2.4173e-05	0.056040	vapor
396.01	20.000	6.6569	0.15022	2939.1	3239.5	7.1161	1.6637	2.2026	621.81	0.75798	2.4230e-05	0.056186	vapor
397.34	20.000	6.6422	0.15055	2941.4	3242.5	7.1204	1.6639	2.2021	622.47	0.75345	2.4287e-05	0.056332	vapor
398.67	20.000	6.6276	0.15088	2943.7	3245.4	7.1248	1.6642	2.2017	623.12	0.74897	2.4343e-05	0.056478	vapor
400.01	20.000	6.6131	0.15122	2945.9	3248.4	7.1292	1.6644	2.2013	623.78	0.74452	2.4400e-05	0.056624	vapor
401.34	20.000	6.5986	0.15155	2948.2	3251.3	7.1335	1.6646	2.2009	624.43	0.74011	2.4457e-05	0.056771	vapor
402.67	20.000	6.5842	0.15188	2950.5	3254.2	7.1379	1.6649	2.2005	625.09	0.73574	2.4514e-05	0.056918	vapor
404.00	20.000	6.5698	0.15221	2952.7	3257.2	7.1422	1.6651	2.2002	625.74	0.73141	2.4571e-05	0.057066	vapor
405.34	20.000	6.5556	0.15254	2955.0	3260.1	7.1465	1.6654	2.1998	626.39	0.72711	2.4627e-05	0.057213	vapor
406.67	20.000	6.5414	0.15287	2957.3	3263.0	7.1509	1.6657	2.1995	627.04	0.72286	2.4684e-05	0.057362	vapor
408.00	20.000	6.5272	0.15320	2959.5	3266.0	7.1552	1.6660	2.1992	627.68	0.71864	2.4741e-05	0.057510	vapor
409.34	20.000	6.5132	0.15353	2961.8	3268.9	7.1595	1.6663	2.1989	628.33	0.71445	2.4798e-05	0.057659	vapor
410.67	20.000	6.4992	0.15387	2964.1	3271.8	7.1638	1.6666	2.1987	628.98	0.71030	2.4854e-05	0.057807	vapor
412.00	20.000	6.4853	0.15420	2966.4	3274.8	7.1680	1.6669	2.1984	629.62	0.70619	2.4911e-05	0.057957	vapor
413.34	20.000	6.4714	0.15453	2968.6	3277.7	7.1723	1.6672	2.1982	630.26	0.70211	2.4968e-05	0.058106	vapor
414.67	20.000	6.4576	0.15486	2970.9	3280.6	7.1766	1.6676	2.1979	630.90	0.69806	2.5024e-05	0.058256	vapor
416.00	20.000	6.4439	0.15519	2973.2	3283.5	7.1808	1.6679	2.1977	631.54	0.69405	2.5081e-05	0.058406	vapor
417.34	20.000	6.4302	0.15552	2975.4	3286.5	7.1851	1.6683	2.1975	632.18	0.69008	2.5137e-05	0.058556	vapor
418.67	20.000	6.4166	0.15585	2977.7	3289.4	7.1893	1.6686	2.1973	632.82	0.68613	2.5194e-05	0.058707	vapor
420.00	20.000	6.4031	0.15617	2980.0	3292.3	7.1936	1.6690	2.1972	633.46	0.68222	2.5250e-05	0.058858	vapor
421.34	20.000	6.3896	0.15650	2982.3	3295.3	7.1978	1.6693	2.1970	634.09	0.67834	2.5307e-05	0.059009	vapor
422.67	20.000	6.3762	0.15683	2984.5	3298.2	7.2020	1.6697	2.1969	634.73	0.67450	2.5363e-05	0.059160	vapor
424.00	20.000	6.3629	0.15716	2986.8	3301.1	7.2062	1.6701	2.1967	635.36	0.67068	2.5420e-05	0.059312	vapor
425.34	20.000	6.3496	0.15749	2989.1	3304.0	7.2104	1.6705	2.1966	635.99	0.66690	2.5476e-05	0.059464	vapor
426.67	20.000	6.3364	0.15782	2991.3	3307.0	7.2146	1.6709	2.1965	636.62	0.66315	2.5533e-05	0.059616	vapor
428.00	20.000	6.3232	0.15815	2993.6	3309.9	7.2188	1.6713	2.1964	637.25	0.65943	2.5589e-05	0.059769	vapor
429.34	20.000	6.3101	0.15848	2995.9	3312.8	7.2229	1.6717	2.1964	637.88	0.65573	2.5645e-05	0.059921	vapor
430.67	20.000	6.2971	0.15880	2998.2	3315.8	7.2271	1.6721	2.1963	638.51	0.65207	2.5702e-05	0.060074	vapor
432.00	20.000	6.2841	0.15913	3000.4	3318.7	7.2313	1.6726	2.1962	639.14	0.64844	2.5758e-05	0.060228	vapor
433.34	20.000	6.2712	0.15946	3002.7	3321.6	7.2354	1.6730	2.1962	639.76	0.64484	2.5815e-05	0.060381	vapor
434.67	20.000	6.2584	0.15979	3005.0	3324.5	7.2395	1.6734	2.1962	640.39	0.64127	2.5871e-05	0.060535	vapor
436.00	20.000	6.2456	0.16011	3007.2	3327.5	7.2437	1.6739	2.1962	641.01	0.63772	2.5927e-05	0.060689	vapor
437.34	20.000	6.2328	0.16044	3009.5	3330.4	7.2478	1.6743	2.1962	641.63	0.63421	2.5983e-05	0.060843	vapor
438.67	20.000	6.2201	0.16077	3011.8	3333.3	7.2519	1.6748	2.1962	642.25	0.63072	2.6040e-05	0.060998	vapor
440.00	20.000	6.2075	0.16110	3014.1	3336.3	7.2560	1.6753	2.1962	642.87	0.62726	2.6096e-05	0.061152	vapor
441.34	20.000	6.1949	0.16142	3016.3	3339.2	7.2601	1.6757	2.1962	643.49	0.62382	2.6152e-05	0.061307	vapor
442.67	20.000	6.1824	0.16175	3018.6	3342.1	7.2642	1.6762	2.1962	644.11	0.62042	2.6208e-05	0.061462	vapor
444.00	20.000	6.1700	0.16208	3020.9	3345.0	7.2683	1.6767	2.1963	644.73	0.61704	2.6264e-05	0.061618	vapor
445.34	20.000	6.1576	0.16240	3023.2	3348.0	7.2724	1.6772	2.1964	645.34	0.61369	2.6320e-05	0.061773	vapor
446.67	20.000	6.1452	0.16273	3025.4	3350.9	7.2765	1.6777	2.1964	645.96	0.61036	2.6376e-05	0.061929	vapor
448.00	20.000	6.1329	0.16305	3027.7	3353.8	7.2805	1.6782	2.1965	646.57	0.60706	2.6433e-05	0.062085	vapor
449.34	20.000	6.1207	0.16338	3030.0	3356.8	7.2846	1.6787	2.1966	647.18	0.60378	2.6489e-05	0.062242	vapor
450.67	20.000	6.1085	0.16371	3032.3	3359.7	7.2886	1.6792	2.1967	647.80	0.60053	2.6545e-05	0.062398	vapor
452.00	20.000	6.0964	0.16403	3034.6	3362.6	7.2927	1.6797	2.1968	648.41	0.59731	2.6601e-05	0.062555	vapor
453.34	20.000	6.0843	0.16436	3036.8	3365.5	7.2967	1.6802	2.1969	649.02	0.59411	2.6657e-05	0.062712	vapor
454.67	20.000	6.0723	0.16468	3039.1	3368.5	7.3007	1.6808	2.1970	649.62	0.59094	2.6713e-05	0.062869	vapor
456.00	20.000	6.0603	0.16501	3041.4	3371.4	7.3048	1.6813	2.1972	650.23	0.58779	2.6769e-05	0.063027	vapor
457.34	20.000	6.0484	0.16533	3043.7	3374.3	7.3088	1.6818	2.1973	650.84	0.58466	2.6825e-05	0.063184	vapor
458.67	20.000	6.0365	0.16566	3045.9	3377.3	7.3128	1.6824	2.1975	651.44	0.58156	2.6880e-05	0.063342	vapor
460.00	20.000	6.0247	0.16598	3048.2	3380.2	7.3168	1.6829	2.1977	652.05	0.57848	2.6936e-05	0.063500	vapor
461.34	20.000	6.0129	0.16631	3050.5	3383.1	7.3208	1.6835	2.1978	652.65	0.57542	2.6992e-05	0.063659	vapor
462.67	20.000	6.0012	0.16663	3052.8	3386.1	7.3248	1.6840	2.1980	653.26	0.57239	2.7048e-05	0.063817	vapor
464.00	20.000	5.9895	0.16696	3055.1	3389.0	7.3288	1.6846	2.1982	653.86	0.56938	2.7104e-05	0.063976	vapor
465.34	20.000	5.9779	0.16728	3057.4	3391.9	7.3327	1.6852	2.1984	654.46	0.56639	2.7160e-05	0.064135	vapor
466.67	20.000	5.9663	0.16761	3059.6	3394.8	7.3367	1.6857	2.1986	655.06	0.56343	2.7215e-05	0.064294	vapor
468.00	20.000	5.9548	0.16793	3061.9	3397.8	7.3406	1.6863	2.1988	655.66	0.56049	2.7271e-05	0.064454	vapor
469.34	20.000	5.9433	0.16826	3064.2	3400.7	7.3446	1.6869	2.1990	656.26	0.55757	2.7327e-05	0.064613	vapor
470.67	20.000	5.9319	0.16858	3066.5	3403.6	7.3485	1.6875	2.1993	656.85	0.55467	2.7383e-05	0.064773	vapor
472.00	20.000	5.9205	0.16890	3068.8	3406.6	7.3525	1.6881	2.1995	657.45	0.55179	2.7438e-05	0.064933	vapor
473.34	20.000	5.9092	0.16923	3071.1	3409.5	7.3564	1.6886	2.1998	658.04	0.54893	2.7494e-05	0.065093	vapor
474.67	20.000	5.8979	0.16955	3073.3	3412.4	7.3603	1.6892	2.2000	658.64	0.54610	2.7550e-05	0.065253	vapor
476.00	20.000	5.8867	0.16988	3075.6	3415.4	7.3643	1.6898	2.2003	659.23	0.54328	2.7605e-05	0.065414	vapor
477.34	20.000	5.8755	0.17020	3077.9	3418.3	7.3682	1.6904	2.2005	659.83	0.54049	2.7661e-05	0.065575	vapor
478.67	20.000	5.8643	0.17052	3080.2	3421.2	7.3721	1.6911	2.2008	660.42	0.53772	2.7717e-05	0.065736	vapor
480.00	20.000	5.8532	0.17085	3082.5	3424.2	7.3760	1.6917	2.2011	661.01	0.53496	2.7772e-05	0.065897	vapor
481.34	20.000	5.8422	0.17117	3084.8	3427.1	7.3799	1.6923	2.2014	661.60	0.53223	2.7828e-05	0.066058	vapor
482.67	20.000	5.8312	0.17149	3087.1	3430.1	7.3838	1.6929	2.2017	662.19	0.52952	2.7883e-05	0.066220	vapor
484.00	20.000	5.8202	0.17182	3089.4	3433.0	7.3876	1.6935	2.2020	662.78	0.52682	2.7939e-05	0.066382	vapor
485.34	20.000	5.8093	0.17214	3091.6	3435.9	7.3915	1.6941	2.2023	663.36	0.52415	2.7994e-05	0.066544	vapor
486.67	20.000	5.7984	0.17246	3093.9	3438.9	7.3954	1.6948	2.2026	663.95	0.52149	2.8050e-05	0.066706	vapor
488.00	20.000	5.7876	0.17278	3096.2	3441.8	7.3992	1.6954	2.2030	664.53	0.51886	2.8105e-05	0.066868	vapor
489.34	20.000	5.7768	0.17311	3098.5	3444.7	7.4031	1.6960	2.2033	665.12	0.51624	2.8160e-05	0.067031	vapor
490.67	20.000	5.7660	0.17343	3100.8	3447.7	7.4070	1.6967	2.2036	665.70	0.51364	2.8216e-05	0.067193	vapor
492.00	20.000	5.7553	0.17375	3103.1	3450.6	7.4108	1.6973	2.2040	666.29	0.51106	2.8271e-05	0.067356	vapor
493.34	20.000	5.7447	0.17407	3105.4	3453.5	7.4146	1.6980	2.2043	666.87	0.50850	2.8327e-05	0.067519	vapor
494.67	20.000	5.7341	0.17440	3107.7	3456.5	7.4185	1.6986	2.2047	667.45	0.50595	2.8382e-05	0.067683	vapor
496.00	20.000	5.7235	0.17472	3110.0	3459.4	7.4223	1.6993	2.2050	668.03	0.50343	2.8437e-05	0.067846	vapor
497.34	20.000	5.7130	0.17504	3112.3	3462.4	7.4261	1.6999	2.2054	668.61	0.50092	2.8492e-05	0.068010	vapor
498.67	20.000	5.7025	0.17536	3114.6	3465.3	7.4299	1.7006	2.2058	669.19	0.49843	2.8548e-05	0.068173	vapor
500.00	20.000	5.6920	0.17568	3116.9	3468.2	7.4337	1.7013	2.2062	669.77	0.49596	2.8603e-05	0.068337	vapor
501.34	20.000	5.6816	0.17601	3119.2	3471.2	7.4375	1.7019	2.2065	670.34	0.49350	2.8658e-05	0.068502	vapor
502.67	20.000	5.6713	0.17633	3121.5	3474.1	7.4413	1.7026	2.2069	670.92	0.49106	2.8713e-05	0.068666	vapor
504.00	20.000	5.6609	0.17665	3123.8	3477.1	7.4451	1.7033	2.2073	671.50	0.48864	2.8769e-05	0.068830	vapor
505.34	20.000	5.6506	0.17697	3126.1	3480.0	7.4489	1.7040	2.2077	672.07	0.48624	2.8824e-05	0.068995	vapor
506.67	20.000	5.6404	0.17729	3128.4	3483.0	7.4527	1.7046	2.2081	672.65	0.48385	2.8879e-05	0.069160	vapor
508.00	20.000	5.6302	0.17761	3130.7	3485.9	7.4565	1.7053	2.2086	673.22	0.48148	2.8934e-05	0.069325	vapor
509.34	20.000	5.6200	0.17794	3133.0	3488.9	7.4602	1.7060	2.2090	673.79	0.47912	2.8989e-05	0.069490	vapor
510.67	20.000	5.6099	0.17826	3135.3	3491.8	7.4640	1.7067	2.2094	674.36	0.47678	2.9044e-05	0.069656	vapor
512.00	20.000	5.5998	0.17858	3137.6	3494.7	7.4677	1.7074	2.2098	674.93	0.47446	2.9099e-05	0.069821	vapor
513.34	20.000	5.5898	0.17890	3139.9	3497.7	7.4715	1.7081	2.2103	675.50	0.47215	2.9154e-05	0.069987	vapor
514.67	20.000	5.5798	0.17922	3142.2	3500.6	7.4752	1.7088	2.2107	676.07	0.46986	2.9209e-05	0.070153	vapor
516.00	20.000	5.5698	0.17954	3144.5	3503.6	7.4790	1.7095	2.2112	676.64	0.46758	2.9264e-05	0.070319	vapor
517.34	20.000	5.5599	0.17986	3146.8	3506.5	7.4827	1.7102	2.2116	677.21	0.46532	2.9319e-05	0.070485	vapor
518.67	20.000	5.5500	0.18018	3149.1	3509.5	7.4864	1.7109	2.2121	677.78	0.46308	2.9374e-05	0.070651	vapor
520.00	20.000	5.5401	0.18050	3151.4	3512.4	7.4902	1.7116	2.2125	678.34	0.46085	2.9429e-05	0.070818	vapor
521.34	20.000	5.5303	0.18082	3153.7	3515.4	7.4939	1.7123	2.2130	678.91	0.45863	2.9484e-05	0.070985	vapor
522.67	20.000	5.5205	0.18114	3156.0	3518.3	7.4976	1.7130	2.2135	679.47	0.45643	2.9539e-05	0.071151	vapor
524.00	20.000	5.5107	0.18146	3158.4	3521.3	7.5013	1.7137	2.2139	680.04	0.45424	2.9594e-05	0.071318	vapor
525.34	20.000	5.5010	0.18178	3160.7	3524.2	7.5050	1.7144	2.2144	680.60	0.45207	2.9648e-05	0.071486	vapor
526.67	20.000	5.4914	0.18210	3163.0	3527.2	7.5087	1.7152	2.2149	681.16	0.44992	2.9703e-05	0.071653	vapor
528.00	20.000	5.4817	0.18242	3165.3	3530.1	7.5124	1.7159	2.2154	681.72	0.44777	2.9758e-05	0.071820	vapor
529.34	20.000	5.4721	0.18274	3167.6	3533.1	7.5161	1.7166	2.2159	682.29	0.44564	2.9813e-05	0.071988	vapor
530.67	20.000	5.4626	0.18306	3169.9	3536.1	7.5197	1.7173	2.2164	682.85	0.44353	2.9867e-05	0.072156	vapor
532.00	20.000	5.4530	0.18338	3172.2	3539.0	7.5234	1.7181	2.2169	683.41	0.44143	2.9922e-05	0.072324	vapor
533.34	20.000	5.4435	0.18370	3174.6	3542.0	7.5271	1.7188	2.2174	683.96	0.43934	2.9977e-05	0.072492	vapor
534.67	20.000	5.4341	0.18402	3176.9	3544.9	7.5307	1.7195	2.2179	684.52	0.43727	3.0031e-05	0.072660	vapor
536.00	20.000	5.4247	0.18434	3179.2	3547.9	7.5344	1.7203	2.2184	685.08	0.43521	3.0086e-05	0.072829	vapor
537.34	20.000	5.4153	0.18466	3181.5	3550.8	7.5380	1.7210	2.2189	685.64	0.43317	3.0141e-05	0.072997	vapor
538.67	20.000	5.4059	0.18498	3183.8	3553.8	7.5417	1.7218	2.2195	686.19	0.43113	3.0195e-05	0.073166	vapor
540.00	20.000	5.3966	0.18530	3186.2	3556.8	7.5453	1.7225	2.2200	686.75	0.42911	3.0250e-05	0.073335	vapor
541.34	20.000	5.3873	0.18562	3188.5	3559.7	7.5490	1.7233	2.2205	687.30	0.42711	3.0304e-05	0.073504	vapor
542.67	20.000	5.3781	0.18594	3190.8	3562.7	7.5526	1.7240	2.2211	687.86	0.42511	3.0359e-05	0.073673	vapor
544.00	20.000	5.3688	0.18626	3193.1	3565.6	7.5562	1.7248	2.2216	688.41	0.42313	3.0414e-05	0.073842	vapor
545.34	20.000	5.3596	0.18658	3195.4	3568.6	7.5599	1.7255	2.2221	688.96	0.42117	3.0468e-05	0.074012	vapor
546.67	20.000	5.3505	0.18690	3197.8	3571.6	7.5635	1.7263	2.2227	689.51	0.41921	3.0522e-05	0.074182	vapor
548.00	20.000	5.3414	0.18722	3200.1	3574.5	7.5671	1.7270	2.2232	690.07	0.41727	3.0577e-05	0.074351	vapor
549.34	20.000	5.3323	0.18754	3202.4	3577.5	7.5707	1.7278	2.2238	690.62	0.41534	3.0631e-05	0.074521	vapor
550.67	20.000	5.3232	0.18786	3204.7	3580.5	7.5743	1.7285	2.2243	691.17	0.41342	3.0686e-05	0.074691	vapor
552.00	20.000	5.3142	0.18817	3207.1	3583.4	7.5779	1.7293	2.2249	691.71	0.41152	3.0740e-05	0.074861	vapor
553.34	20.000	5.3052	0.18849	3209.4	3586.4	7.5815	1.7301	2.2255	692.26	0.40962	3.0794e-05	0.075032	vapor
554.67	20.000	5.2963	0.18881	3211.7	3589.4	7.5851	1.7308	2.2260	692.81	0.40774	3.0849e-05	0.075202	vapor
556.00	20.000	5.2873	0.18913	3214.1	3592.3	7.5887	1.7316	2.2266	693.36	0.40587	3.0903e-05	0.075373	vapor
557.34	20.000	5.2785	0.18945	3216.4	3595.3	7.5922	1.7324	2.2272	693.90	0.40401	3.0957e-05	0.075544	vapor
558.67	20.000	5.2696	0.18977	3218.7	3598.3	7.5958	1.7331	2.2278	694.45	0.40217	3.1012e-05	0.075714	vapor
560.00	20.000	5.2608	0.19009	3221.1	3601.2	7.5994	1.7339	2.2284	695.00	0.40033	3.1066e-05	0.075885	vapor
561.34	20.000	5.2520	0.19041	3223.4	3604.2	7.6029	1.7347	2.2289	695.54	0.39851	3.1120e-05	0.076057	vapor
562.67	20.000	5.2432	0.19072	3225.7	3607.2	7.6065	1.7355	2.2295	696.08	0.39670	3.1174e-05	0.076228	vapor
564.00	20.000	5.2345	0.19104	3228.1	3610.2	7.6101	1.7362	2.2301	696.63	0.39490	3.1229e-05	0.076399	vapor
565.34	20.000	5.2258	0.19136	3230.4	3613.1	7.6136	1.7370	2.2307	697.17	0.39311	3.1283e-05	0.076571	vapor
566.67	20.000	5.2171	0.19168	3232.7	3616.1	7.6172	1.7378	2.2313	697.71	0.39133	3.1337e-05	0.076743	vapor
568.00	20.000	5.2084	0.19200	3235.1	3619.1	7.6207	1.7386	2.2319	698.25	0.38957	3.1391e-05	0.076914	vapor
569.34	20.000	5.1998	0.19231	3237.4	3622.1	7.6242	1.7394	2.2325	698.79	0.38781	3.1445e-05	0.077086	vapor
570.67	20.000	5.1912	0.19263	3239.8	3625.0	7.6278	1.7402	2.2331	699.33	0.38607	3.1499e-05	0.077258	vapor
572.00	20.000	5.1827	0.19295	3242.1	3628.0	7.6313	1.7410	2.2338	699.87	0.38433	3.1553e-05	0.077431	vapor
573.34	20.000	5.1742	0.19327	3244.5	3631.0	7.6348	1.7418	2.2344	700.41	0.38261	3.1607e-05	0.077603	vapor
574.67	20.000	5.1657	0.19359	3246.8	3634.0	7.6383	1.7425	2.2350	700.95	0.38090	3.1661e-05	0.077775	vapor
576.00	20.000	5.1572	0.19390	3249.1	3636.9	7.6418	1.7433	2.2356	701.49	0.37919	3.1715e-05	0.077948	vapor
577.34	20.000	5.1488	0.19422	3251.5	3639.9	7.6453	1.7441	2.2362	702.02	0.37750	3.1769e-05	0.078121	vapor
578.67	20.000	5.1403	0.19454	3253.8	3642.9	7.6488	1.7449	2.2369	702.56	0.37582	3.1823e-05	0.078294	vapor
580.00	20.000	5.1320	0.19486	3256.2	3645.9	7.6523	1.7457	2.2375	703.09	0.37415	3.1877e-05	0.078467	vapor
581.34	20.000	5.1236	0.19517	3258.5	3648.9	7.6558	1.7465	2.2381	703.63	0.37249	3.1931e-05	0.078640	vapor
582.67	20.000	5.1153	0.19549	3260.9	3651.9	7.6593	1.7473	2.2388	704.16	0.37084	3.1985e-05	0.078813	vapor
584.00	20.000	5.1070	0.19581	3263.2	3654.8	7.6628	1.7481	2.2394	704.70	0.36919	3.2038e-05	0.078986	vapor
585.34	20.000	5.0987	0.19613	3265.6	3657.8	7.6663	1.7490	2.2400	705.23	0.36756	3.2092e-05	0.079160	vapor
586.67	20.000	5.0905	0.19644	3267.9	3660.8	7.6698	1.7498	2.2407	705.76	0.36594	3.2146e-05	0.079333	vapor
588.00	20.000	5.0823	0.19676	3270.3	3663.8	7.6732	1.7506	2.2413	706.29	0.36433	3.2200e-05	0.079507	vapor
589.34	20.000	5.0741	0.19708	3272.6	3666.8	7.6767	1.7514	2.2420	706.82	0.36273	3.2254e-05	0.079681	vapor
590.67	20.000	5.0660	0.19740	3275.0	3669.8	7.6802	1.7522	2.2426	707.35	0.36113	3.2307e-05	0.079855	vapor
592.00	20.000	5.0578	0.19771	3277.4	3672.8	7.6836	1.7530	2.2433	707.88	0.35955	3.2361e-05	0.080029	vapor
593.34	20.000	5.0497	0.19803	3279.7	3675.8	7.6871	1.7538	2.2440	708.41	0.35798	3.2415e-05	0.080203	vapor
594.67	20.000	5.0417	0.19835	3282.1	3678.8	7.6905	1.7546	2.2446	708.94	0.35641	3.2468e-05	0.080377	vapor
596.00	20.000	5.0336	0.19866	3284.4	3681.8	7.6940	1.7554	2.2453	709.47	0.35486	3.2522e-05	0.080552	vapor
597.34	20.000	5.0256	0.19898	3286.8	3684.8	7.6974	1.7563	2.2459	710.00	0.35331	3.2576e-05	0.080726	vapor
598.67	20.000	5.0176	0.19930	3289.1	3687.7	7.7009	1.7571	2.2466	710.53	0.35178	3.2629e-05	0.080901	vapor
600.00	20.000	5.0096	0.19962	3291.5	3690.7	7.7043	1.7579	2.2473	711.05	0.35025	3.2683e-05	0.081076	vapor
601.34	20.000	5.0017	0.19993	3293.9	3693.7	7.7077	1.7587	2.2480	711.58	0.34873	3.2736e-05	0.081250	vapor
602.67	20.000	4.9938	0.20025	3296.2	3696.7	7.7112	1.7596	2.2486	712.10	0.34722	3.2790e-05	0.081425	vapor
604.00	20.000	4.9859	0.20057	3298.6	3699.7	7.7146	1.7604	2.2493	712.63	0.34572	3.2843e-05	0.081601	vapor
605.34	20.000	4.9780	0.20088	3301.0	3702.7	7.7180	1.7612	2.2500	713.15	0.34423	3.2897e-05	0.081776	vapor
606.67	20.000	4.9702	0.20120	3303.3	3705.7	7.7214	1.7620	2.2507	713.68	0.34274	3.2950e-05	0.081951	vapor
608.00	20.000	4.9624	0.20152	3305.7	3708.7	7.7248	1.7629	2.2514	714.20	0.34127	3.3004e-05	0.082126	vapor
609.34	20.000	4.9546	0.20183	3308.1	3711.7	7.7282	1.7637	2.2520	714.72	0.33980	3.3057e-05	0.082302	vapor
610.67	20.000	4.9469	0.20215	3310.4	3714.7	7.7316	1.7645	2.2527	715.24	0.33835	3.3110e-05	0.082478	vapor
612.00	20.000	4.9391	0.20246	3312.8	3717.7	7.7350	1.7653	2.2534	715.76	0.33690	3.3164e-05	0.082653	vapor
613.34	20.000	4.9314	0.20278	3315.2	3720.7	7.7384	1.7662	2.2541	716.29	0.33546	3.3217e-05	0.082829	vapor
614.67	20.000	4.9237	0.20310	3317.6	3723.8	7.7418	1.7670	2.2548	716.81	0.33402	3.3270e-05	0.083005	vapor
616.00	20.000	4.9161	0.20341	3319.9	3726.8	7.7452	1.7679	2.2555	717.32	0.33260	3.3324e-05	0.083181	vapor
617.34	20.000	4.9085	0.20373	3322.3	3729.8	7.7486	1.7687	2.2562	717.84	0.33118	3.3377e-05	0.083357	vapor
618.67	20.000	4.9008	0.20405	3324.7	3732.8	7.7519	1.7695	2.2569	718.36	0.32978	3.3430e-05	0.083534	vapor
620.00	20.000	4.8933	0.20436	3327.1	3735.8	7.7553	1.7704	2.2576	718.88	0.32838	3.3483e-05	0.083710	vapor
621.34	20.000	4.8857	0.20468	3329.4	3738.8	7.7587	1.7712	2.2583	719.40	0.32698	3.3537e-05	0.083887	vapor
622.67	20.000	4.8782	0.20499	3331.8	3741.8	7.7620	1.7720	2.2590	719.91	0.32560	3.3590e-05	0.084063	vapor
624.00	20.000	4.8707	0.20531	3334.2	3744.8	7.7654	1.7729	2.2597	720.43	0.32422	3.3643e-05	0.084240	vapor
625.34	20.000	4.8632	0.20563	3336.6	3747.8	7.7688	1.7737	2.2605	720.95	0.32286	3.3696e-05	0.084417	vapor
626.67	20.000	4.8557	0.20594	3339.0	3750.9	7.7721	1.7746	2.2612	721.46	0.32150	3.3749e-05	0.084593	vapor
628.00	20.000	4.8483	0.20626	3341.3	3753.9	7.7755	1.7754	2.2619	721.98	0.32014	3.3802e-05	0.084770	vapor
629.34	20.000	4.8409	0.20657	3343.7	3756.9	7.7788	1.7763	2.2626	722.49	0.31880	3.3855e-05	0.084948	vapor
630.67	20.000	4.8335	0.20689	3346.1	3759.9	7.7821	1.7771	2.2633	723.00	0.31746	3.3908e-05	0.085125	vapor
632.00	20.000	4.8261	0.20721	3348.5	3762.9	7.7855	1.7780	2.2640	723.52	0.31613	3.3961e-05	0.085302	vapor
633.34	20.000	4.8188	0.20752	3350.9	3765.9	7.7888	1.7788	2.2648	724.03	0.31481	3.4014e-05	0.085479	vapor
634.67	20.000	4.8115	0.20784	3353.3	3769.0	7.7921	1.7797	2.2655	724.54	0.31349	3.4067e-05	0.085657	vapor
636.00	20.000	4.8042	0.20815	3355.7	3772.0	7.7955	1.7805	2.2662	725.05	0.31218	3.4120e-05	0.085834	vapor
637.34	20.000	4.7969	0.20847	3358.1	3775.0	7.7988	1.7814	2.2669	725.56	0.31088	3.4173e-05	0.086012	vapor
638.67	20.000	4.7896	0.20878	3360.5	3778.0	7.8021	1.7822	2.2677	726.08	0.30959	3.4226e-05	0.086190	vapor
640.00	20.000	4.7824	0.20910	3362.8	3781.0	7.8054	1.7831	2.2684	726.59	0.30831	3.4279e-05	0.086368	vapor
641.34	20.000	4.7752	0.20942	3365.2	3784.1	7.8087	1.7839	2.2691	727.09	0.30703	3.4332e-05	0.086546	vapor
642.67	20.000	4.7680	0.20973	3367.6	3787.1	7.8120	1.7848	2.2699	727.60	0.30575	3.4385e-05	0.086724	vapor
644.00	20.000	4.7609	0.21005	3370.0	3790.1	7.8153	1.7856	2.2706	728.11	0.30449	3.4438e-05	0.086902	vapor
645.34	20.000	4.7537	0.21036	3372.4	3793.2	7.8186	1.7865	2.2714	728.62	0.30323	3.4490e-05	0.087080	vapor
646.67	20.000	4.7466	0.21068	3374.8	3796.2	7.8219	1.7873	2.2721	729.13	0.30198	3.4543e-05	0.087259	vapor
648.00	20.000	4.7395	0.21099	3377.2	3799.2	7.8252	1.7882	2.2728	729.63	0.30074	3.4596e-05	0.087437	vapor
649.34	20.000	4.7324	0.21131	3379.6	3802.2	7.8285	1.7891	2.2736	730.14	0.29950	3.4649e-05	0.087616	vapor
650.67	20.000	4.7254	0.21162	3382.0	3805.3	7.8318	1.7899	2.2743	730.65	0.29827	3.4701e-05	0.087794	vapor
652.00	20.000	4.7184	0.21194	3384.4	3808.3	7.8351	1.7908	2.2751	731.15	0.29705	3.4754e-05	0.087973	vapor
653.34	20.000	4.7114	0.21225	3386.8	3811.3	7.8384	1.7916	2.2758	731.66	0.29583	3.4807e-05	0.088152	vapor
654.67	20.000	4.7044	0.21257	3389.2	3814.4	7.8416	1.7925	2.2766	732.16	0.29462	3.4859e-05	0.088330	vapor
656.00	20.000	4.6974	0.21288	3391.6	3817.4	7.8449	1.7934	2.2773	732.66	0.29342	3.4912e-05	0.088509	vapor
657.34	20.000	4.6905	0.21320	3394.1	3820.4	7.8482	1.7942	2.2781	733.17	0.29222	3.4964e-05	0.088689	vapor
658.67	20.000	4.6835	0.21351	3396.5	3823.5	7.8514	1.7951	2.2788	733.67	0.29103	3.5017e-05	0.088868	vapor
660.00	20.000	4.6766	0.21383	3398.9	3826.5	7.8547	1.7960	2.2796	734.17	0.28985	3.5070e-05	0.089047	vapor
661.34	20.000	4.6698	0.21414	3401.3	3829.6	7.8579	1.7968	2.2804	734.68	0.28867	3.5122e-05	0.089226	vapor
662.67	20.000	4.6629	0.21446	3403.7	3832.6	7.8612	1.7977	2.2811	735.18	0.28750	3.5175e-05	0.089406	vapor
664.00	20.000	4.6561	0.21477	3406.1	3835.6	7.8644	1.7986	2.2819	735.68	0.28633	3.5227e-05	0.089585	vapor
665.34	20.000	4.6493	0.21509	3408.5	3838.7	7.8677	1.7994	2.2826	736.18	0.28517	3.5279e-05	0.089765	vapor
666.67	20.000	4.6425	0.21540	3410.9	3841.7	7.8709	1.8003	2.2834	736.68	0.28402	3.5332e-05	0.089944	vapor
668.00	20.000	4.6357	0.21572	3413.3	3844.8	7.8742	1.8012	2.2842	737.18	0.28287	3.5384e-05	0.090124	vapor
669.33	20.000	4.6289	0.21603	3415.8	3847.8	7.8774	1.8020	2.2849	737.68	0.28173	3.5437e-05	0.090304	vapor
670.67	20.000	4.6222	0.21635	3418.2	3850.9	7.8806	1.8029	2.2857	738.17	0.28060	3.5489e-05	0.090484	vapor
672.00	20.000	4.6155	0.21666	3420.6	3853.9	7.8839	1.8038	2.2865	738.67	0.27947	3.5541e-05	0.090664	vapor
673.33	20.000	4.6088	0.21698	3423.0	3857.0	7.8871	1.8047	2.2872	739.17	0.27835	3.5594e-05	0.090844	vapor
674.67	20.000	4.6021	0.21729	3425.4	3860.0	7.8903	1.8055	2.2880	739.67	0.27723	3.5646e-05	0.091024	vapor
676.00	20.000	4.5955	0.21761	3427.9	3863.1	7.8935	1.8064	2.2888	740.16	0.27612	3.5698e-05	0.091204	vapor
677.33	20.000	4.5888	0.21792	3430.3	3866.1	7.8967	1.8073	2.2896	740.66	0.27502	3.5750e-05	0.091385	vapor
678.67	20.000	4.5822	0.21823	3432.7	3869.2	7.8999	1.8082	2.2903	741.16	0.27392	3.5803e-05	0.091565	vapor
680.00	20.000	4.5756	0.21855	3435.1	3872.2	7.9032	1.8090	2.2911	741.65	0.27283	3.5855e-05	0.091746	vapor
681.33	20.000	4.5691	0.21886	3437.6	3875.3	7.9064	1.8099	2.2919	742.15	0.27174	3.5907e-05	0.091926	vapor
682.67	20.000	4.5625	0.21918	3440.0	3878.3	7.9096	1.8108	2.2927	742.64	0.27066	3.5959e-05	0.092107	vapor
684.00	20.000	4.5560	0.21949	3442.4	3881.4	7.9128	1.8117	2.2935	743.13	0.26958	3.6011e-05	0.092288	vapor
685.33	20.000	4.5495	0.21981	3444.8	3884.5	7.9159	1.8125	2.2942	743.63	0.26851	3.6063e-05	0.092468	vapor
686.67	20.000	4.5430	0.22012	3447.3	3887.5	7.9191	1.8134	2.2950	744.12	0.26745	3.6115e-05	0.092649	vapor
688.00	20.000	4.5365	0.22044	3449.7	3890.6	7.9223	1.8143	2.2958	744.61	0.26639	3.6167e-05	0.092830	vapor
689.33	20.000	4.5300	0.22075	3452.1	3893.6	7.9255	1.8152	2.2966	745.10	0.26534	3.6220e-05	0.093011	vapor
690.67	20.000	4.5236	0.22106	3454.6	3896.7	7.9287	1.8160	2.2974	745.60	0.26429	3.6272e-05	0.093192	vapor
692.00	20.000	4.5172	0.22138	3457.0	3899.8	7.9319	1.8169	2.2982	746.09	0.26325	3.6324e-05	0.093374	vapor
693.33	20.000	4.5108	0.22169	3459.4	3902.8	7.9350	1.8178	2.2990	746.58	0.26221	3.6375e-05	0.093555	vapor
694.67	20.000	4.5044	0.22201	3461.9	3905.9	7.9382	1.8187	2.2997	747.07	0.26118	3.6427e-05	0.093736	vapor
696.00	20.000	4.4980	0.22232	3464.3	3909.0	7.9414	1.8196	2.3005	747.56	0.26015	3.6479e-05	0.093918	vapor
697.33	20.000	4.4917	0.22263	3466.8	3912.0	7.9445	1.8205	2.3013	748.05	0.25913	3.6531e-05	0.094099	vapor
698.67	20.000	4.4853	0.22295	3469.2	3915.1	7.9477	1.8213	2.3021	748.54	0.25812	3.6583e-05	0.094281	vapor
700.00	20.000	4.4790	0.22326	3471.6	3918.2	7.9509	1.8222	2.3029	749.02	0.25711	3.6635e-05	0.094463	vapor
701.33	20.000	4.4727	0.22358	3474.1	3921.2	7.9540	1.8231	2.3037	749.51	0.25610	3.6687e-05	0.094644	vapor
702.67	20.000	4.4665	0.22389	3476.5	3924.3	7.9572	1.8240	2.3045	750.00	0.25510	3.6739e-05	0.094826	vapor
704.00	20.000	4.4602	0.22420	3479.0	3927.4	7.9603	1.8249	2.3053	750.49	0.25411	3.6790e-05	0.095008	vapor
705.33	20.000	4.4540	0.22452	3481.4	3930.5	7.9634	1.8258	2.3061	750.97	0.25312	3.6842e-05	0.095190	vapor
706.67	20.000	4.4478	0.22483	3483.9	3933.5	7.9666	1.8266	2.3069	751.46	0.25213	3.6894e-05	0.095372	vapor
708.00	20.000	4.4416	0.22515	3486.3	3936.6	7.9697	1.8275	2.3077	751.94	0.25115	3.6946e-05	0.095554	vapor
709.33	20.000	4.4354	0.22546	3488.8	3939.7	7.9729	1.8284	2.3085	752.43	0.25018	3.6997e-05	0.095736	vapor
710.67	20.000	4.4292	0.22577	3491.2	3942.8	7.9760	1.8293	2.3093	752.92	0.24921	3.7049e-05	0.095919	vapor
712.00	20.000	4.4231	0.22609	3493.7	3945.8	7.9791	1.8302	2.3101	753.40	0.24824	3.7101e-05	0.096101	vapor
713.33	20.000	4.4169	0.22640	3496.1	3948.9	7.9822	1.8311	2.3109	753.88	0.24728	3.7152e-05	0.096283	vapor
714.67	20.000	4.4108	0.22671	3498.6	3952.0	7.9854	1.8320	2.3117	754.37	0.24633	3.7204e-05	0.096466	vapor
716.00	20.000	4.4047	0.22703	3501.0	3955.1	7.9885	1.8328	2.3125	754.85	0.24538	3.7255e-05	0.096648	vapor
717.33	20.000	4.3987	0.22734	3503.5	3958.2	7.9916	1.8337	2.3133	755.33	0.24443	3.7307e-05	0.096831	vapor
718.67	20.000	4.3926	0.22766	3506.0	3961.3	7.9947	1.8346	2.3141	755.82	0.24349	3.7358e-05	0.097014	vapor
720.00	20.000	4.3866	0.22797	3508.4	3964.3	7.9978	1.8355	2.3149	756.30	0.24255	3.7410e-05	0.097196	vapor
721.33	20.000	4.3805	0.22828	3510.9	3967.4	8.0009	1.8364	2.3157	756.78	0.24162	3.7461e-05	0.097379	vapor
722.67	20.000	4.3745	0.22860	3513.3	3970.5	8.0040	1.8373	2.3166	757.26	0.24069	3.7513e-05	0.097562	vapor
724.00	20.000	4.3685	0.22891	3515.8	3973.6	8.0071	1.8382	2.3174	757.74	0.23977	3.7564e-05	0.097745	vapor
725.33	20.000	4.3626	0.22922	3518.3	3976.7	8.0102	1.8391	2.3182	758.22	0.23885	3.7616e-05	0.097928	vapor
726.67	20.000	4.3566	0.22954	3520.7	3979.8	8.0133	1.8400	2.3190	758.70	0.23794	3.7667e-05	0.098111	vapor
728.00	20.000	4.3507	0.22985	3523.2	3982.9	8.0164	1.8408	2.3198	759.18	0.23703	3.7719e-05	0.098294	vapor
729.33	20.000	4.3447	0.23016	3525.7	3986.0	8.0195	1.8417	2.3206	759.66	0.23613	3.7770e-05	0.098478	vapor
730.67	20.000	4.3388	0.23048	3528.1	3989.1	8.0226	1.8426	2.3214	760.14	0.23523	3.7821e-05	0.098661	vapor
732.00	20.000	4.3329	0.23079	3530.6	3992.2	8.0257	1.8435	2.3222	760.62	0.23433	3.7873e-05	0.098844	vapor
733.33	20.000	4.3271	0.23110	3533.1	3995.3	8.0288	1.8444	2.3231	761.09	0.23344	3.7924e-05	0.099028	vapor
734.67	20.000	4.3212	0.23142	3535.5	3998.4	8.0318	1.8453	2.3239	761.57	0.23256	3.7975e-05	0.099211	vapor
736.00	20.000	4.3154	0.23173	3538.0	4001.5	8.0349	1.8462	2.3247	762.05	0.23168	3.8026e-05	0.099395	vapor
737.33	20.000	4.3095	0.23204	3540.5	4004.6	8.0380	1.8471	2.3255	762.52	0.23080	3.8077e-05	0.099579	vapor
738.67	20.000	4.3037	0.23236	3543.0	4007.7	8.0410	1.8480	2.3263	763.00	0.22993	3.8129e-05	0.099762	vapor
740.00	20.000	4.2979	0.23267	3545.4	4010.8	8.0441	1.8489	2.3271	763.48	0.22906	3.8180e-05	0.099946	vapor
741.33	20.000	4.2921	0.23298	3547.9	4013.9	8.0472	1.8498	2.3280	763.95	0.22819	3.8231e-05	0.10013	vapor
742.67	20.000	4.2864	0.23330	3550.4	4017.0	8.0502	1.8507	2.3288	764.43	0.22733	3.8282e-05	0.10031	vapor
744.00	20.000	4.2806	0.23361	3552.9	4020.1	8.0533	1.8515	2.3296	764.90	0.22648	3.8333e-05	0.10050	vapor
745.33	20.000	4.2749	0.23392	3555.3	4023.2	8.0563	1.8524	2.3304	765.38	0.22562	3.8384e-05	0.10068	vapor
746.67	20.000	4.2692	0.23424	3557.8	4026.3	8.0594	1.8533	2.3312	765.85	0.22478	3.8435e-05	0.10087	vapor
748.00	20.000	4.2635	0.23455	3560.3	4029.4	8.0624	1.8542	2.3321	766.32	0.22393	3.8486e-05	0.10105	vapor
749.33	20.000	4.2578	0.23486	3562.8	4032.5	8.0655	1.8551	2.3329	766.80	0.22309	3.8537e-05	0.10123	vapor
750.67	20.000	4.2521	0.23518	3565.3	4035.6	8.0685	1.8560	2.3337	767.27	0.22226	3.8588e-05	0.10142	vapor
752.00	20.000	4.2465	0.23549	3567.8	4038.7	8.0715	1.8569	2.3345	767.74	0.22142	3.8639e-05	0.10160	vapor
753.33	20.000	4.2409	0.23580	3570.2	4041.9	8.0746	1.8578	2.3354	768.21	0.22060	3.8690e-05	0.10179	vapor
754.67	20.000	4.2352	0.23611	3572.7	4045.0	8.0776	1.8587	2.3362	768.68	0.21977	3.8741e-05	0.10197	vapor
756.00	20.000	4.2296	0.23643	3575.2	4048.1	8.0806	1.8596	2.3370	769.15	0.21895	3.8792e-05	0.10216	vapor
757.33	20.000	4.2240	0.23674	3577.7	4051.2	8.0837	1.8605	2.3378	769.63	0.21814	3.8843e-05	0.10234	vapor
758.67	20.000	4.2185	0.23705	3580.2	4054.3	8.0867	1.8614	2.3387	770.10	0.21733	3.8894e-05	0.10253	vapor
760.00	20.000	4.2129	0.23737	3582.7	4057.4	8.0897	1.8623	2.3395	770.57	0.21652	3.8945e-05	0.10271	vapor
761.33	20.000	4.2074	0.23768	3585.2	4060.6	8.0927	1.8632	2.3403	771.03	0.21571	3.8995e-05	0.10290	vapor
762.67	20.000	4.2018	0.23799	3587.7	4063.7	8.0957	1.8641	2.3412	771.50	0.21491	3.9046e-05	0.10308	vapor
764.00	20.000	4.1963	0.23830	3590.2	4066.8	8.0988	1.8650	2.3420	771.97	0.21412	3.9097e-05	0.10327	vapor
765.33	20.000	4.1908	0.23862	3592.7	4069.9	8.1018	1.8659	2.3428	772.44	0.21333	3.9148e-05	0.10345	vapor
766.67	20.000	4.1853	0.23893	3595.2	4073.0	8.1048	1.8668	2.3436	772.91	0.21254	3.9198e-05	0.10364	vapor
768.00	20.000	4.1799	0.23924	3597.7	4076.2	8.1078	1.8677	2.3445	773.38	0.21175	3.9249e-05	0.10382	vapor
769.33	20.000	4.1744	0.23956	3600.2	4079.3	8.1108	1.8686	2.3453	773.84	0.21097	3.9300e-05	0.10401	vapor
770.67	20.000	4.1690	0.23987	3602.7	4082.4	8.1138	1.8694	2.3461	774.31	0.21019	3.9350e-05	0.10419	vapor
772.00	20.000	4.1635	0.24018	3605.2	4085.6	8.1168	1.8703	2.3470	774.78	0.20942	3.9401e-05	0.10438	vapor
773.33	20.000	4.1581	0.24049	3607.7	4088.7	8.1198	1.8712	2.3478	775.24	0.20865	3.9452e-05	0.10456	vapor
774.67	20.000	4.1527	0.24081	3610.2	4091.8	8.1228	1.8721	2.3486	775.71	0.20788	3.9502e-05	0.10475	vapor
776.00	20.000	4.1473	0.24112	3612.7	4094.9	8.1257	1.8730	2.3495	776.17	0.20712	3.9553e-05	0.10493	vapor
777.33	20.000	4.1420	0.24143	3615.2	4098.1	8.1287	1.8739	2.3503	776.64	0.20636	3.9603e-05	0.10512	vapor
778.67	20.000	4.1366	0.24174	3617.7	4101.2	8.1317	1.8748	2.3511	777.10	0.20560	3.9654e-05	0.10530	vapor
780.00	20.000	4.1313	0.24206	3620.2	4104.3	8.1347	1.8757	2.3520	777.57	0.20485	3.9704e-05	0.10549	vapor
781.33	20.000	4.1259	0.24237	3622.7	4107.5	8.1377	1.8766	2.3528	778.03	0.20410	3.9755e-05	0.10568	vapor
782.67	20.000	4.1206	0.24268	3625.3	4110.6	8.1406	1.8775	2.3536	778.50	0.20336	3.9805e-05	0.10586	vapor
784.00	20.000	4.1153	0.24299	3627.8	4113.8	8.1436	1.8784	2.3545	778.96	0.20261	3.9856e-05	0.10605	vapor
785.33	20.000	4.1100	0.24331	3630.3	4116.9	8.1466	1.8793	2.3553	779.42	0.20188	3.9906e-05	0.10623	vapor
786.67	20.000	4.1048	0.24362	3632.8	4120.0	8.1495	1.8802	2.3562	779.88	0.20114	3.9956e-05	0.10642	vapor
788.00	20.000	4.0995	0.24393	3635.3	4123.2	8.1525	1.8811	2.3570	780.35	0.20041	4.0007e-05	0.10660	vapor
789.33	20.000	4.0943	0.24424	3637.8	4126.3	8.1555	1.8820	2.3578	780.81	0.19968	4.0057e-05	0.10679	vapor
790.67	20.000	4.0890	0.24456	3640.4	4129.5	8.1584	1.8829	2.3587	781.27	0.19896	4.0107e-05	0.10698	vapor
792.00	20.000	4.0838	0.24487	3642.9	4132.6	8.1614	1.8838	2.3595	781.73	0.19823	4.0158e-05	0.10716	vapor
793.33	20.000	4.0786	0.24518	3645.4	4135.8	8.1643	1.8847	2.3603	782.19	0.19752	4.0208e-05	0.10735	vapor
794.67	20.000	4.0734	0.24549	3647.9	4138.9	8.1673	1.8856	2.3612	782.65	0.19680	4.0258e-05	0.10754	vapor
796.00	20.000	4.0683	0.24581	3650.4	4142.1	8.1702	1.8865	2.3620	783.11	0.19609	4.0308e-05	0.10772	vapor
797.33	20.000	4.0631	0.24612	3653.0	4145.2	8.1732	1.8874	2.3629	783.57	0.19538	4.0358e-05	0.10791	vapor
798.67	20.000	4.0579	0.24643	3655.5	4148.4	8.1761	1.8883	2.3637	784.03	0.19468	4.0409e-05	0.10810	vapor
800.00	20.000	4.0528	0.24674	3658.0	4151.5	8.1790	1.8892	2.3645	784.49	0.19398	4.0459e-05	0.10828	vapor
