Temperature (C)	Pressure (bar)	Density (kg/m3)	Volume (m3/kg)	Internal Energy (kJ/kg)	Enthalpy (kJ/kg)	Entropy (J/g*K)	Cv (J/g*K)	Cp (J/g*K)	Sound Spd. (m/s)	Joule-Thomson (K/bar)	Viscosity (Pa*s)	Therm. Cond. (W/m*K)	Phase
0.010000	800.00	1037.0	0.00096434	0.076402	77.224	-0.0047492	3.9289	3.9470	1539.1	-0.023311	0.0016641	0.60312	liquid
1.3433	800.00	1036.7	0.00096456	5.3245	82.490	0.014482	3.9310	3.9519	1545.2	-0.023206	0.0015980	0.60486	liquid
2.6766	800.00	1036.5	0.00096480	10.578	87.762	0.033643	3.9327	3.9565	1551.1	-0.023106	0.0015360	0.60668	liquid
4.0100	800.00	1036.2	0.00096505	15.836	93.040	0.052733	3.9340	3.9609	1556.9	-0.023010	0.0014779	0.60858	liquid
5.3433	800.00	1035.9	0.00096532	21.099	98.324	0.071751	3.9349	3.9649	1562.5	-0.022917	0.0014231	0.61055	liquid
6.6766	800.00	1035.6	0.00096560	26.365	103.61	0.090698	3.9356	3.9688	1568.0	-0.022827	0.0013716	0.61258	liquid
8.0099	800.00	1035.3	0.00096589	31.636	108.91	0.10957	3.9359	3.9724	1573.4	-0.022740	0.0013230	0.61465	liquid
9.3432	800.00	1035.0	0.00096619	36.911	114.21	0.12837	3.9359	3.9759	1578.6	-0.022656	0.0012772	0.61677	liquid
10.677	800.00	1034.7	0.00096650	42.189	119.51	0.14710	3.9356	3.9792	1583.7	-0.022574	0.0012338	0.61893	liquid
12.010	800.00	1034.3	0.00096683	47.471	124.82	0.16576	3.9351	3.9823	1588.6	-0.022494	0.0011928	0.62112	liquid
13.343	800.00	1033.9	0.00096717	52.755	130.13	0.18434	3.9343	3.9853	1593.4	-0.022417	0.0011540	0.62333	liquid
14.676	800.00	1033.6	0.00096752	58.043	135.44	0.20285	3.9334	3.9881	1598.1	-0.022341	0.0011171	0.62557	liquid
16.010	800.00	1033.2	0.00096788	63.333	140.76	0.22129	3.9322	3.9908	1602.6	-0.022267	0.0010821	0.62781	liquid
17.343	800.00	1032.8	0.00096825	68.626	146.09	0.23966	3.9308	3.9934	1607.0	-0.022195	0.0010489	0.63007	liquid
18.676	800.00	1032.4	0.00096863	73.922	151.41	0.25795	3.9293	3.9959	1611.3	-0.022125	0.0010173	0.63233	liquid
20.010	800.00	1032.0	0.00096902	79.220	156.74	0.27617	3.9275	3.9983	1615.5	-0.022055	0.00098719	0.63459	liquid
21.343	800.00	1031.5	0.00096942	84.521	162.07	0.29432	3.9256	4.0006	1619.5	-0.021987	0.00095852	0.63685	liquid
22.676	800.00	1031.1	0.00096983	89.823	167.41	0.31240	3.9235	4.0028	1623.4	-0.021921	0.00093117	0.63911	liquid
24.010	800.00	1030.7	0.00097025	95.128	172.75	0.33040	3.9213	4.0049	1627.2	-0.021855	0.00090507	0.64135	liquid
25.343	800.00	1030.2	0.00097069	100.43	178.09	0.34834	3.9189	4.0069	1630.9	-0.021791	0.00088014	0.64358	liquid
26.676	800.00	1029.7	0.00097113	105.74	183.43	0.36620	3.9164	4.0089	1634.4	-0.021727	0.00085630	0.64580	liquid
28.010	800.00	1029.3	0.00097158	111.05	188.78	0.38399	3.9137	4.0108	1637.8	-0.021664	0.00083350	0.64800	liquid
29.343	800.00	1028.8	0.00097204	116.37	194.13	0.40171	3.9110	4.0126	1641.2	-0.021603	0.00081167	0.65017	liquid
30.676	800.00	1028.3	0.00097250	121.68	199.48	0.41936	3.9080	4.0144	1644.4	-0.021542	0.00079075	0.65233	liquid
32.010	800.00	1027.8	0.00097298	127.00	204.83	0.43695	3.9050	4.0161	1647.5	-0.021482	0.00077071	0.65446	liquid
33.343	800.00	1027.3	0.00097347	132.31	210.19	0.45446	3.9018	4.0177	1650.5	-0.021422	0.00075147	0.65657	liquid
34.676	800.00	1026.7	0.00097396	137.63	215.55	0.47190	3.8986	4.0193	1653.3	-0.021364	0.00073301	0.65864	liquid
36.010	800.00	1026.2	0.00097447	142.95	220.91	0.48928	3.8952	4.0208	1656.1	-0.021305	0.00071528	0.66069	liquid
37.343	800.00	1025.7	0.00097498	148.27	226.27	0.50658	3.8917	4.0223	1658.8	-0.021248	0.00069824	0.66271	liquid
38.676	800.00	1025.1	0.00097550	153.59	231.63	0.52382	3.8881	4.0237	1661.4	-0.021191	0.00068186	0.66470	liquid
40.010	800.00	1024.6	0.00097603	158.92	237.00	0.54099	3.8844	4.0251	1663.9	-0.021134	0.00066610	0.66666	liquid
41.343	800.00	1024.0	0.00097657	164.24	242.37	0.55810	3.8806	4.0265	1666.3	-0.021079	0.00065092	0.66859	liquid
42.676	800.00	1023.4	0.00097711	169.57	247.74	0.57513	3.8768	4.0278	1668.6	-0.021023	0.00063631	0.67048	liquid
44.009	800.00	1022.8	0.00097767	174.89	253.11	0.59210	3.8728	4.0290	1670.8	-0.020968	0.00062223	0.67234	liquid
45.343	800.00	1022.3	0.00097823	180.22	258.48	0.60901	3.8688	4.0303	1672.9	-0.020913	0.00060865	0.67416	liquid
46.676	800.00	1021.7	0.00097880	185.55	263.85	0.62585	3.8646	4.0315	1674.9	-0.020859	0.00059556	0.67595	liquid
48.009	800.00	1021.1	0.00097938	190.88	269.23	0.64262	3.8604	4.0326	1676.8	-0.020805	0.00058293	0.67770	liquid
49.343	800.00	1020.4	0.00097997	196.21	274.61	0.65933	3.8561	4.0338	1678.7	-0.020751	0.00057073	0.67942	liquid
50.676	800.00	1019.8	0.00098056	201.54	279.99	0.67598	3.8518	4.0349	1680.5	-0.020698	0.00055896	0.68111	liquid
52.009	800.00	1019.2	0.00098116	206.87	285.37	0.69256	3.8473	4.0359	1682.1	-0.020645	0.00054758	0.68276	liquid
53.343	800.00	1018.6	0.00098177	212.21	290.75	0.70908	3.8428	4.0370	1683.8	-0.020592	0.00053658	0.68437	liquid
54.676	800.00	1017.9	0.00098239	217.54	296.13	0.72553	3.8383	4.0380	1685.3	-0.020540	0.00052595	0.68595	liquid
56.009	800.00	1017.3	0.00098302	222.88	301.52	0.74192	3.8336	4.0390	1686.7	-0.020487	0.00051566	0.68750	liquid
57.343	800.00	1016.6	0.00098365	228.21	306.90	0.75825	3.8289	4.0400	1688.1	-0.020435	0.00050570	0.68901	liquid
58.676	800.00	1016.0	0.00098429	233.55	312.29	0.77452	3.8242	4.0409	1689.4	-0.020383	0.00049607	0.69048	liquid
60.009	800.00	1015.3	0.00098494	238.88	317.68	0.79073	3.8194	4.0419	1690.6	-0.020331	0.00048674	0.69192	liquid
61.343	800.00	1014.6	0.00098560	244.22	323.07	0.80687	3.8145	4.0428	1691.8	-0.020280	0.00047770	0.69333	liquid
62.676	800.00	1013.9	0.00098626	249.56	328.46	0.82296	3.8096	4.0437	1692.8	-0.020228	0.00046894	0.69471	liquid
64.009	800.00	1013.2	0.00098694	254.90	333.85	0.83898	3.8046	4.0446	1693.9	-0.020177	0.00046045	0.69605	liquid
65.343	800.00	1012.5	0.00098762	260.24	339.24	0.85495	3.7996	4.0455	1694.8	-0.020125	0.00045222	0.69736	liquid
66.676	800.00	1011.8	0.00098830	265.58	344.64	0.87085	3.7946	4.0463	1695.7	-0.020074	0.00044423	0.69864	liquid
68.009	800.00	1011.1	0.00098900	270.92	350.04	0.88670	3.7895	4.0472	1696.5	-0.020023	0.00043649	0.69988	liquid
69.342	800.00	1010.4	0.00098970	276.26	355.43	0.90249	3.7844	4.0480	1697.2	-0.019972	0.00042897	0.70110	liquid
70.676	800.00	1009.7	0.00099041	281.60	360.83	0.91822	3.7792	4.0489	1697.9	-0.019921	0.00042167	0.70228	liquid
72.009	800.00	1009.0	0.00099112	286.94	366.23	0.93389	3.7740	4.0497	1698.5	-0.019870	0.00041458	0.70344	liquid
73.342	800.00	1008.2	0.00099185	292.28	371.63	0.94950	3.7687	4.0505	1699.1	-0.019818	0.00040769	0.70456	liquid
74.676	800.00	1007.5	0.00099258	297.62	377.03	0.96506	3.7635	4.0513	1699.6	-0.019767	0.00040100	0.70566	liquid
76.009	800.00	1006.7	0.00099332	302.97	382.43	0.98056	3.7582	4.0521	1700.0	-0.019716	0.00039450	0.70672	liquid
77.342	800.00	1006.0	0.00099406	308.31	387.84	0.99601	3.7528	4.0529	1700.4	-0.019665	0.00038818	0.70776	liquid
78.676	800.00	1005.2	0.00099482	313.65	393.24	1.0114	3.7475	4.0538	1700.7	-0.019614	0.00038203	0.70877	liquid
80.009	800.00	1004.4	0.00099558	319.00	398.65	1.0267	3.7421	4.0546	1701.0	-0.019563	0.00037605	0.70975	liquid
81.342	800.00	1003.7	0.00099635	324.34	404.05	1.0420	3.7367	4.0554	1701.2	-0.019512	0.00037024	0.71071	liquid
82.676	800.00	1002.9	0.00099712	329.69	409.46	1.0572	3.7312	4.0562	1701.3	-0.019460	0.00036458	0.71164	liquid
84.009	800.00	1002.1	0.00099790	335.04	414.87	1.0724	3.7258	4.0570	1701.4	-0.019409	0.00035907	0.71255	liquid
85.342	800.00	1001.3	0.00099869	340.38	420.28	1.0875	3.7203	4.0578	1701.5	-0.019357	0.00035371	0.71343	liquid
86.676	800.00	1000.5	0.00099949	345.73	425.69	1.1026	3.7148	4.0586	1701.4	-0.019306	0.00034849	0.71428	liquid
88.009	800.00	999.71	0.0010003	351.08	431.10	1.1176	3.7093	4.0594	1701.4	-0.019254	0.00034340	0.71512	liquid
89.342	800.00	998.90	0.0010011	356.43	436.51	1.1326	3.7038	4.0603	1701.3	-0.019202	0.00033844	0.71592	liquid
90.676	800.00	998.08	0.0010019	361.77	441.93	1.1475	3.6983	4.0611	1701.1	-0.019150	0.00033362	0.71671	liquid
92.009	800.00	997.26	0.0010027	367.12	447.34	1.1623	3.6928	4.0619	1700.9	-0.019098	0.00032891	0.71747	liquid
93.342	800.00	996.43	0.0010036	372.47	452.76	1.1771	3.6872	4.0628	1700.6	-0.019045	0.00032432	0.71821	liquid
94.675	800.00	995.60	0.0010044	377.82	458.18	1.1919	3.6817	4.0636	1700.3	-0.018993	0.00031985	0.71893	liquid
96.009	800.00	994.76	0.0010053	383.17	463.60	1.2066	3.6761	4.0645	1700.0	-0.018940	0.00031549	0.71963	liquid
97.342	800.00	993.92	0.0010061	388.53	469.02	1.2213	3.6705	4.0654	1699.6	-0.018887	0.00031123	0.72030	liquid
98.675	800.00	993.07	0.0010070	393.88	474.44	1.2359	3.6649	4.0662	1699.1	-0.018834	0.00030708	0.72096	liquid
100.01	800.00	992.21	0.0010078	399.23	479.86	1.2504	3.6594	4.0671	1698.6	-0.018781	0.00030303	0.72159	liquid
101.34	800.00	991.35	0.0010087	404.58	485.28	1.2649	3.6538	4.0680	1698.1	-0.018728	0.00029908	0.72221	liquid
102.68	800.00	990.48	0.0010096	409.94	490.71	1.2794	3.6482	4.0690	1697.5	-0.018674	0.00029522	0.72281	liquid
104.01	800.00	989.61	0.0010105	415.29	496.13	1.2938	3.6426	4.0699	1696.9	-0.018620	0.00029145	0.72338	liquid
105.34	800.00	988.73	0.0010114	420.65	501.56	1.3082	3.6370	4.0708	1696.2	-0.018566	0.00028777	0.72394	liquid
106.68	800.00	987.85	0.0010123	426.00	506.99	1.3225	3.6315	4.0718	1695.5	-0.018512	0.00028418	0.72448	liquid
108.01	800.00	986.96	0.0010132	431.36	512.42	1.3367	3.6259	4.0728	1694.8	-0.018457	0.00028067	0.72501	liquid
109.34	800.00	986.07	0.0010141	436.72	517.85	1.3510	3.6203	4.0737	1694.0	-0.018402	0.00027724	0.72551	liquid
110.68	800.00	985.17	0.0010151	442.08	523.28	1.3651	3.6147	4.0747	1693.1	-0.018347	0.00027389	0.72600	liquid
112.01	800.00	984.27	0.0010160	447.44	528.71	1.3793	3.6092	4.0758	1692.3	-0.018291	0.00027061	0.72647	liquid
113.34	800.00	983.36	0.0010169	452.80	534.15	1.3934	3.6036	4.0768	1691.4	-0.018236	0.00026741	0.72692	liquid
114.68	800.00	982.44	0.0010179	458.16	539.59	1.4074	3.5980	4.0779	1690.4	-0.018180	0.00026428	0.72736	liquid
116.01	800.00	981.52	0.0010188	463.52	545.02	1.4214	3.5925	4.0789	1689.4	-0.018123	0.00026122	0.72778	liquid
117.34	800.00	980.60	0.0010198	468.88	550.46	1.4354	3.5869	4.0800	1688.4	-0.018067	0.00025823	0.72818	liquid
118.68	800.00	979.66	0.0010208	474.24	555.90	1.4493	3.5814	4.0811	1687.3	-0.018010	0.00025530	0.72857	liquid
120.01	800.00	978.73	0.0010217	479.61	561.35	1.4631	3.5759	4.0822	1686.2	-0.017953	0.00025243	0.72894	liquid
121.34	800.00	977.79	0.0010227	484.97	566.79	1.4770	3.5704	4.0834	1685.1	-0.017895	0.00024963	0.72930	liquid
122.68	800.00	976.84	0.0010237	490.34	572.23	1.4907	3.5649	4.0846	1683.9	-0.017837	0.00024689	0.72964	liquid
124.01	800.00	975.89	0.0010247	495.70	577.68	1.5045	3.5594	4.0857	1682.7	-0.017779	0.00024420	0.72997	liquid
125.34	800.00	974.93	0.0010257	501.07	583.13	1.5182	3.5539	4.0869	1681.4	-0.017720	0.00024157	0.73028	liquid
126.68	800.00	973.97	0.0010267	506.44	588.58	1.5318	3.5484	4.0882	1680.1	-0.017661	0.00023900	0.73057	liquid
128.01	800.00	973.01	0.0010277	511.81	594.03	1.5454	3.5430	4.0894	1678.8	-0.017602	0.00023648	0.73085	liquid
129.34	800.00	972.03	0.0010288	517.18	599.48	1.5590	3.5375	4.0907	1677.5	-0.017542	0.00023401	0.73112	liquid
130.68	800.00	971.06	0.0010298	522.56	604.94	1.5725	3.5321	4.0920	1676.1	-0.017482	0.00023160	0.73137	liquid
132.01	800.00	970.08	0.0010308	527.93	610.40	1.5860	3.5267	4.0933	1674.7	-0.017422	0.00022923	0.73161	liquid
133.34	800.00	969.09	0.0010319	533.30	615.85	1.5995	3.5213	4.0946	1673.2	-0.017361	0.00022691	0.73184	liquid
134.67	800.00	968.10	0.0010330	538.68	621.32	1.6129	3.5159	4.0960	1671.7	-0.017299	0.00022464	0.73205	liquid
136.01	800.00	967.10	0.0010340	544.06	626.78	1.6263	3.5105	4.0973	1670.2	-0.017238	0.00022241	0.73224	liquid
137.34	800.00	966.10	0.0010351	549.43	632.24	1.6396	3.5052	4.0987	1668.6	-0.017176	0.00022023	0.73243	liquid
138.67	800.00	965.10	0.0010362	554.81	637.71	1.6529	3.4998	4.1001	1667.0	-0.017113	0.00021809	0.73259	liquid
140.01	800.00	964.08	0.0010373	560.19	643.17	1.6661	3.4945	4.1016	1665.4	-0.017050	0.00021599	0.73275	liquid
141.34	800.00	963.07	0.0010383	565.58	648.64	1.6794	3.4892	4.1031	1663.8	-0.016987	0.00021393	0.73289	liquid
142.67	800.00	962.05	0.0010395	570.96	654.12	1.6925	3.4839	4.1046	1662.1	-0.016923	0.00021191	0.73302	liquid
144.01	800.00	961.02	0.0010406	576.35	659.59	1.7057	3.4787	4.1061	1660.4	-0.016859	0.00020994	0.73313	liquid
145.34	800.00	959.99	0.0010417	581.73	665.07	1.7188	3.4734	4.1076	1658.6	-0.016794	0.00020799	0.73323	liquid
146.67	800.00	958.95	0.0010428	587.12	670.54	1.7319	3.4682	4.1092	1656.9	-0.016729	0.00020609	0.73332	liquid
148.01	800.00	957.91	0.0010439	592.51	676.02	1.7449	3.4629	4.1108	1655.0	-0.016663	0.00020422	0.73339	liquid
149.34	800.00	956.87	0.0010451	597.90	681.51	1.7579	3.4577	4.1124	1653.2	-0.016597	0.00020239	0.73345	liquid
150.67	800.00	955.82	0.0010462	603.29	686.99	1.7708	3.4526	4.1140	1651.4	-0.016530	0.00020059	0.73350	liquid
152.01	800.00	954.76	0.0010474	608.69	692.48	1.7838	3.4474	4.1157	1649.5	-0.016463	0.00019882	0.73354	liquid
153.34	800.00	953.70	0.0010485	614.08	697.96	1.7967	3.4422	4.1174	1647.5	-0.016395	0.00019709	0.73356	liquid
154.67	800.00	952.64	0.0010497	619.48	703.46	1.8095	3.4371	4.1191	1645.6	-0.016327	0.00019539	0.73356	liquid
156.01	800.00	951.57	0.0010509	624.88	708.95	1.8223	3.4320	4.1208	1643.6	-0.016258	0.00019372	0.73356	liquid
157.34	800.00	950.50	0.0010521	630.28	714.44	1.8351	3.4269	4.1226	1641.6	-0.016189	0.00019208	0.73354	liquid
158.67	800.00	949.42	0.0010533	635.68	719.94	1.8479	3.4219	4.1244	1639.6	-0.016119	0.00019047	0.73351	liquid
160.01	800.00	948.33	0.0010545	641.08	725.44	1.8606	3.4168	4.1262	1637.5	-0.016048	0.00018888	0.73346	liquid
161.34	800.00	947.25	0.0010557	646.49	730.95	1.8733	3.4118	4.1281	1635.4	-0.015978	0.00018733	0.73341	liquid
162.67	800.00	946.15	0.0010569	651.90	736.45	1.8859	3.4068	4.1300	1633.3	-0.015906	0.00018580	0.73333	liquid
164.01	800.00	945.06	0.0010581	657.31	741.96	1.8985	3.4018	4.1319	1631.2	-0.015834	0.00018430	0.73325	liquid
165.34	800.00	943.95	0.0010594	662.72	747.47	1.9111	3.3968	4.1338	1629.0	-0.015761	0.00018283	0.73315	liquid
166.67	800.00	942.85	0.0010606	668.13	752.98	1.9237	3.3918	4.1357	1626.8	-0.015688	0.00018138	0.73304	liquid
168.01	800.00	941.73	0.0010619	673.55	758.50	1.9362	3.3869	4.1377	1624.6	-0.015614	0.00017995	0.73292	liquid
169.34	800.00	940.62	0.0010631	678.96	764.02	1.9487	3.3820	4.1398	1622.3	-0.015540	0.00017855	0.73278	liquid
170.67	800.00	939.49	0.0010644	684.38	769.54	1.9612	3.3771	4.1418	1620.0	-0.015465	0.00017718	0.73263	liquid
172.01	800.00	938.37	0.0010657	689.81	775.06	1.9736	3.3722	4.1439	1617.7	-0.015389	0.00017583	0.73247	liquid
173.34	800.00	937.24	0.0010670	695.23	780.59	1.9860	3.3674	4.1460	1615.4	-0.015313	0.00017449	0.73229	liquid
174.67	800.00	936.10	0.0010683	700.66	786.12	1.9983	3.3626	4.1481	1613.1	-0.015236	0.00017319	0.73210	liquid
176.01	800.00	934.96	0.0010696	706.08	791.65	2.0107	3.3577	4.1503	1610.7	-0.015158	0.00017190	0.73190	liquid
177.34	800.00	933.82	0.0010709	711.51	797.18	2.0230	3.3530	4.1524	1608.3	-0.015080	0.00017063	0.73168	liquid
178.67	800.00	932.67	0.0010722	716.95	802.72	2.0353	3.3482	4.1547	1605.9	-0.015001	0.00016939	0.73145	liquid
180.01	800.00	931.51	0.0010735	722.38	808.26	2.0475	3.3434	4.1569	1603.4	-0.014921	0.00016816	0.73121	liquid
181.34	800.00	930.35	0.0010749	727.82	813.81	2.0597	3.3387	4.1592	1600.9	-0.014841	0.00016696	0.73096	liquid
182.67	800.00	929.19	0.0010762	733.26	819.35	2.0719	3.3340	4.1615	1598.4	-0.014760	0.00016577	0.73069	liquid
184.01	800.00	928.02	0.0010776	738.70	824.90	2.0841	3.3293	4.1638	1595.9	-0.014678	0.00016461	0.73041	liquid
185.34	800.00	926.84	0.0010789	744.14	830.46	2.0962	3.3246	4.1662	1593.4	-0.014596	0.00016346	0.73011	liquid
186.67	800.00	925.67	0.0010803	749.59	836.01	2.1083	3.3200	4.1686	1590.8	-0.014512	0.00016233	0.72980	liquid
188.01	800.00	924.48	0.0010817	755.04	841.57	2.1204	3.3154	4.1710	1588.2	-0.014428	0.00016121	0.72948	liquid
189.34	800.00	923.29	0.0010831	760.49	847.14	2.1324	3.3108	4.1735	1585.6	-0.014344	0.00016012	0.72915	liquid
190.67	800.00	922.10	0.0010845	765.94	852.70	2.1444	3.3062	4.1760	1583.0	-0.014258	0.00015904	0.72880	liquid
192.01	800.00	920.90	0.0010859	771.40	858.27	2.1564	3.3016	4.1785	1580.3	-0.014172	0.00015798	0.72844	liquid
193.34	800.00	919.70	0.0010873	776.86	863.84	2.1684	3.2970	4.1811	1577.6	-0.014085	0.00015693	0.72806	liquid
194.67	800.00	918.49	0.0010887	782.32	869.42	2.1803	3.2925	4.1836	1574.9	-0.013997	0.00015590	0.72768	liquid
196.01	800.00	917.28	0.0010902	787.79	875.00	2.1922	3.2880	4.1863	1572.2	-0.013909	0.00015488	0.72727	liquid
197.34	800.00	916.06	0.0010916	793.25	880.58	2.2041	3.2835	4.1889	1569.4	-0.013819	0.00015388	0.72686	liquid
198.67	800.00	914.84	0.0010931	798.72	886.17	2.2160	3.2791	4.1916	1566.7	-0.013729	0.00015290	0.72643	liquid
200.01	800.00	913.62	0.0010946	804.20	891.76	2.2278	3.2746	4.1943	1563.9	-0.013638	0.00015193	0.72599	liquid
201.34	800.00	912.38	0.0010960	809.67	897.36	2.2396	3.2702	4.1971	1561.1	-0.013546	0.00015097	0.72554	liquid
202.67	800.00	911.15	0.0010975	815.15	902.95	2.2514	3.2658	4.1998	1558.2	-0.013453	0.00015003	0.72507	liquid
204.01	800.00	909.91	0.0010990	820.63	908.56	2.2631	3.2614	4.2027	1555.4	-0.013360	0.00014910	0.72459	liquid
205.34	800.00	908.66	0.0011005	826.12	914.16	2.2749	3.2570	4.2055	1552.5	-0.013265	0.00014819	0.72409	liquid
206.67	800.00	907.41	0.0011020	831.61	919.77	2.2866	3.2527	4.2084	1549.6	-0.013170	0.00014728	0.72358	liquid
208.01	800.00	906.15	0.0011036	837.10	925.38	2.2983	3.2483	4.2113	1546.7	-0.013073	0.00014639	0.72306	liquid
209.34	800.00	904.89	0.0011051	842.59	931.00	2.3099	3.2440	4.2143	1543.7	-0.012976	0.00014552	0.72253	liquid
210.67	800.00	903.63	0.0011067	848.09	936.62	2.3216	3.2398	4.2173	1540.8	-0.012878	0.00014465	0.72198	liquid
212.01	800.00	902.36	0.0011082	853.59	942.25	2.3332	3.2355	4.2203	1537.8	-0.012779	0.00014380	0.72142	liquid
213.34	800.00	901.08	0.0011098	859.09	947.87	2.3448	3.2312	4.2233	1534.8	-0.012679	0.00014296	0.72084	liquid
214.67	800.00	899.80	0.0011114	864.60	953.51	2.3563	3.2270	4.2264	1531.8	-0.012578	0.00014213	0.72025	liquid
216.01	800.00	898.52	0.0011129	870.11	959.15	2.3679	3.2228	4.2296	1528.7	-0.012476	0.00014131	0.71965	liquid
217.34	800.00	897.22	0.0011145	875.62	964.79	2.3794	3.2186	4.2327	1525.7	-0.012373	0.00014050	0.71903	liquid
218.67	800.00	895.93	0.0011162	881.14	970.43	2.3909	3.2144	4.2359	1522.6	-0.012269	0.00013971	0.71840	liquid
220.01	800.00	894.63	0.0011178	886.66	976.08	2.4023	3.2103	4.2392	1519.5	-0.012164	0.00013892	0.71776	liquid
221.34	800.00	893.32	0.0011194	892.18	981.74	2.4138	3.2061	4.2425	1516.4	-0.012057	0.00013815	0.71710	liquid
222.67	800.00	892.01	0.0011211	897.71	987.40	2.4252	3.2020	4.2458	1513.3	-0.011950	0.00013738	0.71644	liquid
224.01	800.00	890.70	0.0011227	903.24	993.06	2.4366	3.1979	4.2491	1510.1	-0.011842	0.00013663	0.71575	liquid
225.34	800.00	889.38	0.0011244	908.78	998.73	2.4480	3.1938	4.2525	1506.9	-0.011733	0.00013588	0.71506	liquid
226.67	800.00	888.05	0.0011261	914.31	1004.4	2.4594	3.1898	4.2560	1503.8	-0.011622	0.00013514	0.71435	liquid
228.01	800.00	886.72	0.0011278	919.86	1010.1	2.4707	3.1858	4.2594	1500.5	-0.011511	0.00013442	0.71362	liquid
229.34	800.00	885.38	0.0011295	925.40	1015.8	2.4820	3.1817	4.2629	1497.3	-0.011398	0.00013370	0.71288	liquid
230.67	800.00	884.04	0.0011312	930.95	1021.4	2.4933	3.1777	4.2665	1494.1	-0.011284	0.00013299	0.71213	liquid
232.01	800.00	882.70	0.0011329	936.50	1027.1	2.5046	3.1737	4.2701	1490.8	-0.011169	0.00013229	0.71137	liquid
233.34	800.00	881.34	0.0011346	942.06	1032.8	2.5159	3.1698	4.2737	1487.5	-0.011053	0.00013160	0.71059	liquid
234.67	800.00	879.99	0.0011364	947.62	1038.5	2.5271	3.1658	4.2774	1484.2	-0.010936	0.00013092	0.70980	liquid
236.01	800.00	878.63	0.0011381	953.18	1044.2	2.5383	3.1619	4.2811	1480.9	-0.010817	0.00013025	0.70900	liquid
237.34	800.00	877.26	0.0011399	958.75	1049.9	2.5495	3.1580	4.2848	1477.6	-0.010697	0.00012958	0.70818	liquid
238.67	800.00	875.89	0.0011417	964.33	1055.7	2.5607	3.1541	4.2886	1474.2	-0.010576	0.00012893	0.70735	liquid
240.01	800.00	874.51	0.0011435	969.90	1061.4	2.5719	3.1502	4.2925	1470.9	-0.010454	0.00012828	0.70650	liquid
241.34	800.00	873.12	0.0011453	975.48	1067.1	2.5830	3.1464	4.2963	1467.5	-0.010330	0.00012763	0.70564	liquid
242.67	800.00	871.74	0.0011471	981.07	1072.8	2.5942	3.1425	4.3002	1464.1	-0.010205	0.00012700	0.70477	liquid
244.01	800.00	870.34	0.0011490	986.66	1078.6	2.6053	3.1387	4.3042	1460.7	-0.010079	0.00012637	0.70389	liquid
245.34	800.00	868.94	0.0011508	992.25	1084.3	2.6164	3.1349	4.3082	1457.3	-0.0099517	0.00012575	0.70299	liquid
246.67	800.00	867.54	0.0011527	997.85	1090.1	2.6274	3.1311	4.3123	1453.8	-0.0098228	0.00012514	0.70208	liquid
248.01	800.00	866.13	0.0011546	1003.5	1095.8	2.6385	3.1274	4.3164	1450.3	-0.0096925	0.00012454	0.70115	liquid
249.34	800.00	864.71	0.0011565	1009.1	1101.6	2.6495	3.1236	4.3205	1446.9	-0.0095609	0.00012394	0.70021	liquid
250.67	800.00	863.29	0.0011584	1014.7	1107.3	2.6605	3.1199	4.3247	1443.4	-0.0094278	0.00012335	0.69926	liquid
252.01	800.00	861.86	0.0011603	1020.3	1113.1	2.6715	3.1162	4.3289	1439.9	-0.0092933	0.00012276	0.69829	liquid
253.34	800.00	860.43	0.0011622	1025.9	1118.9	2.6825	3.1125	4.3332	1436.3	-0.0091573	0.00012218	0.69731	liquid
254.67	800.00	858.99	0.0011642	1031.5	1124.7	2.6935	3.1088	4.3375	1432.8	-0.0090199	0.00012161	0.69632	liquid
256.01	800.00	857.55	0.0011661	1037.2	1130.4	2.7044	3.1051	4.3419	1429.2	-0.0088810	0.00012104	0.69531	liquid
257.34	800.00	856.10	0.0011681	1042.8	1136.2	2.7154	3.1015	4.3463	1425.7	-0.0087406	0.00012048	0.69429	liquid
258.67	800.00	854.65	0.0011701	1048.4	1142.0	2.7263	3.0978	4.3508	1422.1	-0.0085986	0.00011993	0.69325	liquid
260.01	800.00	853.19	0.0011721	1054.1	1147.8	2.7372	3.0942	4.3553	1418.5	-0.0084551	0.00011938	0.69220	liquid
261.34	800.00	851.72	0.0011741	1059.7	1153.7	2.7481	3.0906	4.3599	1414.8	-0.0083100	0.00011884	0.69114	liquid
262.67	800.00	850.25	0.0011761	1065.4	1159.5	2.7589	3.0871	4.3645	1411.2	-0.0081633	0.00011830	0.69007	liquid
264.01	800.00	848.77	0.0011782	1071.0	1165.3	2.7698	3.0835	4.3691	1407.6	-0.0080149	0.00011777	0.68898	liquid
265.34	800.00	847.29	0.0011802	1076.7	1171.1	2.7806	3.0800	4.3739	1403.9	-0.0078649	0.00011725	0.68788	liquid
266.67	800.00	845.80	0.0011823	1082.4	1177.0	2.7914	3.0764	4.3786	1400.2	-0.0077133	0.00011673	0.68676	liquid
268.01	800.00	844.30	0.0011844	1088.0	1182.8	2.8022	3.0729	4.3834	1396.5	-0.0075599	0.00011621	0.68563	liquid
269.34	800.00	842.80	0.0011865	1093.7	1188.6	2.8130	3.0694	4.3883	1392.8	-0.0074048	0.00011570	0.68449	liquid
270.67	800.00	841.29	0.0011886	1099.4	1194.5	2.8238	3.0660	4.3932	1389.1	-0.0072480	0.00011520	0.68333	liquid
272.01	800.00	839.78	0.0011908	1105.1	1200.4	2.8346	3.0625	4.3982	1385.4	-0.0070894	0.00011470	0.68216	liquid
273.34	800.00	838.26	0.0011929	1110.8	1206.2	2.8453	3.0591	4.4033	1381.6	-0.0069290	0.00011420	0.68097	liquid
274.67	800.00	836.74	0.0011951	1116.5	1212.1	2.8561	3.0556	4.4083	1377.9	-0.0067668	0.00011371	0.67978	liquid
276.01	800.00	835.21	0.0011973	1122.2	1218.0	2.8668	3.0522	4.4135	1374.1	-0.0066027	0.00011323	0.67856	liquid
277.34	800.00	833.67	0.0011995	1127.9	1223.9	2.8775	3.0489	4.4187	1370.3	-0.0064367	0.00011274	0.67734	liquid
278.67	800.00	832.13	0.0012017	1133.6	1229.8	2.8882	3.0455	4.4239	1366.5	-0.0062689	0.00011227	0.67610	liquid
280.01	800.00	830.58	0.0012040	1139.3	1235.7	2.8989	3.0421	4.4293	1362.7	-0.0060991	0.00011180	0.67485	liquid
281.34	800.00	829.02	0.0012062	1145.1	1241.6	2.9095	3.0388	4.4346	1358.9	-0.0059273	0.00011133	0.67358	liquid
282.67	800.00	827.46	0.0012085	1150.8	1247.5	2.9202	3.0355	4.4401	1355.1	-0.0057536	0.00011086	0.67230	liquid
284.01	800.00	825.89	0.0012108	1156.6	1253.4	2.9308	3.0321	4.4456	1351.2	-0.0055778	0.00011040	0.67100	liquid
285.34	800.00	824.31	0.0012131	1162.3	1259.3	2.9415	3.0289	4.4511	1347.4	-0.0054000	0.00010995	0.66970	liquid
286.67	800.00	822.73	0.0012155	1168.0	1265.3	2.9521	3.0256	4.4567	1343.5	-0.0052201	0.00010950	0.66837	liquid
288.01	800.00	821.15	0.0012178	1173.8	1271.2	2.9627	3.0223	4.4624	1339.6	-0.0050380	0.00010905	0.66704	liquid
289.34	800.00	819.55	0.0012202	1179.6	1277.2	2.9733	3.0191	4.4681	1335.7	-0.0048539	0.00010861	0.66569	liquid
290.67	800.00	817.95	0.0012226	1185.3	1283.1	2.9839	3.0159	4.4739	1331.8	-0.0046675	0.00010817	0.66433	liquid
292.01	800.00	816.34	0.0012250	1191.1	1289.1	2.9945	3.0126	4.4798	1327.9	-0.0044790	0.00010773	0.66295	liquid
293.34	800.00	814.73	0.0012274	1196.9	1295.1	3.0050	3.0095	4.4857	1324.0	-0.0042882	0.00010730	0.66156	liquid
294.67	800.00	813.11	0.0012298	1202.7	1301.1	3.0156	3.0063	4.4917	1320.0	-0.0040951	0.00010687	0.66016	liquid
296.01	800.00	811.48	0.0012323	1208.5	1307.1	3.0261	3.0031	4.4978	1316.1	-0.0038997	0.00010644	0.65874	liquid
297.34	800.00	809.85	0.0012348	1214.3	1313.1	3.0366	3.0000	4.5039	1312.1	-0.0037020	0.00010602	0.65731	liquid
298.67	800.00	808.21	0.0012373	1220.1	1319.1	3.0472	2.9968	4.5101	1308.1	-0.0035019	0.00010560	0.65586	liquid
300.01	800.00	806.56	0.0012398	1225.9	1325.1	3.0577	2.9937	4.5163	1304.1	-0.0032993	0.00010518	0.65440	liquid
301.34	800.00	804.91	0.0012424	1231.7	1331.1	3.0682	2.9906	4.5227	1300.2	-0.0030944	0.00010477	0.65293	liquid
302.67	800.00	803.24	0.0012450	1237.6	1337.2	3.0787	2.9876	4.5291	1296.1	-0.0028869	0.00010436	0.65145	liquid
304.01	800.00	801.58	0.0012475	1243.4	1343.2	3.0892	2.9845	4.5356	1292.1	-0.0026769	0.00010395	0.64995	liquid
305.34	800.00	799.90	0.0012502	1249.2	1349.3	3.0996	2.9815	4.5421	1288.1	-0.0024643	0.00010355	0.64843	liquid
306.67	800.00	798.22	0.0012528	1255.1	1355.3	3.1101	2.9784	4.5487	1284.1	-0.0022491	0.00010315	0.64691	liquid
308.01	800.00	796.53	0.0012554	1260.9	1361.4	3.1205	2.9754	4.5554	1280.0	-0.0020312	0.00010275	0.64537	liquid
309.34	800.00	794.83	0.0012581	1266.8	1367.5	3.1310	2.9724	4.5622	1276.0	-0.0018107	0.00010236	0.64382	liquid
310.67	800.00	793.13	0.0012608	1272.7	1373.5	3.1414	2.9694	4.5690	1271.9	-0.0015874	0.00010196	0.64225	liquid
312.01	800.00	791.42	0.0012636	1278.6	1379.6	3.1519	2.9665	4.5759	1267.8	-0.0013614	0.00010157	0.64067	liquid
313.34	800.00	789.70	0.0012663	1284.4	1385.8	3.1623	2.9635	4.5829	1263.7	-0.0011325	0.00010119	0.63908	liquid
314.67	800.00	787.98	0.0012691	1290.3	1391.9	3.1727	2.9606	4.5900	1259.6	-0.00090077	0.00010080	0.63747	liquid
316.01	800.00	786.24	0.0012719	1296.2	1398.0	3.1831	2.9577	4.5972	1255.5	-0.00066613	0.00010042	0.63585	liquid
317.34	800.00	784.50	0.0012747	1302.1	1404.1	3.1935	2.9548	4.6044	1251.4	-0.00042853	0.00010004	0.63422	liquid
318.67	800.00	782.76	0.0012775	1308.1	1410.3	3.2039	2.9519	4.6117	1247.3	-0.00018794	9.9664e-05	0.63258	liquid
320.01	800.00	781.00	0.0012804	1314.0	1416.4	3.2143	2.9490	4.6191	1243.2	5.5704e-05	9.9289e-05	0.63092	liquid
321.34	800.00	779.24	0.0012833	1319.9	1422.6	3.2247	2.9462	4.6266	1239.0	0.00030244	9.8916e-05	0.62925	liquid
322.67	800.00	777.47	0.0012862	1325.9	1428.8	3.2350	2.9433	4.6342	1234.9	0.00055233	9.8546e-05	0.62757	liquid
324.01	800.00	775.69	0.0012892	1331.8	1434.9	3.2454	2.9405	4.6419	1230.7	0.00080541	9.8178e-05	0.62588	liquid
325.34	800.00	773.90	0.0012922	1337.8	1441.1	3.2558	2.9377	4.6496	1226.6	0.0010617	9.7812e-05	0.62417	liquid
326.67	800.00	772.11	0.0012952	1343.7	1447.3	3.2661	2.9349	4.6575	1222.4	0.0013214	9.7448e-05	0.62245	liquid
328.01	800.00	770.31	0.0012982	1349.7	1453.6	3.2765	2.9321	4.6654	1218.2	0.0015843	9.7086e-05	0.62073	liquid
329.34	800.00	768.50	0.0013012	1355.7	1459.8	3.2868	2.9294	4.6734	1214.0	0.0018507	9.6726e-05	0.61898	liquid
330.67	800.00	766.68	0.0013043	1361.7	1466.0	3.2972	2.9267	4.6815	1209.8	0.0021205	9.6368e-05	0.61723	liquid
332.01	800.00	764.85	0.0013074	1367.7	1472.3	3.3075	2.9239	4.6897	1205.6	0.0023939	9.6012e-05	0.61547	liquid
333.34	800.00	763.02	0.0013106	1373.7	1478.5	3.3178	2.9212	4.6981	1201.4	0.0026708	9.5658e-05	0.61369	liquid
334.67	800.00	761.18	0.0013138	1379.7	1484.8	3.3282	2.9185	4.7065	1197.2	0.0029513	9.5306e-05	0.61191	liquid
336.01	800.00	759.33	0.0013170	1385.7	1491.1	3.3385	2.9159	4.7150	1193.0	0.0032356	9.4955e-05	0.61011	liquid
337.34	800.00	757.47	0.0013202	1391.8	1497.4	3.3488	2.9132	4.7236	1188.8	0.0035236	9.4607e-05	0.60830	liquid
338.67	800.00	755.60	0.0013234	1397.8	1503.7	3.3591	2.9106	4.7323	1184.5	0.0038153	9.4259e-05	0.60649	liquid
340.01	800.00	753.73	0.0013267	1403.8	1510.0	3.3694	2.9080	4.7411	1180.3	0.0041110	9.3914e-05	0.60466	liquid
341.34	800.00	751.84	0.0013301	1409.9	1516.3	3.3797	2.9054	4.7500	1176.1	0.0044106	9.3570e-05	0.60282	liquid
342.67	800.00	749.95	0.0013334	1416.0	1522.7	3.3900	2.9028	4.7590	1171.8	0.0047141	9.3227e-05	0.60098	liquid
344.01	800.00	748.05	0.0013368	1422.1	1529.0	3.4003	2.9002	4.7681	1167.5	0.0050218	9.2887e-05	0.59912	liquid
345.34	800.00	746.14	0.0013402	1428.2	1535.4	3.4106	2.8977	4.7773	1163.3	0.0053335	9.2547e-05	0.59726	liquid
346.67	800.00	744.22	0.0013437	1434.3	1541.7	3.4209	2.8951	4.7866	1159.0	0.0056495	9.2209e-05	0.59539	liquid
348.01	800.00	742.29	0.0013472	1440.4	1548.1	3.4312	2.8926	4.7961	1154.7	0.0059697	9.1873e-05	0.59351	liquid
349.34	800.00	740.36	0.0013507	1446.5	1554.5	3.4415	2.8901	4.8056	1150.5	0.0062942	9.1537e-05	0.59162	liquid
350.67	800.00	738.41	0.0013543	1452.6	1560.9	3.4518	2.8876	4.8153	1146.2	0.0066231	9.1203e-05	0.58972	liquid
352.01	800.00	736.46	0.0013579	1458.7	1567.4	3.4621	2.8851	4.8251	1141.9	0.0069565	9.0871e-05	0.58782	liquid
353.34	800.00	734.49	0.0013615	1464.9	1573.8	3.4724	2.8827	4.8350	1137.6	0.0072944	9.0539e-05	0.58591	liquid
354.67	800.00	732.52	0.0013652	1471.1	1580.3	3.4827	2.8803	4.8450	1133.3	0.0076370	9.0209e-05	0.58399	liquid
356.01	800.00	730.54	0.0013689	1477.2	1586.7	3.4930	2.8778	4.8551	1129.0	0.0079842	8.9880e-05	0.58207	liquid
357.34	800.00	728.55	0.0013726	1483.4	1593.2	3.5033	2.8754	4.8654	1124.7	0.0083362	8.9552e-05	0.58014	liquid
358.67	800.00	726.55	0.0013764	1489.6	1599.7	3.5136	2.8730	4.8758	1120.4	0.0086930	8.9226e-05	0.57820	liquid
360.01	800.00	724.54	0.0013802	1495.8	1606.2	3.5238	2.8707	4.8863	1116.1	0.0090548	8.8900e-05	0.57626	liquid
361.34	800.00	722.52	0.0013841	1502.0	1612.7	3.5341	2.8683	4.8969	1111.8	0.0094215	8.8575e-05	0.57432	liquid
362.67	800.00	720.49	0.0013880	1508.2	1619.3	3.5444	2.8660	4.9077	1107.5	0.0097934	8.8252e-05	0.57237	liquid
364.01	800.00	718.45	0.0013919	1514.5	1625.8	3.5547	2.8637	4.9186	1103.1	0.010170	8.7929e-05	0.57041	liquid
365.34	800.00	716.40	0.0013959	1520.7	1632.4	3.5650	2.8614	4.9296	1098.8	0.010553	8.7607e-05	0.56845	liquid
366.67	800.00	714.34	0.0013999	1527.0	1639.0	3.5753	2.8591	4.9407	1094.5	0.010940	8.7286e-05	0.56649	liquid
368.01	800.00	712.27	0.0014040	1533.3	1645.6	3.5856	2.8568	4.9520	1090.2	0.011333	8.6966e-05	0.56452	liquid
369.34	800.00	710.19	0.0014081	1539.5	1652.2	3.5959	2.8546	4.9634	1085.8	0.011732	8.6647e-05	0.56255	liquid
370.67	800.00	708.11	0.0014122	1545.8	1658.8	3.6062	2.8524	4.9750	1081.5	0.012136	8.6329e-05	0.56058	liquid
372.01	800.00	706.01	0.0014164	1552.1	1665.4	3.6165	2.8502	4.9867	1077.2	0.012545	8.6012e-05	0.55860	liquid
373.34	800.00	703.90	0.0014207	1558.4	1672.1	3.6268	2.8480	4.9985	1072.9	0.012961	8.5695e-05	0.55663	liquid
374.67	800.00	701.78	0.0014249	1564.8	1678.8	3.6371	2.8458	5.0105	1068.5	0.013382	8.5379e-05	0.55464	supercritical
376.01	800.00	699.65	0.0014293	1571.1	1685.5	3.6474	2.8436	5.0226	1064.2	0.013809	8.5064e-05	0.55266	supercritical
377.34	800.00	697.51	0.0014337	1577.5	1692.2	3.6578	2.8415	5.0348	1059.9	0.014243	8.4749e-05	0.55068	supercritical
378.67	800.00	695.36	0.0014381	1583.8	1698.9	3.6681	2.8394	5.0472	1055.5	0.014682	8.4436e-05	0.54869	supercritical
380.01	800.00	693.20	0.0014426	1590.2	1705.6	3.6784	2.8373	5.0598	1051.2	0.015128	8.4122e-05	0.54671	supercritical
381.34	800.00	691.03	0.0014471	1596.6	1712.4	3.6887	2.8352	5.0725	1046.9	0.015580	8.3810e-05	0.54472	supercritical
382.67	800.00	688.85	0.0014517	1603.0	1719.2	3.6991	2.8331	5.0853	1042.6	0.016038	8.3498e-05	0.54273	supercritical
384.01	800.00	686.65	0.0014563	1609.4	1725.9	3.7094	2.8310	5.0983	1038.2	0.016503	8.3187e-05	0.54074	supercritical
385.34	800.00	684.45	0.0014610	1615.9	1732.7	3.7198	2.8290	5.1115	1033.9	0.016975	8.2876e-05	0.53875	supercritical
386.67	800.00	682.24	0.0014658	1622.3	1739.6	3.7301	2.8270	5.1247	1029.6	0.017453	8.2565e-05	0.53675	supercritical
388.01	800.00	680.01	0.0014706	1628.8	1746.4	3.7405	2.8250	5.1382	1025.3	0.017938	8.2256e-05	0.53476	supercritical
389.34	800.00	677.77	0.0014754	1635.2	1753.3	3.7508	2.8230	5.1518	1021.0	0.018430	8.1946e-05	0.53276	supercritical
390.67	800.00	675.53	0.0014803	1641.7	1760.2	3.7612	2.8210	5.1655	1016.7	0.018928	8.1638e-05	0.53077	supercritical
392.01	800.00	673.27	0.0014853	1648.2	1767.0	3.7716	2.8190	5.1795	1012.3	0.019435	8.1329e-05	0.52877	supercritical
393.34	800.00	671.00	0.0014903	1654.7	1774.0	3.7820	2.8171	5.1935	1008.0	0.019948	8.1022e-05	0.52677	supercritical
394.67	800.00	668.72	0.0014954	1661.3	1780.9	3.7924	2.8152	5.2077	1003.7	0.020468	8.0714e-05	0.52478	supercritical
396.01	800.00	666.43	0.0015005	1667.8	1787.9	3.8028	2.8133	5.2221	999.45	0.020996	8.0407e-05	0.52277	supercritical
397.34	800.00	664.12	0.0015057	1674.4	1794.8	3.8132	2.8114	5.2367	995.17	0.021532	8.0101e-05	0.52077	supercritical
398.67	800.00	661.81	0.0015110	1680.9	1801.8	3.8236	2.8095	5.2514	990.89	0.022075	7.9794e-05	0.51877	supercritical
400.01	800.00	659.48	0.0015163	1687.5	1808.8	3.8340	2.8077	5.2662	986.61	0.022625	7.9489e-05	0.51676	supercritical
401.34	800.00	657.14	0.0015217	1694.1	1815.9	3.8445	2.8058	5.2812	982.34	0.023184	7.9183e-05	0.51475	supercritical
402.67	800.00	654.79	0.0015272	1700.7	1822.9	3.8549	2.8040	5.2964	978.08	0.023751	7.8878e-05	0.51274	supercritical
404.00	800.00	652.43	0.0015327	1707.4	1830.0	3.8654	2.8022	5.3117	973.83	0.024325	7.8573e-05	0.51073	supercritical
405.34	800.00	650.06	0.0015383	1714.0	1837.1	3.8758	2.8004	5.3272	969.59	0.024908	7.8269e-05	0.50871	supercritical
406.67	800.00	647.67	0.0015440	1720.7	1844.2	3.8863	2.7986	5.3428	965.35	0.025499	7.7965e-05	0.50669	supercritical
408.00	800.00	645.27	0.0015497	1727.3	1851.3	3.8968	2.7968	5.3586	961.12	0.026098	7.7661e-05	0.50466	supercritical
409.34	800.00	642.86	0.0015555	1734.0	1858.5	3.9073	2.7951	5.3746	956.91	0.026706	7.7358e-05	0.50263	supercritical
410.67	800.00	640.44	0.0015614	1740.7	1865.7	3.9178	2.7934	5.3907	952.70	0.027322	7.7054e-05	0.50059	supercritical
412.00	800.00	638.01	0.0015674	1747.5	1872.9	3.9283	2.7916	5.4069	948.50	0.027947	7.6752e-05	0.49855	supercritical
413.34	800.00	635.57	0.0015734	1754.2	1880.1	3.9388	2.7899	5.4233	944.32	0.028581	7.6449e-05	0.49650	supercritical
414.67	800.00	633.11	0.0015795	1761.0	1887.3	3.9494	2.7882	5.4399	940.14	0.029224	7.6147e-05	0.49445	supercritical
416.00	800.00	630.64	0.0015857	1767.7	1894.6	3.9599	2.7865	5.4566	935.98	0.029875	7.5845e-05	0.49239	supercritical
417.34	800.00	628.16	0.0015919	1774.5	1901.9	3.9705	2.7849	5.4735	931.83	0.030536	7.5543e-05	0.49032	supercritical
418.67	800.00	625.67	0.0015983	1781.3	1909.2	3.9810	2.7832	5.4905	927.69	0.031206	7.5242e-05	0.48824	supercritical
420.00	800.00	623.16	0.0016047	1788.1	1916.5	3.9916	2.7816	5.5076	923.57	0.031885	7.4940e-05	0.48615	supercritical
421.34	800.00	620.65	0.0016112	1795.0	1923.9	4.0022	2.7799	5.5249	919.46	0.032573	7.4640e-05	0.48405	supercritical
422.67	800.00	618.12	0.0016178	1801.8	1931.2	4.0129	2.7783	5.5423	915.37	0.033271	7.4339e-05	0.48194	supercritical
424.00	800.00	615.58	0.0016245	1808.7	1938.6	4.0235	2.7767	5.5598	911.29	0.033979	7.4039e-05	0.47983	supercritical
425.34	800.00	613.03	0.0016312	1815.6	1946.1	4.0341	2.7751	5.5775	907.22	0.034695	7.3739e-05	0.47770	supercritical
426.67	800.00	610.46	0.0016381	1822.5	1953.5	4.0448	2.7735	5.5952	903.18	0.035422	7.3439e-05	0.47555	supercritical
428.00	800.00	607.89	0.0016450	1829.4	1961.0	4.0554	2.7719	5.6131	899.15	0.036158	7.3140e-05	0.47340	supercritical
429.34	800.00	605.30	0.0016521	1836.3	1968.5	4.0661	2.7703	5.6311	895.14	0.036904	7.2841e-05	0.47123	supercritical
430.67	800.00	602.70	0.0016592	1843.3	1976.0	4.0768	2.7688	5.6492	891.14	0.037660	7.2542e-05	0.46905	supercritical
432.00	800.00	600.09	0.0016664	1850.2	1983.5	4.0875	2.7672	5.6674	887.17	0.038426	7.2244e-05	0.46685	supercritical
433.34	800.00	597.46	0.0016737	1857.2	1991.1	4.0982	2.7657	5.6857	883.21	0.039202	7.1946e-05	0.46464	supercritical
434.67	800.00	594.83	0.0016812	1864.2	1998.7	4.1090	2.7641	5.7040	879.28	0.039988	7.1648e-05	0.46242	supercritical
436.00	800.00	592.18	0.0016887	1871.2	2006.3	4.1197	2.7626	5.7225	875.37	0.040784	7.1351e-05	0.46017	supercritical
437.34	800.00	589.52	0.0016963	1878.3	2014.0	4.1305	2.7610	5.7409	871.48	0.041589	7.1054e-05	0.45792	supercritical
438.67	800.00	586.86	0.0017040	1885.3	2021.6	4.1413	2.7595	5.7595	867.61	0.042405	7.0758e-05	0.45564	supercritical
440.00	800.00	584.17	0.0017118	1892.4	2029.3	4.1521	2.7580	5.7780	863.77	0.043231	7.0462e-05	0.45335	supercritical
441.34	800.00	581.48	0.0017197	1899.5	2037.0	4.1629	2.7565	5.7966	859.95	0.044066	7.0166e-05	0.45104	supercritical
442.67	800.00	578.78	0.0017278	1906.6	2044.8	4.1737	2.7550	5.8152	856.16	0.044912	6.9871e-05	0.44872	supercritical
444.00	800.00	576.07	0.0017359	1913.7	2052.5	4.1846	2.7534	5.8338	852.39	0.045767	6.9577e-05	0.44638	supercritical
445.34	800.00	573.34	0.0017442	1920.8	2060.3	4.1954	2.7519	5.8523	848.65	0.046632	6.9283e-05	0.44402	supercritical
446.67	800.00	570.61	0.0017525	1928.0	2068.2	4.2063	2.7504	5.8709	844.95	0.047507	6.8990e-05	0.44164	supercritical
448.00	800.00	567.87	0.0017610	1935.1	2076.0	4.2172	2.7489	5.8893	841.27	0.048391	6.8697e-05	0.43924	supercritical
449.34	800.00	565.11	0.0017696	1942.3	2083.9	4.2280	2.7474	5.9077	837.62	0.049284	6.8405e-05	0.43683	supercritical
450.67	800.00	562.35	0.0017783	1949.5	2091.7	4.2390	2.7459	5.9260	834.00	0.050187	6.8113e-05	0.43440	supercritical
452.00	800.00	559.58	0.0017871	1956.7	2099.7	4.2499	2.7443	5.9442	830.42	0.051099	6.7823e-05	0.43195	supercritical
453.34	800.00	556.79	0.0017960	1963.9	2107.6	4.2608	2.7428	5.9623	826.87	0.052020	6.7533e-05	0.42949	supercritical
454.67	800.00	554.00	0.0018050	1971.2	2115.6	4.2718	2.7413	5.9802	823.36	0.052949	6.7243e-05	0.42701	supercritical
456.00	800.00	551.20	0.0018142	1978.4	2123.5	4.2827	2.7398	5.9979	819.88	0.053887	6.6955e-05	0.42451	supercritical
457.34	800.00	548.40	0.0018235	1985.7	2131.6	4.2937	2.7382	6.0154	816.44	0.054834	6.6667e-05	0.42200	supercritical
458.67	800.00	545.58	0.0018329	1993.0	2139.6	4.3047	2.7367	6.0327	813.04	0.055788	6.6381e-05	0.41947	supercritical
460.00	800.00	542.76	0.0018424	2000.2	2147.6	4.3157	2.7351	6.0498	809.68	0.056751	6.6095e-05	0.41693	supercritical
461.34	800.00	539.93	0.0018521	2007.6	2155.7	4.3267	2.7335	6.0667	806.36	0.057721	6.5810e-05	0.41437	supercritical
462.67	800.00	537.09	0.0018619	2014.9	2163.8	4.3377	2.7320	6.0832	803.08	0.058698	6.5527e-05	0.41180	supercritical
464.00	800.00	534.25	0.0018718	2022.2	2171.9	4.3487	2.7304	6.0994	799.85	0.059682	6.5244e-05	0.40922	supercritical
465.34	800.00	531.40	0.0018818	2029.5	2180.1	4.3598	2.7288	6.1154	796.66	0.060674	6.4963e-05	0.40662	supercritical
466.67	800.00	528.55	0.0018920	2036.9	2188.2	4.3708	2.7272	6.1310	793.51	0.061671	6.4683e-05	0.40402	supercritical
468.00	800.00	525.69	0.0019023	2044.3	2196.4	4.3819	2.7256	6.1462	790.41	0.062676	6.4404e-05	0.40140	supercritical
469.34	800.00	522.83	0.0019127	2051.6	2204.6	4.3929	2.7239	6.1610	787.36	0.063686	6.4126e-05	0.39878	supercritical
470.67	800.00	519.96	0.0019232	2059.0	2212.9	4.4040	2.7223	6.1755	784.35	0.064702	6.3850e-05	0.39615	supercritical
472.00	800.00	517.09	0.0019339	2066.4	2221.1	4.4151	2.7206	6.1895	781.39	0.065723	6.3575e-05	0.39351	supercritical
473.34	800.00	514.22	0.0019447	2073.8	2229.4	4.4261	2.7189	6.2031	778.48	0.066750	6.3302e-05	0.39087	supercritical
474.67	800.00	511.34	0.0019556	2081.2	2237.6	4.4372	2.7172	6.2163	775.61	0.067782	6.3030e-05	0.38823	supercritical
476.00	800.00	508.46	0.0019667	2088.6	2245.9	4.4483	2.7155	6.2290	772.80	0.068819	6.2760e-05	0.38558	supercritical
477.34	800.00	505.59	0.0019779	2096.0	2254.3	4.4594	2.7137	6.2413	770.04	0.069861	6.2491e-05	0.38293	supercritical
478.67	800.00	502.71	0.0019892	2103.4	2262.6	4.4705	2.7119	6.2530	767.32	0.070906	6.2224e-05	0.38028	supercritical
480.00	800.00	499.83	0.0020007	2110.9	2270.9	4.4816	2.7101	6.2643	764.65	0.071956	6.1959e-05	0.37763	supercritical
481.34	800.00	496.95	0.0020123	2118.3	2279.3	4.4927	2.7083	6.2750	762.04	0.073010	6.1695e-05	0.37498	supercritical
482.67	800.00	494.07	0.0020240	2125.7	2287.7	4.5038	2.7065	6.2853	759.47	0.074068	6.1434e-05	0.37234	supercritical
484.00	800.00	491.20	0.0020358	2133.2	2296.1	4.5148	2.7046	6.2950	756.96	0.075129	6.1174e-05	0.36970	supercritical
485.34	800.00	488.33	0.0020478	2140.6	2304.5	4.5259	2.7027	6.3041	754.49	0.076193	6.0916e-05	0.36707	supercritical
486.67	800.00	485.46	0.0020599	2148.1	2312.9	4.5370	2.7008	6.3127	752.08	0.077260	6.0661e-05	0.36445	supercritical
488.00	800.00	482.59	0.0020722	2155.5	2321.3	4.5481	2.6988	6.3208	749.72	0.078330	6.0407e-05	0.36183	supercritical
489.34	800.00	479.72	0.0020845	2163.0	2329.7	4.5592	2.6968	6.3283	747.40	0.079402	6.0155e-05	0.35923	supercritical
490.67	800.00	476.87	0.0020970	2170.4	2338.2	4.5702	2.6948	6.3352	745.14	0.080476	5.9906e-05	0.35663	supercritical
492.00	800.00	474.01	0.0021096	2177.8	2346.6	4.5813	2.6928	6.3415	742.92	0.081552	5.9659e-05	0.35405	supercritical
493.34	800.00	471.16	0.0021224	2185.3	2355.1	4.5923	2.6907	6.3472	740.76	0.082630	5.9413e-05	0.35148	supercritical
494.67	800.00	468.32	0.0021353	2192.7	2363.5	4.6033	2.6886	6.3523	738.65	0.083708	5.9171e-05	0.34893	supercritical
496.00	800.00	465.49	0.0021483	2200.1	2372.0	4.6144	2.6865	6.3568	736.58	0.084788	5.8930e-05	0.34639	supercritical
497.34	800.00	462.66	0.0021614	2207.6	2380.5	4.6254	2.6843	6.3607	734.57	0.085868	5.8692e-05	0.34387	supercritical
498.67	800.00	459.84	0.0021747	2215.0	2389.0	4.6364	2.6821	6.3639	732.60	0.086948	5.8456e-05	0.34137	supercritical
500.00	800.00	457.03	0.0021880	2222.4	2397.5	4.6474	2.6798	6.3665	730.69	0.088027	5.8223e-05	0.33889	supercritical
501.34	800.00	454.23	0.0022015	2229.8	2405.9	4.6583	2.6776	6.3684	728.82	0.089106	5.7992e-05	0.33643	supercritical
502.67	800.00	451.43	0.0022152	2237.2	2414.4	4.6693	2.6753	6.3696	727.01	0.090184	5.7763e-05	0.33398	supercritical
504.00	800.00	448.65	0.0022289	2244.6	2422.9	4.6802	2.6729	6.3702	725.24	0.091260	5.7537e-05	0.33156	supercritical
505.34	800.00	445.88	0.0022428	2252.0	2431.4	4.6912	2.6706	6.3701	723.53	0.092333	5.7314e-05	0.32916	supercritical
506.67	800.00	443.12	0.0022567	2259.4	2439.9	4.7021	2.6682	6.3693	721.86	0.093404	5.7093e-05	0.32679	supercritical
508.00	800.00	440.37	0.0022708	2266.7	2448.4	4.7129	2.6657	6.3678	720.24	0.094472	5.6875e-05	0.32443	supercritical
509.34	800.00	437.63	0.0022850	2274.1	2456.9	4.7238	2.6633	6.3656	718.68	0.095537	5.6659e-05	0.32211	supercritical
510.67	800.00	434.91	0.0022993	2281.4	2465.4	4.7346	2.6608	6.3626	717.16	0.096597	5.6446e-05	0.31981	supercritical
512.00	800.00	432.20	0.0023137	2288.8	2473.9	4.7454	2.6582	6.3590	715.69	0.097652	5.6236e-05	0.31753	supercritical
513.34	800.00	429.50	0.0023283	2296.1	2482.3	4.7562	2.6556	6.3547	714.27	0.098702	5.6028e-05	0.31528	supercritical
514.67	800.00	426.82	0.0023429	2303.4	2490.8	4.7670	2.6530	6.3496	712.90	0.099747	5.5824e-05	0.31306	supercritical
516.00	800.00	424.15	0.0023576	2310.7	2499.3	4.7777	2.6504	6.3438	711.58	0.10079	5.5622e-05	0.31086	supercritical
517.34	800.00	421.50	0.0023725	2317.9	2507.7	4.7884	2.6477	6.3373	710.30	0.10182	5.5423e-05	0.30870	supercritical
518.67	800.00	418.86	0.0023874	2325.2	2516.2	4.7991	2.6450	6.3301	709.08	0.10284	5.5226e-05	0.30656	supercritical
520.00	800.00	416.24	0.0024024	2332.4	2524.6	4.8097	2.6423	6.3222	707.90	0.10386	5.5033e-05	0.30445	supercritical
521.34	800.00	413.64	0.0024176	2339.6	2533.0	4.8204	2.6395	6.3136	706.77	0.10487	5.4842e-05	0.30237	supercritical
522.67	800.00	411.05	0.0024328	2346.8	2541.4	4.8309	2.6367	6.3043	705.69	0.10587	5.4654e-05	0.30032	supercritical
524.00	800.00	408.48	0.0024481	2354.0	2549.8	4.8415	2.6338	6.2944	704.65	0.10686	5.4469e-05	0.29829	supercritical
525.34	800.00	405.93	0.0024635	2361.1	2558.2	4.8520	2.6310	6.2837	703.66	0.10785	5.4287e-05	0.29630	supercritical
526.67	800.00	403.40	0.0024789	2368.3	2566.6	4.8625	2.6281	6.2724	702.71	0.10882	5.4107e-05	0.29434	supercritical
528.00	800.00	400.88	0.0024945	2375.4	2575.0	4.8729	2.6251	6.2605	701.81	0.10978	5.3931e-05	0.29241	supercritical
529.34	800.00	398.39	0.0025101	2382.5	2583.3	4.8833	2.6222	6.2479	700.96	0.11074	5.3757e-05	0.29051	supercritical
530.67	800.00	395.91	0.0025258	2389.5	2591.6	4.8937	2.6192	6.2347	700.14	0.11168	5.3586e-05	0.28864	supercritical
532.00	800.00	393.45	0.0025416	2396.6	2599.9	4.9040	2.6162	6.2210	699.38	0.11261	5.3419e-05	0.28679	supercritical
533.34	800.00	391.02	0.0025574	2403.6	2608.2	4.9143	2.6131	6.2066	698.65	0.11353	5.3254e-05	0.28498	supercritical
534.67	800.00	388.60	0.0025733	2410.6	2616.5	4.9245	2.6100	6.1917	697.96	0.11444	5.3091e-05	0.28320	supercritical
536.00	800.00	386.20	0.0025893	2417.6	2624.7	4.9347	2.6069	6.1762	697.32	0.11534	5.2932e-05	0.28145	supercritical
537.34	800.00	383.82	0.0026054	2424.5	2632.9	4.9449	2.6038	6.1602	696.72	0.11623	5.2776e-05	0.27973	supercritical
538.67	800.00	381.47	0.0026214	2431.4	2641.1	4.9550	2.6006	6.1437	696.15	0.11710	5.2622e-05	0.27804	supercritical
540.00	800.00	379.13	0.0026376	2438.3	2649.3	4.9650	2.5974	6.1266	695.63	0.11797	5.2471e-05	0.27638	supercritical
541.34	800.00	376.82	0.0026538	2445.2	2657.5	4.9751	2.5942	6.1091	695.14	0.11882	5.2323e-05	0.27475	supercritical
542.67	800.00	374.52	0.0026701	2452.0	2665.6	4.9850	2.5910	6.0912	694.69	0.11965	5.2178e-05	0.27315	supercritical
544.00	800.00	372.25	0.0026863	2458.8	2673.7	4.9950	2.5877	6.0728	694.27	0.12048	5.2036e-05	0.27158	supercritical
545.34	800.00	370.00	0.0027027	2465.6	2681.8	5.0049	2.5845	6.0540	693.89	0.12129	5.1896e-05	0.27004	supercritical
546.67	800.00	367.77	0.0027191	2472.3	2689.9	5.0147	2.5812	6.0348	693.55	0.12209	5.1759e-05	0.26852	supercritical
548.00	800.00	365.56	0.0027355	2479.1	2697.9	5.0245	2.5779	6.0152	693.24	0.12288	5.1625e-05	0.26704	supercritical
549.34	800.00	363.38	0.0027520	2485.7	2705.9	5.0342	2.5745	5.9953	692.96	0.12365	5.1493e-05	0.26558	supercritical
550.67	800.00	361.21	0.0027685	2492.4	2713.9	5.0439	2.5712	5.9750	692.72	0.12441	5.1364e-05	0.26415	supercritical
552.00	800.00	359.07	0.0027850	2499.0	2721.8	5.0536	2.5678	5.9544	692.50	0.12516	5.1238e-05	0.26275	supercritical
553.34	800.00	356.95	0.0028015	2505.6	2729.8	5.0632	2.5644	5.9335	692.32	0.12589	5.1115e-05	0.26137	supercritical
554.67	800.00	354.85	0.0028181	2512.2	2737.7	5.0727	2.5610	5.9123	692.16	0.12661	5.0994e-05	0.26003	supercritical
556.00	800.00	352.77	0.0028347	2518.7	2745.5	5.0822	2.5576	5.8909	692.04	0.12732	5.0875e-05	0.25871	supercritical
557.34	800.00	350.71	0.0028514	2525.3	2753.4	5.0917	2.5542	5.8692	691.94	0.12801	5.0759e-05	0.25741	supercritical
558.67	800.00	348.67	0.0028680	2531.7	2761.2	5.1011	2.5507	5.8472	691.87	0.12869	5.0646e-05	0.25614	supercritical
560.00	800.00	346.66	0.0028847	2538.2	2769.0	5.1104	2.5473	5.8251	691.83	0.12936	5.0535e-05	0.25490	supercritical
561.34	800.00	344.67	0.0029014	2544.6	2776.7	5.1197	2.5439	5.8027	691.81	0.13001	5.0427e-05	0.25368	supercritical
562.67	800.00	342.69	0.0029181	2551.0	2784.4	5.1289	2.5404	5.7802	691.82	0.13065	5.0321e-05	0.25249	supercritical
564.00	800.00	340.74	0.0029348	2557.3	2792.1	5.1381	2.5369	5.7575	691.85	0.13127	5.0217e-05	0.25132	supercritical
565.34	800.00	338.81	0.0029515	2563.7	2799.8	5.1473	2.5335	5.7347	691.91	0.13188	5.0116e-05	0.25018	supercritical
566.67	800.00	336.90	0.0029682	2570.0	2807.4	5.1564	2.5300	5.7117	691.99	0.13248	5.0017e-05	0.24906	supercritical
568.00	800.00	335.02	0.0029849	2576.2	2815.0	5.1654	2.5265	5.6886	692.09	0.13307	4.9920e-05	0.24796	supercritical
569.34	800.00	333.15	0.0030017	2582.5	2822.6	5.1744	2.5230	5.6654	692.22	0.13364	4.9826e-05	0.24688	supercritical
570.67	800.00	331.30	0.0030184	2588.7	2830.1	5.1834	2.5195	5.6422	692.36	0.13419	4.9734e-05	0.24583	supercritical
572.00	800.00	329.48	0.0030351	2594.8	2837.6	5.1922	2.5160	5.6188	692.53	0.13474	4.9644e-05	0.24480	supercritical
573.34	800.00	327.67	0.0030519	2601.0	2845.1	5.2011	2.5126	5.5954	692.71	0.13527	4.9556e-05	0.24379	supercritical
574.67	800.00	325.88	0.0030686	2607.1	2852.6	5.2099	2.5091	5.5720	692.92	0.13579	4.9471e-05	0.24281	supercritical
576.00	800.00	324.12	0.0030853	2613.1	2860.0	5.2186	2.5056	5.5485	693.14	0.13629	4.9387e-05	0.24184	supercritical
577.34	800.00	322.37	0.0031020	2619.2	2867.3	5.2273	2.5021	5.5250	693.38	0.13678	4.9306e-05	0.24090	supercritical
578.67	800.00	320.64	0.0031187	2625.2	2874.7	5.2359	2.4987	5.5014	693.64	0.13726	4.9227e-05	0.23997	supercritical
580.00	800.00	318.94	0.0031354	2631.2	2882.0	5.2445	2.4952	5.4779	693.92	0.13772	4.9149e-05	0.23907	supercritical
581.34	800.00	317.25	0.0031521	2637.1	2889.3	5.2531	2.4917	5.4544	694.21	0.13817	4.9074e-05	0.23818	supercritical
582.67	800.00	315.58	0.0031688	2643.1	2896.6	5.2615	2.4883	5.4309	694.52	0.13861	4.9001e-05	0.23732	supercritical
584.00	800.00	313.93	0.0031854	2649.0	2903.8	5.2700	2.4849	5.4074	694.84	0.13904	4.8929e-05	0.23647	supercritical
585.34	800.00	312.30	0.0032021	2654.8	2911.0	5.2784	2.4814	5.3840	695.18	0.13945	4.8860e-05	0.23564	supercritical
586.67	800.00	310.68	0.0032187	2660.7	2918.1	5.2867	2.4780	5.3607	695.53	0.13985	4.8792e-05	0.23483	supercritical
588.00	800.00	309.09	0.0032353	2666.5	2925.3	5.2950	2.4746	5.3374	695.90	0.14024	4.8726e-05	0.23404	supercritical
589.34	800.00	307.51	0.0032519	2672.2	2932.4	5.3032	2.4712	5.3141	696.28	0.14062	4.8662e-05	0.23326	supercritical
590.67	800.00	305.95	0.0032685	2678.0	2939.4	5.3114	2.4678	5.2910	696.67	0.14098	4.8600e-05	0.23250	supercritical
592.00	800.00	304.41	0.0032850	2683.7	2946.5	5.3196	2.4644	5.2679	697.08	0.14133	4.8539e-05	0.23176	supercritical
593.34	800.00	302.89	0.0033015	2689.4	2953.5	5.3277	2.4611	5.2449	697.50	0.14167	4.8480e-05	0.23103	supercritical
594.67	800.00	301.38	0.0033180	2695.0	2960.5	5.3357	2.4577	5.2220	697.93	0.14200	4.8423e-05	0.23032	supercritical
596.00	800.00	299.89	0.0033345	2700.7	2967.4	5.3437	2.4544	5.1993	698.37	0.14232	4.8368e-05	0.22963	supercritical
597.34	800.00	298.42	0.0033510	2706.3	2974.3	5.3517	2.4511	5.1766	698.82	0.14262	4.8314e-05	0.22895	supercritical
598.67	800.00	296.96	0.0033674	2711.8	2981.2	5.3596	2.4478	5.1540	699.28	0.14291	4.8262e-05	0.22828	supercritical
600.00	800.00	295.53	0.0033838	2717.4	2988.1	5.3674	2.4445	5.1316	699.75	0.14320	4.8211e-05	0.22764	supercritical
601.34	800.00	294.10	0.0034002	2722.9	2994.9	5.3752	2.4412	5.1093	700.24	0.14347	4.8162e-05	0.22700	supercritical
602.67	800.00	292.69	0.0034165	2728.4	3001.7	5.3830	2.4380	5.0872	700.73	0.14373	4.8114e-05	0.22638	supercritical
604.00	800.00	291.30	0.0034328	2733.8	3008.5	5.3907	2.4347	5.0651	701.23	0.14398	4.8068e-05	0.22577	supercritical
605.34	800.00	289.93	0.0034491	2739.3	3015.2	5.3984	2.4315	5.0433	701.74	0.14421	4.8023e-05	0.22518	supercritical
606.67	800.00	288.57	0.0034654	2744.7	3021.9	5.4060	2.4283	5.0215	702.26	0.14444	4.7980e-05	0.22460	supercritical
608.00	800.00	287.22	0.0034816	2750.1	3028.6	5.4136	2.4251	4.9999	702.78	0.14466	4.7938e-05	0.22403	supercritical
609.34	800.00	285.89	0.0034978	2755.4	3035.3	5.4212	2.4220	4.9785	703.32	0.14487	4.7897e-05	0.22348	supercritical
610.67	800.00	284.58	0.0035140	2760.8	3041.9	5.4287	2.4189	4.9572	703.86	0.14506	4.7858e-05	0.22293	supercritical
612.00	800.00	283.28	0.0035301	2766.1	3048.5	5.4361	2.4157	4.9361	704.40	0.14525	4.7820e-05	0.22240	supercritical
613.34	800.00	281.99	0.0035462	2771.3	3055.0	5.4435	2.4126	4.9152	704.96	0.14543	4.7784e-05	0.22188	supercritical
614.67	800.00	280.72	0.0035623	2776.6	3061.6	5.4509	2.4096	4.8944	705.52	0.14559	4.7748e-05	0.22138	supercritical
616.00	800.00	279.46	0.0035783	2781.8	3068.1	5.4582	2.4065	4.8737	706.09	0.14575	4.7714e-05	0.22088	supercritical
617.34	800.00	278.22	0.0035943	2787.0	3074.6	5.4655	2.4035	4.8533	706.67	0.14590	4.7682e-05	0.22040	supercritical
618.67	800.00	276.99	0.0036103	2792.2	3081.0	5.4728	2.4005	4.8330	707.25	0.14604	4.7650e-05	0.21992	supercritical
620.00	800.00	275.77	0.0036262	2797.4	3087.5	5.4800	2.3975	4.8129	707.83	0.14617	4.7620e-05	0.21946	supercritical
621.34	800.00	274.57	0.0036421	2802.5	3093.9	5.4871	2.3945	4.7930	708.42	0.14629	4.7591e-05	0.21900	supercritical
622.67	800.00	273.37	0.0036580	2807.6	3100.2	5.4943	2.3916	4.7732	709.02	0.14640	4.7562e-05	0.21856	supercritical
624.00	800.00	272.20	0.0036738	2812.7	3106.6	5.5013	2.3887	4.7536	709.62	0.14651	4.7536e-05	0.21813	supercritical
625.34	800.00	271.03	0.0036896	2817.8	3112.9	5.5084	2.3858	4.7342	710.23	0.14660	4.7510e-05	0.21770	supercritical
626.67	800.00	269.88	0.0037054	2822.8	3119.2	5.5154	2.3829	4.7150	710.84	0.14669	4.7485e-05	0.21729	supercritical
628.00	800.00	268.74	0.0037211	2827.8	3125.5	5.5224	2.3801	4.6959	711.46	0.14677	4.7461e-05	0.21688	supercritical
629.34	800.00	267.61	0.0037368	2832.8	3131.7	5.5293	2.3772	4.6771	712.08	0.14684	4.7439e-05	0.21649	supercritical
630.67	800.00	266.50	0.0037524	2837.8	3138.0	5.5362	2.3744	4.6584	712.70	0.14690	4.7417e-05	0.21610	supercritical
632.00	800.00	265.39	0.0037680	2842.7	3144.2	5.5430	2.3717	4.6398	713.33	0.14695	4.7396e-05	0.21572	supercritical
633.34	800.00	264.30	0.0037836	2847.7	3150.3	5.5499	2.3689	4.6215	713.96	0.14700	4.7377e-05	0.21535	supercritical
634.67	800.00	263.22	0.0037991	2852.6	3156.5	5.5566	2.3662	4.6034	714.60	0.14704	4.7358e-05	0.21499	supercritical
636.00	800.00	262.15	0.0038146	2857.4	3162.6	5.5634	2.3635	4.5854	715.23	0.14707	4.7340e-05	0.21464	supercritical
637.34	800.00	261.09	0.0038301	2862.3	3168.7	5.5701	2.3608	4.5676	715.88	0.14709	4.7323e-05	0.21429	supercritical
638.67	800.00	260.04	0.0038455	2867.2	3174.8	5.5768	2.3582	4.5500	716.52	0.14711	4.7307e-05	0.21395	supercritical
640.00	800.00	259.00	0.0038609	2872.0	3180.9	5.5834	2.3555	4.5325	717.17	0.14712	4.7292e-05	0.21362	supercritical
641.34	800.00	257.98	0.0038763	2876.8	3186.9	5.5900	2.3529	4.5152	717.82	0.14713	4.7278e-05	0.21330	supercritical
642.67	800.00	256.96	0.0038916	2881.6	3192.9	5.5966	2.3503	4.4982	718.47	0.14712	4.7265e-05	0.21298	supercritical
644.00	800.00	255.96	0.0039069	2886.3	3198.9	5.6031	2.3478	4.4812	719.13	0.14711	4.7253e-05	0.21267	supercritical
645.34	800.00	254.96	0.0039221	2891.1	3204.8	5.6096	2.3452	4.4645	719.78	0.14709	4.7241e-05	0.21237	supercritical
646.67	800.00	253.98	0.0039373	2895.8	3210.8	5.6160	2.3427	4.4479	720.44	0.14707	4.7230e-05	0.21207	supercritical
648.00	800.00	253.00	0.0039525	2900.5	3216.7	5.6225	2.3402	4.4316	721.11	0.14704	4.7220e-05	0.21178	supercritical
649.34	800.00	252.04	0.0039676	2905.2	3222.6	5.6289	2.3378	4.4153	721.77	0.14701	4.7211e-05	0.21150	supercritical
650.67	800.00	251.08	0.0039827	2909.9	3228.5	5.6352	2.3353	4.3993	722.44	0.14697	4.7203e-05	0.21122	supercritical
652.00	800.00	250.14	0.0039978	2914.5	3234.3	5.6416	2.3329	4.3834	723.11	0.14692	4.7195e-05	0.21095	supercritical
653.34	800.00	249.20	0.0040128	2919.1	3240.2	5.6479	2.3305	4.3677	723.78	0.14686	4.7188e-05	0.21068	supercritical
654.67	800.00	248.27	0.0040278	2923.8	3246.0	5.6541	2.3282	4.3522	724.45	0.14681	4.7182e-05	0.21042	supercritical
656.00	800.00	247.36	0.0040428	2928.4	3251.8	5.6604	2.3258	4.3368	725.12	0.14674	4.7176e-05	0.21017	supercritical
657.34	800.00	246.45	0.0040577	2932.9	3257.5	5.6666	2.3235	4.3216	725.79	0.14667	4.7171e-05	0.20992	supercritical
658.67	800.00	245.55	0.0040726	2937.5	3263.3	5.6728	2.3212	4.3065	726.47	0.14660	4.7167e-05	0.20968	supercritical
660.00	800.00	244.65	0.0040874	2942.0	3269.0	5.6789	2.3189	4.2916	727.15	0.14651	4.7164e-05	0.20944	supercritical
661.34	800.00	243.77	0.0041022	2946.6	3274.7	5.6850	2.3167	4.2769	727.82	0.14643	4.7161e-05	0.20921	supercritical
662.67	800.00	242.90	0.0041170	2951.1	3280.4	5.6911	2.3145	4.2624	728.50	0.14634	4.7159e-05	0.20898	supercritical
664.00	800.00	242.03	0.0041317	2955.6	3286.1	5.6972	2.3123	4.2480	729.18	0.14624	4.7157e-05	0.20876	supercritical
665.34	800.00	241.17	0.0041464	2960.1	3291.8	5.7032	2.3101	4.2337	729.86	0.14614	4.7157e-05	0.20854	supercritical
666.67	800.00	240.32	0.0041611	2964.5	3297.4	5.7092	2.3079	4.2196	730.55	0.14603	4.7156e-05	0.20833	supercritical
668.00	800.00	239.48	0.0041757	2969.0	3303.0	5.7152	2.3058	4.2057	731.23	0.14592	4.7157e-05	0.20812	supercritical
669.33	800.00	238.65	0.0041903	2973.4	3308.6	5.7211	2.3037	4.1919	731.91	0.14581	4.7158e-05	0.20791	supercritical
670.67	800.00	237.82	0.0042049	2977.8	3314.2	5.7270	2.3016	4.1783	732.60	0.14569	4.7159e-05	0.20771	supercritical
672.00	800.00	237.00	0.0042194	2982.2	3319.8	5.7329	2.2996	4.1648	733.28	0.14557	4.7161e-05	0.20752	supercritical
673.33	800.00	236.19	0.0042339	2986.6	3325.3	5.7388	2.2975	4.1515	733.97	0.14544	4.7164e-05	0.20733	supercritical
674.67	800.00	235.39	0.0042483	2991.0	3330.8	5.7446	2.2955	4.1383	734.65	0.14531	4.7167e-05	0.20714	supercritical
676.00	800.00	234.59	0.0042627	2995.3	3336.3	5.7504	2.2935	4.1253	735.34	0.14517	4.7171e-05	0.20696	supercritical
677.33	800.00	233.80	0.0042771	2999.7	3341.8	5.7562	2.2915	4.1124	736.02	0.14503	4.7175e-05	0.20678	supercritical
678.67	800.00	233.02	0.0042915	3004.0	3347.3	5.7620	2.2896	4.0996	736.71	0.14488	4.7180e-05	0.20660	supercritical
680.00	800.00	232.25	0.0043058	3008.3	3352.8	5.7677	2.2877	4.0870	737.40	0.14474	4.7185e-05	0.20643	supercritical
681.33	800.00	231.48	0.0043201	3012.6	3358.2	5.7734	2.2857	4.0746	738.08	0.14458	4.7191e-05	0.20626	supercritical
682.67	800.00	230.72	0.0043343	3016.9	3363.6	5.7791	2.2839	4.0622	738.77	0.14443	4.7198e-05	0.20610	supercritical
684.00	800.00	229.96	0.0043485	3021.2	3369.0	5.7847	2.2820	4.0500	739.46	0.14427	4.7204e-05	0.20594	supercritical
685.33	800.00	229.22	0.0043627	3025.4	3374.4	5.7904	2.2802	4.0380	740.14	0.14411	4.7212e-05	0.20578	supercritical
686.67	800.00	228.47	0.0043769	3029.7	3379.8	5.7960	2.2783	4.0260	740.83	0.14394	4.7219e-05	0.20563	supercritical
688.00	800.00	227.74	0.0043910	3033.9	3385.2	5.8016	2.2765	4.0143	741.52	0.14377	4.7228e-05	0.20547	supercritical
689.33	800.00	227.01	0.0044050	3038.1	3390.5	5.8071	2.2748	4.0026	742.21	0.14360	4.7236e-05	0.20533	supercritical
690.67	800.00	226.29	0.0044191	3042.3	3395.8	5.8126	2.2730	3.9911	742.89	0.14342	4.7245e-05	0.20518	supercritical
692.00	800.00	225.58	0.0044331	3046.5	3401.1	5.8182	2.2713	3.9797	743.58	0.14324	4.7255e-05	0.20504	supercritical
693.33	800.00	224.87	0.0044471	3050.7	3406.4	5.8236	2.2695	3.9684	744.27	0.14306	4.7265e-05	0.20490	supercritical
694.67	800.00	224.16	0.0044610	3054.8	3411.7	5.8291	2.2678	3.9572	744.95	0.14287	4.7275e-05	0.20476	supercritical
696.00	800.00	223.47	0.0044750	3059.0	3417.0	5.8345	2.2662	3.9462	745.64	0.14268	4.7286e-05	0.20463	supercritical
697.33	800.00	222.77	0.0044888	3063.1	3422.3	5.8400	2.2645	3.9353	746.32	0.14249	4.7297e-05	0.20450	supercritical
698.67	800.00	222.09	0.0045027	3067.3	3427.5	5.8454	2.2629	3.9245	747.01	0.14230	4.7309e-05	0.20437	supercritical
700.00	800.00	221.41	0.0045165	3071.4	3432.7	5.8507	2.2613	3.9138	747.70	0.14210	4.7321e-05	0.20425	supercritical
701.33	800.00	220.73	0.0045303	3075.5	3437.9	5.8561	2.2597	3.9033	748.38	0.14190	4.7333e-05	0.20413	supercritical
702.67	800.00	220.07	0.0045441	3079.6	3443.1	5.8614	2.2581	3.8928	749.06	0.14170	4.7346e-05	0.20401	supercritical
704.00	800.00	219.40	0.0045578	3083.7	3448.3	5.8667	2.2565	3.8825	749.75	0.14149	4.7359e-05	0.20389	supercritical
705.33	800.00	218.75	0.0045715	3087.8	3453.5	5.8720	2.2550	3.8723	750.43	0.14128	4.7373e-05	0.20377	supercritical
706.67	800.00	218.09	0.0045852	3091.8	3458.6	5.8773	2.2535	3.8622	751.12	0.14107	4.7387e-05	0.20366	supercritical
708.00	800.00	217.45	0.0045988	3095.9	3463.8	5.8825	2.2520	3.8523	751.80	0.14086	4.7401e-05	0.20355	supercritical
709.33	800.00	216.81	0.0046124	3099.9	3468.9	5.8877	2.2505	3.8424	752.48	0.14064	4.7415e-05	0.20344	supercritical
710.67	800.00	216.17	0.0046260	3103.9	3474.0	5.8930	2.2490	3.8326	753.16	0.14043	4.7430e-05	0.20334	supercritical
712.00	800.00	215.54	0.0046396	3108.0	3479.1	5.8981	2.2476	3.8230	753.84	0.14021	4.7446e-05	0.20323	supercritical
713.33	800.00	214.91	0.0046531	3112.0	3484.2	5.9033	2.2461	3.8134	754.52	0.13999	4.7461e-05	0.20313	supercritical
714.67	800.00	214.29	0.0046666	3116.0	3489.3	5.9084	2.2447	3.8040	755.20	0.13976	4.7477e-05	0.20303	supercritical
716.00	800.00	213.67	0.0046800	3120.0	3494.4	5.9136	2.2433	3.7946	755.88	0.13954	4.7493e-05	0.20293	supercritical
717.33	800.00	213.06	0.0046935	3123.9	3499.4	5.9187	2.2420	3.7854	756.56	0.13931	4.7510e-05	0.20284	supercritical
718.67	800.00	212.46	0.0047069	3127.9	3504.5	5.9238	2.2406	3.7763	757.24	0.13908	4.7527e-05	0.20274	supercritical
720.00	800.00	211.85	0.0047202	3131.9	3509.5	5.9288	2.2393	3.7672	757.92	0.13885	4.7544e-05	0.20265	supercritical
721.33	800.00	211.26	0.0047336	3135.8	3514.5	5.9339	2.2380	3.7583	758.59	0.13861	4.7561e-05	0.20256	supercritical
722.67	800.00	210.66	0.0047469	3139.8	3519.5	5.9389	2.2366	3.7494	759.27	0.13838	4.7579e-05	0.20248	supercritical
724.00	800.00	210.08	0.0047602	3143.7	3524.5	5.9439	2.2354	3.7407	759.94	0.13814	4.7597e-05	0.20239	supercritical
725.33	800.00	209.49	0.0047734	3147.6	3529.5	5.9489	2.2341	3.7320	760.62	0.13790	4.7615e-05	0.20230	supercritical
726.67	800.00	208.91	0.0047867	3151.5	3534.5	5.9539	2.2328	3.7235	761.29	0.13766	4.7634e-05	0.20222	supercritical
728.00	800.00	208.34	0.0047999	3155.4	3539.4	5.9588	2.2316	3.7150	761.97	0.13741	4.7653e-05	0.20214	supercritical
729.33	800.00	207.77	0.0048131	3159.3	3544.4	5.9638	2.2304	3.7066	762.64	0.13717	4.7672e-05	0.20206	supercritical
730.67	800.00	207.20	0.0048262	3163.2	3549.3	5.9687	2.2292	3.6984	763.31	0.13692	4.7691e-05	0.20198	supercritical
732.00	800.00	206.64	0.0048393	3167.1	3554.2	5.9736	2.2280	3.6902	763.98	0.13668	4.7711e-05	0.20191	supercritical
733.33	800.00	206.08	0.0048524	3170.9	3559.1	5.9785	2.2268	3.6821	764.65	0.13643	4.7731e-05	0.20183	supercritical
734.67	800.00	205.53	0.0048655	3174.8	3564.0	5.9834	2.2257	3.6741	765.32	0.13618	4.7751e-05	0.20176	supercritical
736.00	800.00	204.98	0.0048785	3178.7	3568.9	5.9882	2.2245	3.6661	765.99	0.13593	4.7772e-05	0.20169	supercritical
737.33	800.00	204.43	0.0048916	3182.5	3573.8	5.9930	2.2234	3.6583	766.65	0.13567	4.7792e-05	0.20162	supercritical
738.67	800.00	203.89	0.0049045	3186.3	3578.7	5.9979	2.2223	3.6505	767.32	0.13542	4.7813e-05	0.20155	supercritical
740.00	800.00	203.36	0.0049175	3190.2	3583.6	6.0027	2.2212	3.6428	767.99	0.13516	4.7834e-05	0.20148	supercritical
741.33	800.00	202.82	0.0049304	3194.0	3588.4	6.0075	2.2201	3.6352	768.65	0.13490	4.7856e-05	0.20141	supercritical
742.67	800.00	202.29	0.0049434	3197.8	3593.2	6.0122	2.2191	3.6277	769.32	0.13465	4.7877e-05	0.20135	supercritical
744.00	800.00	201.77	0.0049562	3201.6	3598.1	6.0170	2.2180	3.6203	769.98	0.13439	4.7899e-05	0.20129	supercritical
745.33	800.00	201.24	0.0049691	3205.4	3602.9	6.0217	2.2170	3.6129	770.64	0.13413	4.7921e-05	0.20122	supercritical
746.67	800.00	200.72	0.0049819	3209.2	3607.7	6.0264	2.2159	3.6056	771.30	0.13386	4.7943e-05	0.20116	supercritical
748.00	800.00	200.21	0.0049948	3212.9	3612.5	6.0311	2.2149	3.5984	771.96	0.13360	4.7966e-05	0.20110	supercritical
749.33	800.00	199.70	0.0050075	3216.7	3617.3	6.0358	2.2140	3.5913	772.62	0.13334	4.7988e-05	0.20104	supercritical
750.67	800.00	199.19	0.0050203	3220.5	3622.1	6.0405	2.2130	3.5843	773.28	0.13307	4.8011e-05	0.20099	supercritical
752.00	800.00	198.69	0.0050330	3224.2	3626.9	6.0452	2.2120	3.5773	773.94	0.13281	4.8034e-05	0.20093	supercritical
753.33	800.00	198.19	0.0050458	3228.0	3631.6	6.0498	2.2111	3.5704	774.60	0.13254	4.8058e-05	0.20087	supercritical
754.67	800.00	197.69	0.0050584	3231.7	3636.4	6.0544	2.2101	3.5636	775.25	0.13227	4.8081e-05	0.20082	supercritical
756.00	800.00	197.20	0.0050711	3235.4	3641.1	6.0591	2.2092	3.5568	775.91	0.13200	4.8105e-05	0.20077	supercritical
757.33	800.00	196.71	0.0050837	3239.2	3645.9	6.0637	2.2083	3.5501	776.56	0.13173	4.8129e-05	0.20072	supercritical
758.67	800.00	196.22	0.0050964	3242.9	3650.6	6.0682	2.2074	3.5435	777.21	0.13146	4.8153e-05	0.20066	supercritical
760.00	800.00	195.73	0.0051090	3246.6	3655.3	6.0728	2.2065	3.5370	777.87	0.13119	4.8177e-05	0.20061	supercritical
761.33	800.00	195.25	0.0051215	3250.3	3660.0	6.0774	2.2057	3.5305	778.52	0.13092	4.8201e-05	0.20057	supercritical
762.67	800.00	194.78	0.0051341	3254.0	3664.7	6.0819	2.2048	3.5241	779.17	0.13064	4.8226e-05	0.20052	supercritical
764.00	800.00	194.30	0.0051466	3257.7	3669.4	6.0864	2.2040	3.5177	779.82	0.13037	4.8251e-05	0.20047	supercritical
765.33	800.00	193.83	0.0051591	3261.4	3674.1	6.0910	2.2031	3.5114	780.47	0.13010	4.8276e-05	0.20042	supercritical
766.67	800.00	193.36	0.0051716	3265.1	3678.8	6.0955	2.2023	3.5052	781.11	0.12982	4.8301e-05	0.20038	supercritical
768.00	800.00	192.90	0.0051840	3268.7	3683.5	6.1000	2.2015	3.4991	781.76	0.12955	4.8326e-05	0.20033	supercritical
769.33	800.00	192.44	0.0051965	3272.4	3688.1	6.1044	2.2007	3.4930	782.41	0.12927	4.8352e-05	0.20029	supercritical
770.67	800.00	191.98	0.0052089	3276.1	3692.8	6.1089	2.2000	3.4870	783.05	0.12899	4.8377e-05	0.20025	supercritical
772.00	800.00	191.52	0.0052213	3279.7	3697.4	6.1133	2.1992	3.4810	783.70	0.12871	4.8403e-05	0.20021	supercritical
773.33	800.00	191.07	0.0052336	3283.4	3702.1	6.1178	2.1984	3.4751	784.34	0.12844	4.8429e-05	0.20017	supercritical
774.67	800.00	190.62	0.0052460	3287.0	3706.7	6.1222	2.1977	3.4693	784.98	0.12816	4.8455e-05	0.20013	supercritical
776.00	800.00	190.18	0.0052583	3290.7	3711.3	6.1266	2.1970	3.4635	785.62	0.12788	4.8481e-05	0.20009	supercritical
777.33	800.00	189.73	0.0052706	3294.3	3715.9	6.1310	2.1963	3.4578	786.26	0.12760	4.8508e-05	0.20005	supercritical
778.67	800.00	189.29	0.0052829	3297.9	3720.5	6.1354	2.1955	3.4521	786.90	0.12732	4.8534e-05	0.20001	supercritical
780.00	800.00	188.85	0.0052951	3301.5	3725.1	6.1397	2.1949	3.4465	787.54	0.12704	4.8561e-05	0.19997	supercritical
781.33	800.00	188.42	0.0053074	3305.1	3729.7	6.1441	2.1942	3.4410	788.18	0.12676	4.8588e-05	0.19994	supercritical
782.67	800.00	187.98	0.0053196	3308.7	3734.3	6.1484	2.1935	3.4355	788.81	0.12647	4.8615e-05	0.19990	supercritical
784.00	800.00	187.55	0.0053318	3312.3	3738.9	6.1528	2.1928	3.4301	789.45	0.12619	4.8642e-05	0.19987	supercritical
785.33	800.00	187.13	0.0053439	3315.9	3743.5	6.1571	2.1922	3.4247	790.08	0.12591	4.8669e-05	0.19983	supercritical
786.67	800.00	186.70	0.0053561	3319.5	3748.0	6.1614	2.1916	3.4194	790.71	0.12563	4.8697e-05	0.19980	supercritical
788.00	800.00	186.28	0.0053682	3323.1	3752.6	6.1657	2.1909	3.4141	791.35	0.12534	4.8724e-05	0.19977	supercritical
789.33	800.00	185.86	0.0053803	3326.7	3757.1	6.1700	2.1903	3.4089	791.98	0.12506	4.8752e-05	0.19973	supercritical
790.67	800.00	185.44	0.0053924	3330.3	3761.7	6.1743	2.1897	3.4037	792.61	0.12478	4.8779e-05	0.19970	supercritical
792.00	800.00	185.03	0.0054045	3333.8	3766.2	6.1785	2.1891	3.3986	793.24	0.12449	4.8807e-05	0.19967	supercritical
793.33	800.00	184.62	0.0054166	3337.4	3770.7	6.1828	2.1885	3.3936	793.87	0.12421	4.8835e-05	0.19964	supercritical
794.67	800.00	184.21	0.0054286	3341.0	3775.2	6.1870	2.1880	3.3886	794.49	0.12393	4.8864e-05	0.19961	supercritical
796.00	800.00	183.80	0.0054406	3344.5	3779.8	6.1912	2.1874	3.3836	795.12	0.12364	4.8892e-05	0.19958	supercritical
797.33	800.00	183.40	0.0054526	3348.1	3784.3	6.1954	2.1868	3.3787	795.75	0.12336	4.8920e-05	0.19955	supercritical
798.67	800.00	183.00	0.0054646	3351.6	3788.8	6.1996	2.1863	3.3738	796.37	0.12307	4.8949e-05	0.19953	supercritical
800.00	800.00	182.60	0.0054765	3355.1	3793.3	6.2038	2.1858	3.3690	796.99	0.12279	4.8977e-05	0.19950	supercritical
