Temperature (C)	Pressure (bar)	Density (kg/m3)	Volume (m3/kg)	Internal Energy (kJ/mol)	Enthalpy (kJ/mol)	Entropy (J/mol*K)	Cv (J/mol*K)	Cp (J/mol*K)	Sound Spd. (m/s)	Joule-Thomson (K/bar)	Viscosity (Pa*s)	Therm. Cond. (W/m*K)	Phase
0,01	500	1023,819	0,000976735	0,005934689	0,8857422	-0,01592741	72,42082	72,51863	1485,818	-0,02363502	0,001695997	0,5881838	liquid
1,343317	500	1023,679	0,000976869	0,1025358	0,9824633	0,3372935	72,4324	72,56451	1492,228	-0,02352244	0,001626077	0,5901601	liquid
2,676633	500	1023,52	0,000977021	0,1991796	1,079244	0,6890199	72,43766	72,60827	1498,47	-0,02341366	0,001560665	0,5921958	liquid
4,00995	500	1023,341	0,000977191	0,2958642	1,176082	1,039256	72,43708	72,65008	1504,544	-0,02330838	0,001499377	0,5942841	liquid
5,343267	500	1023,145	0,000977379	0,3925875	1,272975	1,388009	72,43107	72,69014	1510,453	-0,02320632	0,001441864	0,5964184	liquid
6,676583	500	1022,93	0,000977584	0,4893478	1,369919	1,735282	72,42004	72,7286	1516,2	-0,02310725	0,001387819	0,5985924	liquid
8,0099	500	1022,699	0,000977805	0,5861435	1,466914	2,081085	72,40431	72,76559	1521,787	-0,02301094	0,001336961	0,6008003	liquid
9,343217	500	1022,451	0,000978042	0,6829732	1,563958	2,425423	72,38419	72,80125	1527,216	-0,02291719	0,001289039	0,6030363	liquid
10,67653	500	1022,187	0,000978295	0,7798357	1,661048	2,768305	72,35995	72,83568	1532,49	-0,02282582	0,001243827	0,6052951	liquid
12,00985	500	1021,907	0,000978563	0,8767297	1,758183	3,109738	72,33183	72,86897	1537,611	-0,02273666	0,001201119	0,6075719	liquid
13,34317	500	1021,611	0,000978846	0,9736541	1,855362	3,449732	72,30006	72,90122	1542,581	-0,02264956	0,001160729	0,6098618	liquid
14,67648	500	1021,302	0,000979143	1,070608	1,952584	3,788294	72,26483	72,93248	1547,403	-0,02256437	0,001122488	0,6121604	liquid
16,0098	500	1020,977	0,000979454	1,16759	2,049846	4,125434	72,22632	72,96282	1552,08	-0,02248099	0,001086242	0,6144635	liquid
17,34312	500	1020,639	0,000979779	1,2646	2,147148	4,461161	72,1847	72,99231	1556,614	-0,02239928	0,001051851	0,6167673	liquid
18,67643	500	1020,287	0,000980117	1,361636	2,24449	4,795483	72,1401	73,02098	1561,007	-0,02231914	0,001019188	0,6190682	liquid
20,00975	500	1019,921	0,000980468	1,458699	2,341868	5,128411	72,09267	73,04889	1565,262	-0,02224048	0,000988135	0,6213627	liquid
21,34307	500	1019,542	0,000980832	1,555786	2,439284	5,459952	72,04252	73,07608	1569,381	-0,0221632	0,000958585	0,6236476	liquid
22,67638	500	1019,151	0,000981209	1,652898	2,536735	5,790117	71,98977	73,10257	1573,367	-0,02208722	0,000930442	0,6259202	liquid
24,0097	500	1018,747	0,000981598	1,750034	2,634221	6,118915	71,93452	73,1284	1577,223	-0,02201246	0,000903613	0,6281776	liquid
25,34302	500	1018,331	0,000981999	1,847193	2,731741	6,446355	71,87687	73,15359	1580,95	-0,02193885	0,000878017	0,6304174	liquid
26,67633	500	1017,903	0,000982412	1,944374	2,829295	6,772447	71,81691	73,17818	1584,551	-0,02186632	0,000853577	0,6326373	liquid
28,00965	500	1017,463	0,000982837	2,041577	2,926881	7,0972	71,75473	73,20219	1588,029	-0,02179481	0,000830223	0,6348352	liquid
29,34297	500	1017,012	0,000983273	2,138802	3,024498	7,420623	71,6904	73,22564	1591,386	-0,02172427	0,000807889	0,6370091	liquid
30,67628	500	1016,549	0,000983721	2,236047	3,122146	7,742725	71,62401	73,24854	1594,624	-0,02165463	0,000786516	0,6391574	liquid
32,0096	500	1016,075	0,000984179	2,333312	3,219825	8,063516	71,55561	73,27093	1597,745	-0,02158584	0,000766048	0,6412784	liquid
33,34292	500	1015,59	0,000984649	2,430597	3,317533	8,383005	71,48529	73,29281	1600,752	-0,02151786	0,000746434	0,6433707	liquid
34,67623	500	1015,095	0,000985129	2,527901	3,41527	8,701201	71,4131	73,31421	1603,647	-0,02145065	0,000727625	0,6454331	liquid
36,00955	500	1014,589	0,000985621	2,625224	3,513035	9,018114	71,33911	73,33515	1606,432	-0,02138415	0,000709577	0,6474645	liquid
37,34287	500	1014,073	0,000986122	2,722564	3,610827	9,333751	71,26339	73,35564	1609,109	-0,02131832	0,000692248	0,6494638	liquid
38,67618	500	1013,546	0,000986635	2,819923	3,708647	9,648124	71,18598	73,3757	1611,681	-0,02125313	0,000675601	0,6514301	liquid
40,0095	500	1013,01	0,000987157	2,917298	3,806493	9,961239	71,10695	73,39535	1614,149	-0,02118854	0,000659598	0,6533627	liquid
41,34282	500	1012,464	0,00098769	3,014691	3,904365	10,27311	71,02635	73,41461	1616,515	-0,02112452	0,000644208	0,655261	liquid
42,67613	500	1011,908	0,000988233	3,112099	4,002263	10,58374	70,94423	73,43349	1618,782	-0,02106103	0,000629397	0,6571245	liquid
44,00945	500	1011,342	0,000988785	3,209524	4,100185	10,89313	70,86066	73,45201	1620,951	-0,02099803	0,000615138	0,6589526	liquid
45,34277	500	1010,767	0,000989348	3,306964	4,198132	11,20131	70,77567	73,47019	1623,024	-0,0209355	0,000601402	0,6607451	liquid
46,67608	500	1010,182	0,00098992	3,404419	4,296103	11,50828	70,68933	73,48805	1625,003	-0,0208734	0,000588163	0,6625017	liquid
48,0094	500	1009,589	0,000990502	3,50189	4,394098	11,81404	70,60168	73,50561	1626,89	-0,02081172	0,000575399	0,6642222	liquid
49,34272	500	1008,986	0,000991094	3,599375	4,492116	12,11861	70,51276	73,52288	1628,687	-0,02075041	0,000563086	0,6659064	liquid
50,67603	500	1008,375	0,000991695	3,696874	4,590156	12,42199	70,42264	73,53988	1630,394	-0,02068946	0,000551202	0,6675545	liquid
52,00935	500	1007,754	0,000992305	3,794387	4,688219	12,7242	70,33135	73,55663	1632,015	-0,02062883	0,000539728	0,6691663	liquid
53,34267	500	1007,125	0,000992925	3,891914	4,786305	13,02523	70,23894	73,57315	1633,551	-0,02056851	0,000528645	0,6707421	liquid
54,67598	500	1006,487	0,000993554	3,989455	4,884412	13,32511	70,14546	73,58946	1635,002	-0,02050847	0,000517936	0,6722818	liquid
56,0093	500	1005,841	0,000994193	4,087008	4,982541	13,62383	70,05095	73,60557	1636,372	-0,02044868	0,000507583	0,6737857	liquid
57,34262	500	1005,187	0,00099484	4,184575	5,080691	13,92142	69,95546	73,62151	1637,66	-0,02038912	0,000497571	0,6752541	liquid
58,67593	500	1004,524	0,000995497	4,282155	5,178862	14,21786	69,85902	73,63729	1638,87	-0,02032978	0,000487884	0,6766871	liquid
60,00925	500	1003,853	0,000996162	4,379748	5,277055	14,51319	69,76169	73,65294	1640,002	-0,02027062	0,00047851	0,6780852	liquid
61,34257	500	1003,173	0,000996837	4,477354	5,375268	14,80739	69,66349	73,66846	1641,057	-0,02021163	0,000469434	0,6794486	liquid
62,67588	500	1002,486	0,00099752	4,574972	5,473501	15,10049	69,56448	73,68389	1642,037	-0,02015279	0,000460644	0,6807778	liquid
64,0092	500	1001,791	0,000998212	4,672602	5,571756	15,39248	69,46469	73,69923	1642,944	-0,02009409	0,000452128	0,682073	liquid
65,34252	500	1001,088	0,000998914	4,770245	5,67003	15,68339	69,36417	73,71451	1643,779	-0,02003549	0,000443875	0,6833349	liquid
66,67583	500	1000,377	0,000999623	4,867901	5,768325	15,97321	69,26294	73,72974	1644,542	-0,01997698	0,000435874	0,6845637	liquid
68,00915	500	999,6581	0,001000342	4,965569	5,86664	16,26195	69,16106	73,74494	1645,236	-0,01991854	0,000428114	0,6857599	liquid
69,34247	500	998,9318	0,001001069	5,063249	5,964976	16,54963	69,05855	73,76014	1645,86	-0,01986016	0,000420587	0,6869241	liquid
70,67578	500	998,198	0,001001805	5,160942	6,063332	16,83625	68,95545	73,77534	1646,418	-0,01980182	0,000413283	0,6880566	liquid
72,0091	500	997,4567	0,00100255	5,258647	6,161708	17,12182	68,8518	73,79057	1646,909	-0,0197435	0,000406194	0,6891581	liquid
73,34242	500	996,708	0,001003303	5,356365	6,260104	17,40634	68,74762	73,80584	1647,335	-0,01968519	0,00039931	0,6902289	liquid
74,67573	500	995,9519	0,001004065	5,454096	6,358521	17,68983	68,64297	73,82117	1647,697	-0,01962687	0,000392625	0,6912697	liquid
76,00905	500	995,1885	0,001004835	5,55184	6,456958	17,9723	68,53786	73,83658	1647,995	-0,01956851	0,00038613	0,6922809	liquid
77,34237	500	994,4178	0,001005614	5,649596	6,555416	18,25375	68,43234	73,85208	1648,232	-0,01951012	0,000379819	0,693263	liquid
78,67568	500	993,64	0,001006401	5,747366	6,653894	18,53419	68,32642	73,86769	1648,408	-0,01945167	0,000373684	0,6942166	liquid
80,009	500	992,8551	0,001007196	5,845148	6,752394	18,81363	68,22015	73,88342	1648,523	-0,01939315	0,00036772	0,6951422	liquid
81,34232	500	992,0632	0,001008	5,942945	6,850915	19,09207	68,11356	73,8993	1648,58	-0,01933454	0,00036192	0,6960402	liquid
82,67563	500	991,2642	0,001008813	6,040755	6,949456	19,36953	68,00666	73,91533	1648,578	-0,01927583	0,000356277	0,6969113	liquid
84,00895	500	990,4583	0,001009634	6,138579	7,04802	19,64601	67,8995	73,93154	1648,519	-0,01921701	0,000350788	0,6977558	liquid
85,34227	500	989,6455	0,001010463	6,236417	7,146605	19,92152	67,79209	73,94793	1648,403	-0,01915805	0,000345445	0,6985744	liquid
86,67558	500	988,8259	0,0010113	6,334269	7,245212	20,19607	67,68447	73,96452	1648,232	-0,01909896	0,000340244	0,6993674	liquid
88,0089	500	987,9995	0,001012146	6,432137	7,343841	20,46967	67,57666	73,98133	1648,006	-0,01903971	0,00033518	0,7001354	liquid
89,34222	500	987,1663	0,001013001	6,530019	7,442493	20,74232	67,46868	73,99837	1647,726	-0,0189803	0,000330249	0,7008789	liquid
90,67553	500	986,3265	0,001013863	6,627917	7,541168	21,01403	67,36057	74,01565	1647,392	-0,0189207	0,000325445	0,7015983	liquid
92,00885	500	985,48	0,001014734	6,72583	7,639866	21,28481	67,25234	74,03319	1647,007	-0,01886091	0,000320764	0,7022941	liquid
93,34217	500	984,6268	0,001015613	6,82376	7,738587	21,55467	67,14403	74,051	1646,569	-0,01880091	0,000316202	0,7029668	liquid
94,67548	500	983,7672	0,001016501	6,921706	7,837333	21,82362	67,03564	74,06909	1646,081	-0,0187407	0,000311756	0,7036167	liquid
96,0088	500	982,901	0,001017397	7,019669	7,936102	22,09166	66,9272	74,08748	1645,542	-0,01868025	0,000307421	0,7042444	liquid
97,34212	500	982,0283	0,001018301	7,117649	8,034897	22,35879	66,81874	74,10617	1644,954	-0,01861957	0,000303194	0,7048502	liquid
98,67543	500	981,1492	0,001019213	7,215647	8,133717	22,62504	66,71027	74,12518	1644,317	-0,01855863	0,000299071	0,7054345	liquid
100,0088	500	980,2636	0,001020134	7,313663	8,232562	22,8904	66,60182	74,14453	1643,631	-0,01849742	0,000295049	0,7059978	liquid
101,3421	500	979,3717	0,001021063	7,411697	8,331433	23,15489	66,4934	74,16421	1642,898	-0,01843594	0,000291125	0,7065403	liquid
102,6754	500	978,4735	0,001022	7,50975	8,430331	23,4185	66,38503	74,18425	1642,118	-0,01837417	0,000287295	0,7070626	liquid
104,0087	500	977,569	0,001022946	7,607823	8,529255	23,68126	66,27673	74,20466	1641,291	-0,01831209	0,000283557	0,707565	liquid
105,342	500	976,6582	0,0010239	7,705916	8,628207	23,94316	66,16851	74,22544	1640,418	-0,01824971	0,000279907	0,7080477	liquid
106,6753	500	975,7411	0,001024862	7,804029	8,727188	24,20421	66,0604	74,2466	1639,5	-0,01818701	0,000276343	0,7085112	liquid
108,0087	500	974,8179	0,001025833	7,902164	8,826196	24,46442	65,95241	74,26817	1638,537	-0,01812397	0,000272863	0,7089558	liquid
109,342	500	973,8885	0,001026812	8,000319	8,925234	24,7238	65,84455	74,29013	1637,531	-0,01806059	0,000269463	0,7093817	liquid
110,6753	500	972,9529	0,001027799	8,098497	9,024301	24,98236	65,73684	74,31251	1636,48	-0,01799686	0,000266142	0,7097894	liquid
112,0086	500	972,0113	0,001028795	8,196698	9,123398	25,24009	65,6293	74,33532	1635,386	-0,01793276	0,000262896	0,710179	liquid
113,3419	500	971,0635	0,001029799	8,294921	9,222526	25,49702	65,52193	74,35856	1634,25	-0,01786828	0,000259724	0,7105508	liquid
114,6752	500	970,1097	0,001030811	8,393168	9,321685	25,75314	65,41475	74,38224	1633,071	-0,01780342	0,000256623	0,7109052	liquid
116,0086	500	969,1498	0,001031832	8,49144	9,420876	26,00846	65,30777	74,40637	1631,85	-0,01773815	0,000253592	0,7112424	liquid
117,3419	500	968,1839	0,001032862	8,589736	9,5201	26,26299	65,20101	74,43097	1630,589	-0,01767248	0,000250628	0,7115626	liquid
118,6752	500	967,2121	0,001033899	8,688058	9,619357	26,51675	65,09448	74,45603	1629,286	-0,01760639	0,000247729	0,711866	liquid
120,0085	500	966,2342	0,001034946	8,786406	9,718647	26,76972	64,98818	74,48157	1627,943	-0,01753988	0,000244893	0,712153	liquid
121,3418	500	965,2504	0,001036001	8,884781	9,817972	27,02193	64,88214	74,5076	1626,561	-0,01747292	0,000242119	0,7124236	liquid
122,6751	500	964,2607	0,001037064	8,983183	9,917332	27,27337	64,77635	74,53411	1625,138	-0,01740551	0,000239405	0,7126781	liquid
124,0085	500	963,2651	0,001038136	9,081613	10,01673	27,52406	64,67083	74,56113	1623,677	-0,01733764	0,000236749	0,7129167	liquid
125,3418	500	962,2636	0,001039216	9,180071	10,11616	27,774	64,56559	74,58866	1622,177	-0,0172693	0,00023415	0,7131396	liquid
126,6751	500	961,2561	0,001040305	9,278559	10,21563	28,02319	64,46063	74,6167	1620,639	-0,01720047	0,000231605	0,7133469	liquid
128,0084	500	960,2429	0,001041403	9,377077	10,31513	28,27165	64,35597	74,64527	1619,062	-0,01713116	0,000229114	0,7135389	liquid
129,3417	500	959,2238	0,00104251	9,475626	10,41468	28,51939	64,25162	74,67437	1617,448	-0,01706134	0,000226674	0,7137156	liquid
130,675	500	958,1989	0,001043625	9,574205	10,51426	28,7664	64,14757	74,704	1615,797	-0,016991	0,000224285	0,7138772	liquid
132,0084	500	957,1681	0,001044749	9,672817	10,61389	29,01269	64,04385	74,73418	1614,109	-0,01692014	0,000221945	0,7140239	liquid
133,3417	500	956,1316	0,001045881	9,771462	10,71355	29,25828	63,94045	74,76491	1612,385	-0,01684875	0,000219652	0,7141557	liquid
134,675	500	955,0892	0,001047023	9,87014	10,81326	29,50316	63,83738	74,7962	1610,625	-0,01677681	0,000217406	0,7142729	liquid
136,0083	500	954,0411	0,001048173	9,968852	10,91301	29,74735	63,73466	74,82806	1608,828	-0,01670431	0,000215206	0,7143755	liquid
137,3416	500	952,9872	0,001049332	10,0676	11,0128	29,99084	63,63227	74,86049	1606,997	-0,01663124	0,000213049	0,7144636	liquid
138,6749	500	951,9276	0,0010505	10,16638	11,11263	30,23366	63,53024	74,8935	1605,13	-0,01655759	0,000210935	0,7145373	liquid
140,0083	500	950,8622	0,001051677	10,2652	11,21251	30,47579	63,42857	74,92709	1603,228	-0,01648336	0,000208862	0,7145967	liquid
141,3416	500	949,7911	0,001052863	10,36406	11,31244	30,71726	63,32725	74,96128	1601,292	-0,01640852	0,00020683	0,714642	liquid
142,6749	500	948,7142	0,001054058	10,46295	11,41241	30,95806	63,2263	74,99606	1599,321	-0,01633307	0,000204838	0,7146732	liquid
144,0082	500	947,6317	0,001055262	10,56188	11,51242	31,1982	63,12573	75,03145	1597,317	-0,016257	0,000202884	0,7146903	liquid
145,3415	500	946,5434	0,001056476	10,66085	11,61249	31,43769	63,02552	75,06745	1595,278	-0,01618029	0,000200967	0,7146934	liquid
146,6748	500	945,4493	0,001057698	10,75987	11,7126	31,67653	62,9257	75,10407	1593,207	-0,01610294	0,000199087	0,7146827	liquid
148,0082	500	944,3496	0,00105893	10,85892	11,81276	31,91474	62,82626	75,14132	1591,102	-0,01602492	0,000197243	0,7146581	liquid
149,3415	500	943,2442	0,001060171	10,95801	11,91298	32,15231	62,7272	75,17919	1588,965	-0,01594624	0,000195433	0,7146197	liquid
150,6748	500	942,133	0,001061421	11,05715	12,01324	32,38925	62,62854	75,21771	1586,795	-0,01586687	0,000193657	0,7145676	liquid
152,0081	500	941,0162	0,001062681	11,15633	12,11355	32,62557	62,53027	75,25687	1584,592	-0,01578682	0,000191914	0,7145017	liquid
153,3414	500	939,8936	0,00106395	11,25555	12,21392	32,86127	62,43239	75,29667	1582,358	-0,01570605	0,000190203	0,7144223	liquid
154,6747	500	938,7654	0,001065229	11,35482	12,31434	33,09636	62,33491	75,33714	1580,092	-0,01562457	0,000188523	0,7143291	liquid
156,0081	500	937,6314	0,001066517	11,45414	12,41482	33,33085	62,23783	75,37827	1577,794	-0,01554236	0,000186874	0,7142224	liquid
157,3414	500	936,4918	0,001067815	11,5535	12,51535	33,56473	62,14115	75,42006	1575,465	-0,0154594	0,000185255	0,7141022	liquid
158,6747	500	935,3464	0,001069123	11,65291	12,61594	33,79803	62,04488	75,46254	1573,105	-0,01537569	0,000183664	0,7139684	liquid
160,008	500	934,1953	0,00107044	11,75237	12,71658	34,03074	61,94902	75,5057	1570,714	-0,01529122	0,000182102	0,713821	liquid
161,3413	500	933,0385	0,001071767	11,85187	12,81728	34,26286	61,85356	75,54954	1568,292	-0,01520596	0,000180568	0,7136602	liquid
162,6746	500	931,876	0,001073104	11,95143	12,91804	34,49442	61,75851	75,59408	1565,84	-0,0151199	0,000179061	0,7134859	liquid
164,008	500	930,7078	0,001074451	12,05104	13,01887	34,7254	61,66388	75,63933	1563,358	-0,01503304	0,00017758	0,7132981	liquid
165,3413	500	929,5338	0,001075808	12,1507	13,11975	34,95581	61,56965	75,68529	1560,846	-0,01494536	0,000176124	0,7130968	liquid
166,6746	500	928,3542	0,001077175	12,25041	13,22069	35,18567	61,47585	75,73196	1558,304	-0,01485685	0,000174694	0,7128821	liquid
168,0079	500	927,1687	0,001078552	12,35018	13,3217	35,41497	61,38245	75,77936	1555,732	-0,01476748	0,000173288	0,7126539	liquid
169,3412	500	925,9775	0,00107994	12,45	13,42277	35,64373	61,28947	75,82748	1553,131	-0,01467726	0,000171906	0,7124123	liquid
170,6745	500	924,7806	0,001081338	12,54987	13,5239	35,87194	61,19691	75,87635	1550,501	-0,01458615	0,000170547	0,7121572	liquid
172,0079	500	923,5779	0,001082746	12,6498	13,6251	36,09962	61,10476	75,92596	1547,842	-0,01449416	0,000169212	0,7118886	liquid
173,3412	500	922,3694	0,001084164	12,74979	13,72637	36,32676	61,01304	75,97632	1545,154	-0,01440126	0,000167898	0,7116066	liquid
174,6745	500	921,1551	0,001085593	12,84984	13,8277	36,55338	60,92173	76,02744	1542,438	-0,01430744	0,000166606	0,7113111	liquid
176,0078	500	919,935	0,001087033	12,94995	13,92911	36,77948	60,83083	76,07933	1539,693	-0,01421268	0,000165336	0,7110021	liquid
177,3411	500	918,7091	0,001088484	13,05011	14,03058	37,00506	60,74036	76,132	1536,92	-0,01411697	0,000164086	0,7106796	liquid
178,6744	500	917,4774	0,001089945	13,15034	14,13212	37,23014	60,6503	76,18545	1534,119	-0,0140203	0,000162856	0,7103436	liquid
180,0078	500	916,2399	0,001091417	13,25063	14,23374	37,45471	60,56066	76,23968	1531,29	-0,01392265	0,000161647	0,7099941	liquid
181,3411	500	914,9964	0,0010929	13,35098	14,33543	37,67878	60,47145	76,29472	1528,434	-0,01382399	0,000160456	0,7096311	liquid
182,6744	500	913,7471	0,001094395	13,4514	14,43719	37,90235	60,38264	76,35056	1525,549	-0,01372432	0,000159285	0,7092545	liquid
184,0077	500	912,4919	0,0010959	13,55188	14,53903	38,12544	60,29426	76,40722	1522,638	-0,01362362	0,000158132	0,7088643	liquid
185,341	500	911,2308	0,001097417	13,65243	14,64094	38,34804	60,20629	76,46471	1519,699	-0,01352187	0,000156997	0,7084606	liquid
186,6743	500	909,9638	0,001098945	13,75304	14,74293	38,57017	60,11875	76,52302	1516,734	-0,01341906	0,00015588	0,7080432	liquid
188,0077	500	908,6909	0,001100484	13,85372	14,845	38,79182	60,03161	76,58218	1513,741	-0,01331516	0,00015478	0,7076123	liquid
189,341	500	907,4119	0,001102035	13,95447	14,94715	39,013	59,9449	76,64218	1510,722	-0,01321017	0,000153697	0,7071677	liquid
190,6743	500	906,127	0,001103598	14,05529	15,04937	39,23373	59,8586	76,70305	1507,676	-0,01310405	0,000152631	0,7067094	liquid
192,0076	500	904,8361	0,001105173	14,15619	15,15169	39,45399	59,77271	76,76478	1504,604	-0,0129968	0,00015158	0,7062374	liquid
193,3409	500	903,5391	0,001106759	14,25715	15,25408	39,6738	59,68724	76,82739	1501,505	-0,01288839	0,000150546	0,7057517	liquid
194,6742	500	902,2361	0,001108357	14,35819	15,35656	39,89317	59,60219	76,89089	1498,381	-0,01277881	0,000149527	0,7052523	liquid
196,0076	500	900,927	0,001109968	14,4593	15,45912	40,11209	59,51754	76,95529	1495,23	-0,01266804	0,000148523	0,704739	liquid
197,3409	500	899,6118	0,001111591	14,56049	15,56177	40,33057	59,43331	77,02059	1492,054	-0,01255605	0,000147534	0,704212	liquid
198,6742	500	898,2905	0,001113226	14,66175	15,6645	40,54862	59,34949	77,08681	1488,851	-0,01244283	0,000146559	0,7036712	liquid
200,0075	500	896,9631	0,001114873	14,76309	15,76733	40,76625	59,26608	77,15396	1485,624	-0,01232835	0,000145598	0,7031165	liquid
201,3408	500	895,6294	0,001116533	14,86451	15,87025	40,98345	59,18308	77,22204	1482,371	-0,0122126	0,000144652	0,7025479	liquid
202,6741	500	894,2896	0,001118206	14,96601	15,97325	41,20024	59,10049	77,29108	1479,092	-0,01209556	0,000143718	0,7019654	liquid
204,0075	500	892,9435	0,001119892	15,0676	16,07635	41,41661	59,01831	77,36108	1475,789	-0,0119772	0,000142799	0,701369	liquid
205,3408	500	891,5911	0,00112159	15,16926	16,17955	41,63258	58,93654	77,43205	1472,46	-0,0118575	0,000141892	0,7007585	liquid
206,6741	500	890,2325	0,001123302	15,27101	16,28284	41,84814	58,85517	77,504	1469,107	-0,01173643	0,000140997	0,7001341	liquid
208,0074	500	888,8675	0,001125027	15,37284	16,38622	42,06331	58,77421	77,57695	1465,729	-0,01161399	0,000140116	0,6994956	liquid
209,3407	500	887,4961	0,001126765	15,47476	16,48971	42,27808	58,69365	77,6509	1462,326	-0,01149014	0,000139246	0,698843	liquid
210,674	500	886,1184	0,001128517	15,57676	16,59329	42,49247	58,61349	77,72588	1458,898	-0,01136485	0,000138388	0,6981762	liquid
212,0074	500	884,7342	0,001130283	15,67886	16,69697	42,70648	58,53374	77,80189	1455,447	-0,01123811	0,000137542	0,6974954	liquid
213,3407	500	883,3436	0,001132062	15,78104	16,80076	42,92011	58,45439	77,87894	1451,971	-0,01110989	0,000136708	0,6968003	liquid
214,674	500	881,9465	0,001133856	15,88331	16,90465	43,13336	58,37544	77,95706	1448,47	-0,01098017	0,000135884	0,6960909	liquid
216,0073	500	880,5428	0,001135663	15,98568	17,00864	43,34625	58,29689	78,03625	1444,946	-0,01084892	0,000135072	0,6953673	liquid
217,3406	500	879,1325	0,001137485	16,08814	17,11274	43,55878	58,21874	78,11652	1441,398	-0,01071611	0,00013427	0,6946294	liquid
218,6739	500	877,7157	0,001139321	16,19069	17,21695	43,77095	58,14098	78,19789	1437,826	-0,01058172	0,000133479	0,6938771	liquid
220,0073	500	876,2922	0,001141172	16,29334	17,32127	43,98276	58,06363	78,28038	1434,23	-0,01044572	0,000132697	0,6931103	liquid
221,3406	500	874,862	0,001143037	16,39609	17,4257	44,19423	57,98666	78,364	1430,61	-0,01030809	0,000131926	0,6923291	liquid
222,6739	500	873,425	0,001144918	16,49894	17,53024	44,40536	57,9101	78,44876	1426,967	-0,01016878	0,000131165	0,6915335	liquid
224,0072	500	871,9813	0,001146814	16,60188	17,63489	44,61615	57,83393	78,53469	1423,3	-0,01002779	0,000130414	0,6907232	liquid
225,3405	500	870,5307	0,001148725	16,70493	17,73966	44,8266	57,75815	78,62179	1419,611	-0,00988507	0,000129672	0,6898984	liquid
226,6738	500	869,0733	0,001150651	16,80808	17,84455	45,03673	57,68276	78,71008	1415,898	-0,009740598	0,000128939	0,6890589	liquid
228,0072	500	867,609	0,001152593	16,91134	17,94955	45,24653	57,60776	78,79958	1412,161	-0,009594343	0,000128215	0,6882047	liquid
229,3405	500	866,1376	0,001154551	17,0147	18,05468	45,45602	57,53316	78,89031	1408,402	-0,009446272	0,0001275	0,6873357	liquid
230,6738	500	864,6593	0,001156525	17,11817	18,15992	45,66519	57,45895	78,98228	1404,62	-0,009296355	0,000126793	0,6864519	liquid
232,0071	500	863,174	0,001158515	17,22175	18,2653	45,87406	57,38512	79,07552	1400,815	-0,009144558	0,000126096	0,6855532	liquid
233,3404	500	861,6815	0,001160522	17,32544	18,37079	46,08262	57,31168	79,17003	1396,987	-0,008990848	0,000125406	0,6846397	liquid
234,6737	500	860,1818	0,001162545	17,42924	18,47641	46,29088	57,23863	79,26585	1393,137	-0,008835193	0,000124725	0,6837111	liquid
236,0071	500	858,6749	0,001164585	17,53315	18,58216	46,49885	57,16597	79,36298	1389,263	-0,008677556	0,000124051	0,6827675	liquid
237,3404	500	857,1608	0,001166642	17,63718	18,68805	46,70654	57,0937	79,46145	1385,368	-0,008517902	0,000123386	0,6818087	liquid
238,6737	500	855,6394	0,001168717	17,74132	18,79406	46,91394	57,02181	79,56128	1381,45	-0,008356196	0,000122728	0,6808348	liquid
240,007	500	854,1105	0,001170809	17,84559	18,90021	47,12106	56,9503	79,66248	1377,509	-0,0081924	0,000122077	0,6798457	liquid
241,3403	500	852,5742	0,001172918	17,94997	19,00649	47,3279	56,87918	79,76509	1373,547	-0,008026476	0,000121434	0,6788413	liquid
242,6736	500	851,0304	0,001175046	18,05447	19,11291	47,53449	56,80845	79,86912	1369,562	-0,007858385	0,000120798	0,6778214	liquid
244,007	500	849,4791	0,001177192	18,1591	19,21947	47,7408	56,7381	79,97459	1365,555	-0,007688089	0,000120169	0,6767862	liquid
245,3403	500	847,9201	0,001179356	18,26385	19,32618	47,94686	56,66813	80,08153	1361,526	-0,007515547	0,000119547	0,6757354	liquid
246,6736	500	846,3535	0,001181539	18,36873	19,43302	48,15267	56,59854	80,18995	1357,475	-0,007340717	0,000118932	0,674669	liquid
248,0069	500	844,7791	0,001183741	18,47374	19,54001	48,35823	56,52934	80,29989	1353,402	-0,007163557	0,000118324	0,673587	liquid
249,3402	500	843,1969	0,001185963	18,57888	19,64715	48,56355	56,46052	80,41138	1349,307	-0,006984023	0,000117721	0,6724892	liquid
250,6735	500	841,6068	0,001188203	18,68415	19,75444	48,76863	56,39209	80,52442	1345,191	-0,006802072	0,000117125	0,6713757	liquid
252,0069	500	840,0088	0,001190464	18,78956	19,86188	48,97347	56,32403	80,63905	1341,053	-0,006617658	0,000116536	0,6702462	liquid
253,3402	500	838,4028	0,001192744	18,8951	19,96948	49,1781	56,25636	80,7553	1336,893	-0,006430734	0,000115952	0,6691008	liquid
254,6735	500	836,7886	0,001195045	19,00078	20,07723	49,3825	56,18907	80,8732	1332,711	-0,006241254	0,000115375	0,6679393	liquid
256,0068	500	835,1663	0,001197366	19,10659	20,18514	49,58668	56,12216	80,99276	1328,509	-0,006049168	0,000114803	0,6667616	liquid
257,3401	500	833,5358	0,001199709	19,21255	20,29321	49,79065	56,05563	81,11403	1324,284	-0,005854427	0,000114236	0,6655678	liquid
258,6734	500	831,8969	0,001202072	19,31866	20,40144	49,99442	55,98949	81,23703	1320,039	-0,00565698	0,000113676	0,6643577	liquid
260,0068	500	830,2497	0,001204457	19,42491	20,50984	50,19799	55,92373	81,36178	1315,771	-0,005456774	0,000113121	0,6631312	liquid
261,3401	500	828,594	0,001206864	19,5313	20,6184	50,40136	55,85835	81,48833	1311,483	-0,005253755	0,000112571	0,6618882	liquid
262,6734	500	826,9297	0,001209293	19,63785	20,72714	50,60454	55,79336	81,6167	1307,173	-0,00504787	0,000112026	0,6606286	liquid
264,0067	500	825,2568	0,001211744	19,74455	20,83605	50,80754	55,72875	81,74693	1302,843	-0,004839062	0,000111487	0,6593525	liquid
265,34	500	823,5752	0,001214218	19,8514	20,94513	51,01037	55,66452	81,87905	1298,491	-0,004627273	0,000110952	0,6580596	liquid
266,6733	500	821,8848	0,001216716	19,95841	21,05439	51,21302	55,60068	82,0131	1294,118	-0,004412443	0,000110423	0,6567499	liquid
268,0067	500	820,1855	0,001219236	20,06558	21,16383	51,4155	55,53722	82,1491	1289,724	-0,004194514	0,000109898	0,6554233	liquid
269,34	500	818,4772	0,001221781	20,17291	21,27345	51,61782	55,47415	82,2871	1285,308	-0,003973421	0,000109377	0,6540797	liquid
270,6733	500	816,7599	0,00122435	20,28041	21,38326	51,81999	55,41147	82,42714	1280,872	-0,003749103	0,000108862	0,6527191	liquid
272,0066	500	815,0333	0,001226944	20,38807	21,49325	52,022	55,34918	82,56925	1276,415	-0,003521493	0,000108351	0,6513413	liquid
273,3399	500	813,2975	0,001229562	20,4959	21,60344	52,22388	55,28727	82,71347	1271,937	-0,003290524	0,000107844	0,6499463	liquid
274,6732	500	811,5524	0,001232206	20,60389	21,71382	52,42561	55,22576	82,85985	1267,438	-0,003056127	0,000107341	0,648534	liquid
276,0066	500	809,7978	0,001234876	20,71207	21,8244	52,62721	55,16463	83,00843	1262,919	-0,002818232	0,000106843	0,6471044	liquid
277,3399	500	808,0336	0,001237572	20,82042	21,93518	52,82869	55,1039	83,15924	1258,378	-0,002576767	0,000106348	0,6456572	liquid
278,6732	500	806,2597	0,001240295	20,92894	22,04615	53,03005	55,04356	83,31235	1253,817	-0,002331656	0,000105858	0,6441926	liquid
280,0065	500	804,4761	0,001243045	21,03765	22,15734	53,23129	54,98362	83,46778	1249,235	-0,002082824	0,000105371	0,6427103	liquid
281,3398	500	802,6826	0,001245822	21,14654	22,26873	53,43243	54,92407	83,62559	1244,632	-0,001830192	0,000104889	0,6412104	liquid
282,6731	500	800,8791	0,001248628	21,25562	22,38034	53,63346	54,86493	83,78584	1240,009	-0,001573679	0,000104409	0,6396928	liquid
284,0065	500	799,0654	0,001251462	21,36489	22,49216	53,8344	54,80618	83,94855	1235,365	-0,001313203	0,000103934	0,6381574	liquid
285,3398	500	797,2416	0,001254325	21,47435	22,6042	54,03526	54,74784	84,1138	1230,7	-0,001048678	0,000103462	0,6366041	liquid
286,6731	500	795,4074	0,001257217	21,58401	22,71646	54,23603	54,6899	84,28164	1226,014	-0,000780017	0,000102994	0,635033	liquid
288,0064	500	793,5627	0,00126014	21,69386	22,82895	54,43672	54,63236	84,45211	1221,308	-0,000507129	0,000102528	0,6334439	liquid
289,3397	500	791,7074	0,001263093	21,80392	22,94167	54,63735	54,57524	84,62527	1216,581	-0,000229923	0,000102066	0,6318369	liquid
290,673	500	789,8415	0,001266077	21,91418	23,05462	54,83791	54,51852	84,80119	1211,834	5,17E-05	0,000101608	0,6302119	liquid
292,0064	500	787,9646	0,001269093	22,02465	23,1678	55,03842	54,46222	84,97993	1207,066	0,000337829	0,000101152	0,6285688	liquid
293,3397	500	786,0768	0,00127214	22,13533	23,28123	55,23888	54,40633	85,16154	1202,277	0,000628573	0,000100699	0,6269078	liquid
294,673	500	784,1778	0,001275221	22,24623	23,3949	55,43931	54,35087	85,34609	1197,468	0,000924032	0,00010025	0,6252287	liquid
296,0063	500	782,2676	0,001278335	22,35734	23,50882	55,63969	54,29582	85,53365	1192,638	0,001224314	9,98E-05	0,6235317	liquid
297,3396	500	780,346	0,001281483	22,46867	23,62299	55,84005	54,2412	85,72429	1187,788	0,001529528	9,94E-05	0,6218166	liquid
298,6729	500	778,4129	0,001284665	22,58023	23,73741	56,04039	54,18701	85,91807	1182,917	0,001839786	9,89E-05	0,6200835	liquid
300,0063	500	776,468	0,001287883	22,69202	23,8521	56,24073	54,13324	86,11506	1178,025	0,002155206	9,85E-05	0,6183325	liquid
301,3396	500	774,5113	0,001291137	22,80404	23,96705	56,44105	54,07992	86,31536	1173,112	0,002475905	9,80E-05	0,6165636	liquid
302,6729	500	772,5426	0,001294427	22,9163	24,08227	56,64138	54,02702	86,51902	1168,179	0,002802009	9,76E-05	0,6147769	liquid
304,0062	500	770,5617	0,001297755	23,0288	24,19777	56,84172	53,97457	86,72614	1163,226	0,003133644	9,72E-05	0,6129724	liquid
305,3395	500	768,5684	0,00130112	23,14154	24,31354	57,04208	53,92257	86,93679	1158,252	0,00347094	9,67E-05	0,6111502	liquid
306,6728	500	766,5627	0,001304525	23,25453	24,4296	57,24247	53,87101	87,15106	1153,257	0,003814032	9,63E-05	0,6093105	liquid
308,0062	500	764,5443	0,001307969	23,36777	24,54594	57,4429	53,81991	87,36903	1148,241	0,004163059	9,59E-05	0,6074532	liquid
309,3395	500	762,513	0,001311453	23,48127	24,66258	57,64337	53,76927	87,59081	1143,205	0,004518165	9,55E-05	0,6055787	liquid
310,6728	500	760,4687	0,001314978	23,59503	24,77952	57,84389	53,71908	87,81648	1138,148	0,004879496	9,51E-05	0,603687	liquid
312,0061	500	758,4112	0,001318546	23,70906	24,89676	58,04448	53,66937	88,04615	1133,07	0,005247205	9,46E-05	0,6017782	liquid
313,3394	500	756,3403	0,001322156	23,82335	25,0143	58,24513	53,62012	88,27991	1127,971	0,00562145	9,42E-05	0,5998526	liquid
314,6727	500	754,2557	0,00132581	23,93793	25,13217	58,44587	53,57136	88,51786	1122,852	0,006002391	9,38E-05	0,5979104	liquid
316,0061	500	752,1574	0,001329509	24,05278	25,25035	58,64669	53,52307	88,76012	1117,712	0,006390195	9,34E-05	0,5959517	liquid
317,3394	500	750,0451	0,001333253	24,16791	25,36886	58,84762	53,47527	89,00679	1112,551	0,006785036	9,30E-05	0,5939768	liquid
318,6727	500	747,9185	0,001337044	24,28334	25,4877	59,04865	53,42797	89,258	1107,37	0,007187091	9,26E-05	0,591986	liquid
320,006	500	745,7775	0,001340882	24,39906	25,60688	59,2498	53,38116	89,51386	1102,167	0,007596543	9,22E-05	0,5899794	liquid
321,3393	500	743,6219	0,001344769	24,51509	25,7264	59,45108	53,33486	89,77449	1096,944	0,008013582	9,18E-05	0,5879574	liquid
322,6726	500	741,4513	0,001348706	24,63141	25,84628	59,65249	53,28907	90,04003	1091,7	0,008438402	9,13E-05	0,5859203	liquid
324,006	500	739,2657	0,001352694	24,74805	25,96651	59,85406	53,24379	90,3106	1086,435	0,008871207	9,09E-05	0,5838684	liquid
325,3393	500	737,0647	0,001356733	24,86501	26,08711	60,05578	53,19904	90,58635	1081,15	0,009312205	9,05E-05	0,5818021	liquid
326,6726	500	734,8481	0,001360825	24,98229	26,20807	60,25768	53,15482	90,86741	1075,843	0,00976161	9,01E-05	0,5797216	liquid
328,0059	500	732,6157	0,001364972	25,0999	26,32942	60,45976	53,11114	91,15394	1070,516	0,01021965	8,97E-05	0,5776273	liquid
329,3392	500	730,3672	0,001369174	25,21785	26,45115	60,66203	53,068	91,44608	1065,167	0,01068654	8,93E-05	0,5755197	liquid
330,6725	500	728,1022	0,001373433	25,33614	26,57327	60,8645	53,02541	91,74399	1059,798	0,01116253	8,89E-05	0,5733991	liquid
332,0059	500	725,8207	0,001377751	25,45477	26,6958	61,0672	52,98338	92,04784	1054,408	0,01164787	8,85E-05	0,5712659	liquid
333,3392	500	723,5222	0,001382128	25,57377	26,81874	61,27012	52,94192	92,35779	1048,997	0,0121428	8,81E-05	0,5691205	liquid
334,6725	500	721,2066	0,001386565	25,69312	26,94209	61,47328	52,90104	92,67403	1043,565	0,0126476	8,77E-05	0,5669635	liquid
336,0058	500	718,8734	0,001391066	25,81284	27,06587	61,6767	52,86074	92,99673	1038,113	0,01316252	8,74E-05	0,5647951	liquid
337,3391	500	716,5224	0,00139563	25,93295	27,19008	61,88039	52,82103	93,32609	1032,639	0,01368785	8,70E-05	0,562616	liquid
338,6724	500	714,1533	0,00140026	26,05343	27,31474	62,08436	52,78192	93,66229	1027,145	0,01422388	8,66E-05	0,5604265	liquid
340,0058	500	711,7658	0,001404957	26,17431	27,43984	62,28862	52,74342	94,00554	1021,63	0,01477091	8,62E-05	0,558227	liquid
341,3391	500	709,3595	0,001409722	26,29559	27,56542	62,4932	52,70554	94,35606	1016,095	0,01532924	8,58E-05	0,5560181	liquid
342,6724	500	706,9342	0,001414559	26,41728	27,69146	62,69809	52,66829	94,71406	1010,539	0,01589921	8,54E-05	0,5538002	liquid
344,0057	500	704,4893	0,001419468	26,53938	27,81799	62,90333	52,63168	95,07976	1004,962	0,01648114	8,50E-05	0,5515738	liquid
345,339	500	702,0247	0,001424451	26,66191	27,94501	63,10892	52,59572	95,45341	999,3648	0,01707538	8,46E-05	0,5493394	liquid
346,6723	500	699,54	0,001429511	26,78488	28,07253	63,31489	52,56041	95,83524	993,7474	0,01768227	8,42E-05	0,5470973	liquid
348,0057	500	697,0347	0,001434649	26,90829	28,20057	63,52124	52,52577	96,22551	988,1096	0,01830219	8,38E-05	0,544848	liquid
349,339	500	694,5084	0,001439867	27,03215	28,32913	63,72799	52,49181	96,62448	982,4518	0,01893552	8,34E-05	0,5425919	liquid
350,6723	500	691,9609	0,001445168	27,15648	28,45823	63,93517	52,45854	97,03243	976,7739	0,01958266	8,30E-05	0,5403295	liquid
352,0056	500	689,3916	0,001450554	27,28128	28,58789	64,14278	52,42597	97,44963	971,0761	0,020244	8,26E-05	0,538061	liquid
353,3389	500	686,8001	0,001456028	27,40657	28,7181	64,35085	52,39411	97,87639	965,3586	0,02091998	8,23E-05	0,535787	liquid
354,6722	500	684,1861	0,001461591	27,53234	28,84889	64,55939	52,36297	98,31301	959,6216	0,02161103	8,19E-05	0,5335076	liquid
356,0056	500	681,5491	0,001467246	27,65863	28,98027	64,76843	52,33257	98,7598	953,8652	0,0223176	8,15E-05	0,5312232	liquid
357,3389	500	678,8885	0,001472996	27,78543	29,11225	64,97799	52,30291	99,2171	948,0897	0,02304017	8,11E-05	0,528934	liquid
358,6722	500	676,2041	0,001478844	27,91276	29,24485	65,18808	52,27401	99,68525	942,2951	0,02377923	8,07E-05	0,5266403	liquid
360,0055	500	673,4951	0,001484792	28,04064	29,37808	65,39872	52,24588	100,1646	936,4819	0,02453528	8,03E-05	0,5243422	liquid
361,3388	500	670,7613	0,001490843	28,16906	29,51196	65,60994	52,21852	100,6556	930,6503	0,02530885	7,99E-05	0,5220398	liquid
362,6721	500	668,002	0,001497002	28,29805	29,6465	65,82176	52,19196	101,1585	924,8005	0,02610048	7,95E-05	0,5197332	liquid
364,0055	500	665,2167	0,001503269	28,42763	29,78172	66,03421	52,1662	101,6737	918,9327	0,02691074	7,91E-05	0,5174224	liquid
365,3388	500	662,4049	0,001509651	28,55779	29,91763	66,2473	52,14126	102,2018	913,0474	0,02774021	7,87E-05	0,5151074	liquid
366,6721	500	659,5661	0,001516148	28,68857	30,05426	66,46106	52,11714	102,7431	907,1449	0,02858951	7,83E-05	0,512788	liquid
368,0054	500	656,6996	0,001522766	28,81996	30,19161	66,67552	52,09387	103,2982	901,2254	0,02945928	7,79E-05	0,510464	liquid
369,3387	500	653,8048	0,001529508	28,952	30,32972	66,8907	52,07144	103,8673	895,2894	0,03035017	7,75E-05	0,5081352	liquid
370,672	500	650,8813	0,001536379	29,08468	30,4686	67,10662	52,04988	104,4512	889,3373	0,03126288	7,71E-05	0,5058011	liquid
372,0054	500	647,9282	0,001543381	29,21804	30,60826	67,32333	52,02919	105,0502	883,3693	0,03219812	7,67E-05	0,5034615	liquid
373,3387	500	644,945	0,00155052	29,35208	30,74873	67,54084	52,00939	105,665	877,386	0,03315663	7,63E-05	0,5011157	liquid
374,672	500	641,9311	0,0015578	29,48683	30,89004	67,75919	51,99049	106,2961	871,3878	0,03413919	7,59E-05	0,4987633	supercritical
376,0053	500	638,8857	0,001565225	29,6223	31,0322	67,9784	51,9725	106,9441	865,3751	0,03514662	7,55E-05	0,4964033	supercritical
377,3386	500	635,8081	0,001572802	29,75851	31,17523	68,19851	51,95542	107,6097	859,3484	0,03617974	7,51E-05	0,4940352	supercritical
378,6719	500	632,6976	0,001580534	29,89547	31,31916	68,41955	51,93928	108,2934	853,3082	0,03723945	7,47E-05	0,491658	supercritical
380,0053	500	629,5534	0,001588428	30,03322	31,46401	68,64155	51,92408	108,996	847,2549	0,03832666	7,43E-05	0,4892708	supercritical
381,3386	500	626,3749	0,001596488	30,17176	31,60982	68,86456	51,90982	109,7181	841,1893	0,03944232	7,39E-05	0,4868725	supercritical
382,6719	500	623,1611	0,001604722	30,31113	31,7566	69,0886	51,89653	110,4605	835,1117	0,04058741	7,35E-05	0,4844618	supercritical
384,0052	500	619,9113	0,001613134	30,45133	31,90439	69,31371	51,88421	111,224	829,0229	0,04176297	7,31E-05	0,4820376	supercritical
385,3385	500	616,6246	0,001621732	30,59241	32,0532	69,53994	51,87286	112,0093	822,9235	0,04297006	7,27E-05	0,4795985	supercritical
386,6718	500	613,3001	0,001630523	30,73437	32,20308	69,76732	51,8625	112,8173	816,8142	0,04420978	7,22E-05	0,4771431	supercritical
388,0052	500	609,9371	0,001639513	30,87724	32,35406	69,9959	51,85313	113,6488	810,6959	0,04548329	7,18E-05	0,4746698	supercritical
389,3385	500	606,5345	0,001648711	31,02106	32,50616	70,22572	51,84475	114,5046	804,5694	0,04679174	7,14E-05	0,4721769	supercritical
390,6718	500	603,0913	0,001658124	31,16583	32,65941	70,45682	51,83739	115,3855	798,4356	0,04813635	7,10E-05	0,4696627	supercritical
392,0051	500	599,6068	0,00166776	31,3116	32,81386	70,68925	51,83103	116,2925	792,2958	0,04951834	7,06E-05	0,4671255	supercritical
393,3384	500	596,0798	0,001677628	31,45839	32,96953	70,92305	51,82568	117,2264	786,1513	0,05093897	7,01E-05	0,4645633	supercritical
394,6717	500	592,5094	0,001687737	31,60622	33,12647	71,15829	51,82135	118,188	780,0034	0,0523995	6,97E-05	0,4619742	supercritical
396,0051	500	588,8946	0,001698097	31,75513	33,28471	71,395	51,81803	119,178	773,8538	0,05390118	6,93E-05	0,4593561	supercritical
397,3384	500	585,2344	0,001708717	31,90514	33,44429	71,63324	51,81572	120,1973	767,7045	0,05544528	6,89E-05	0,4567069	supercritical
398,6717	500	581,5277	0,001719609	32,05628	33,60524	71,87306	51,81443	121,2464	761,5577	0,05703303	6,84E-05	0,4540245	supercritical
400,005	500	577,7735	0,001730782	32,20859	33,76762	72,11451	51,81413	122,3259	755,4158	0,05866564	6,80E-05	0,4513066	supercritical
401,3383	500	573,9708	0,001742249	32,3621	33,93146	72,35766	51,81484	123,4362	749,2818	0,06034425	6,75E-05	0,4485511	supercritical
402,6716	500	570,1187	0,001754021	32,51684	34,09679	72,60255	51,81652	124,5778	743,1589	0,06206996	6,71E-05	0,4457556	supercritical
404,005	500	566,2161	0,00176611	32,67283	34,26367	72,84923	51,81918	125,7505	737,0506	0,06384377	6,67E-05	0,4429179	supercritical
405,3383	500	562,2622	0,00177853	32,8301	34,43214	73,09777	51,82278	126,9544	730,961	0,06566661	6,62E-05	0,4400358	supercritical
406,6716	500	558,2562	0,001791292	32,9887	34,60223	73,34821	51,8273	128,1893	724,8946	0,06753927	6,58E-05	0,437107	supercritical
408,0049	500	554,1973	0,001804412	33,14864	34,77398	73,60061	51,83272	129,4544	718,8562	0,06946244	6,53E-05	0,4341294	supercritical
409,3382	500	550,0847	0,001817902	33,30995	34,94745	73,85503	51,839	130,7491	712,8511	0,0714367	6,49E-05	0,431101	supercritical
410,6715	500	545,918	0,001831777	33,47266	35,12266	74,1115	51,84608	132,0724	706,8847	0,07346248	6,44E-05	0,4280198	supercritical
412,0048	500	541,6966	0,001846052	33,63679	35,29965	74,37007	51,85392	133,4228	700,963	0,0755401	6,39E-05	0,4248841	supercritical
413,3382	500	537,4203	0,001860741	33,80237	35,47846	74,63079	51,86246	134,799	695,0919	0,07766978	6,35E-05	0,4216924	supercritical
414,6715	500	533,0889	0,00187586	33,96941	35,65912	74,89371	51,87163	136,1992	689,2776	0,07985164	6,30E-05	0,4184433	supercritical
416,0048	500	528,7023	0,001891423	34,13794	35,84166	75,15884	51,88135	137,6215	683,5262	0,08208578	6,25E-05	0,415136	supercritical
417,3381	500	524,2608	0,001907448	34,30796	36,02611	75,42623	51,89152	139,0638	677,8437	0,08437224	6,21E-05	0,4117697	supercritical
418,6714	500	519,7647	0,001923948	34,47948	36,2125	75,69591	51,90205	140,5243	672,2358	0,0867111	6,16E-05	0,4083442	supercritical
420,0047	500	515,2144	0,00194094	34,65252	36,40085	75,96789	51,91283	142,0008	666,708	0,08910249	6,11E-05	0,4048596	supercritical
421,3381	500	510,6107	0,001958439	34,82708	36,59117	76,2422	51,92373	143,4913	661,2652	0,09154665	6,07E-05	0,4013166	supercritical
422,6714	500	505,9544	0,001976463	35,00317	36,78349	76,51886	51,93463	144,9939	655,9117	0,09404394	6,02E-05	0,3977161	supercritical
424,0047	500	501,2465	0,001995026	35,18078	36,97782	76,79788	51,94538	146,507	650,6514	0,09659486	5,97E-05	0,3940597	supercritical
425,338	500	496,4882	0,002014147	35,35991	37,17418	77,07926	51,95583	148,0289	645,4875	0,0992001	5,92E-05	0,3903491	supercritical
426,6713	500	491,6807	0,00203384	35,54056	37,37256	77,36301	51,96582	149,558	640,4229	0,1018605	5,87E-05	0,3865866	supercritical
428,0046	500	486,8255	0,002054124	35,72272	37,573	77,64914	51,97518	151,0927	635,4597	0,1045769	5,83E-05	0,3827749	supercritical
429,338	500	481,9242	0,002075015	35,90638	37,77548	77,93765	51,98374	152,6315	630,5999	0,1073503	5,78E-05	0,3789167	supercritical
430,6713	500	476,9783	0,002096531	36,09153	37,98001	78,22852	51,99131	154,1724	625,8453	0,1101815	5,73E-05	0,375015	supercritical
432,0046	500	471,9898	0,00211869	36,27816	38,1866	78,52177	51,99768	155,7128	621,1977	0,1130714	5,68E-05	0,3710731	supercritical
433,3379	500	466,9607	0,002141508	36,46624	38,39524	78,81737	52,00266	157,2494	616,6592	0,1160202	5,63E-05	0,3670942	supercritical
434,6712	500	461,8932	0,002165003	36,65576	38,60592	79,1153	52,00603	158,778	612,2325	0,1190277	5,59E-05	0,3630814	supercritical
436,0045	500	456,7897	0,002189191	36,84669	38,81863	79,41553	52,00756	160,2926	607,9209	0,1220929	5,54E-05	0,3590378	supercritical
437,3379	500	451,653	0,002214089	37,03898	39,03335	79,71803	52,00702	161,7855	603,7288	0,1252138	5,49E-05	0,3549664	supercritical
438,6712	500	446,4863	0,00223971	37,23259	39,25004	80,02273	52,00418	163,2472	599,662	0,1283872	5,44E-05	0,35087	supercritical
440,0045	500	441,2934	0,002266066	37,42746	39,46865	80,32956	51,9988	164,6659	595,7273	0,1316083	5,39E-05	0,3467515	supercritical
441,3378	500	436,0782	0,002293167	37,62352	39,68912	80,63841	51,99066	166,028	591,9329	0,1348712	5,35E-05	0,3426138	supercritical
442,6711	500	430,8457	0,002321017	37,82067	39,91136	80,94917	51,97954	167,3182	588,2882	0,1381682	5,30E-05	0,3384599	supercritical
444,0044	500	425,6012	0,002349617	38,01881	40,13526	81,26166	51,96523	168,5202	584,8031	0,1414904	5,25E-05	0,3342934	supercritical
445,3378	500	420,3508	0,002378965	38,21781	40,36069	81,57572	51,94754	169,6178	581,488	0,1448282	5,21E-05	0,3301183	supercritical
446,6711	500	415,1011	0,002409052	38,41753	40,58751	81,89112	51,9263	170,5957	578,3525	0,1481711	5,16E-05	0,3259395	supercritical
448,0044	500	409,859	0,002439864	38,61781	40,81555	82,20762	51,90136	171,4405	575,4055	0,151509	5,11E-05	0,3217626	supercritical
449,3377	500	404,632	0,002471381	38,81849	41,04462	82,52497	51,87256	172,1416	572,654	0,1548319	5,07E-05	0,3175939	supercritical
450,671	500	399,4276	0,002503583	39,01938	41,27452	82,84288	51,83978	172,6918	570,1032	0,158131	5,03E-05	0,3134403	supercritical
452,0043	500	394,2534	0,00253644	39,22032	41,50505	83,16109	51,8029	173,0873	567,7556	0,1613985	4,98E-05	0,3093094	supercritical
453,3377	500	389,1167	0,002569923	39,42112	41,73601	83,47929	51,7618	173,3278	565,6115	0,1646279	4,94E-05	0,3052084	supercritical
454,671	500	384,0245	0,002604001	39,6216	41,96719	83,79721	51,71638	173,4158	563,6689	0,1678141	4,90E-05	0,3011449	supercritical
456,0043	500	378,9834	0,002638638	39,82159	42,19838	84,11457	51,66656	173,3559	561,9237	0,1709531	4,86E-05	0,2971257	supercritical
457,3376	500	373,9995	0,0026738	40,02094	42,4294	84,43111	51,61225	173,1545	560,3703	0,1740417	4,82E-05	0,2931571	supercritical
458,6709	500	369,0783	0,002709452	40,21949	42,66006	84,74659	51,55339	172,8187	559,0017	0,1770776	4,78E-05	0,2892445	supercritical
460,0042	500	364,2246	0,002745559	40,41709	42,89019	85,06076	51,48996	172,356	557,8103	0,1800589	4,74E-05	0,2853927	supercritical
461,3376	500	359,4428	0,002782084	40,61362	43,11962	85,37341	51,42192	171,774	556,7879	0,1829838	4,70E-05	0,2816056	supercritical
462,6709	500	354,7367	0,002818992	40,80895	43,3482	85,68434	51,34928	171,0801	555,9261	0,1858509	4,67E-05	0,2778862	supercritical
464,0042	500	350,1095	0,002856249	41,00298	43,57578	85,99335	51,27209	170,2816	555,2165	0,1886586	4,63E-05	0,2742369	supercritical
465,3375	500	345,564	0,00289382	41,19559	43,80223	86,30027	51,19039	169,3854	554,6511	0,1914054	4,60E-05	0,2706598	supercritical
466,6708	500	341,1023	0,002931672	41,38669	44,02743	86,60494	51,10428	168,3982	554,2217	0,1940898	4,57E-05	0,267156	supercritical
468,0041	500	336,7264	0,00296977	41,57619	44,25125	86,9072	51,01385	167,3268	553,9209	0,1967105	4,53E-05	0,2637267	supercritical
469,3375	500	332,4377	0,003008083	41,76402	44,47359	87,20693	50,91924	166,1776	553,741	0,1992661	4,50E-05	0,2603724	supercritical
470,6708	500	328,2372	0,003046578	41,95011	44,69435	87,50399	50,82059	164,9571	553,6752	0,2017552	4,47E-05	0,2570936	supercritical
472,0041	500	324,1256	0,003085224	42,13439	44,91344	87,79827	50,71807	163,6717	553,7167	0,2041768	4,45E-05	0,2538904	supercritical
473,3374	500	320,1033	0,003123992	42,3168	45,13078	88,08968	50,61185	162,3279	553,8588	0,2065298	4,42E-05	0,2507627	supercritical
474,6707	500	316,1704	0,003162852	42,49731	45,34629	88,37812	50,50213	160,932	554,0955	0,2088136	4,39E-05	0,2477102	supercritical
476,004	500	312,3266	0,003201777	42,67586	45,55991	88,66352	50,3891	159,49	554,4208	0,2110275	4,37E-05	0,2447327	supercritical
477,3374	500	308,5715	0,00324074	42,85243	45,77157	88,94581	50,27298	158,0081	554,8288	0,2131711	4,34E-05	0,2418297	supercritical
478,6707	500	304,9043	0,003279717	43,02699	45,98124	89,22493	50,15398	156,4922	555,3143	0,2152442	4,32E-05	0,2390004	supercritical
480,004	500	301,3243	0,003318684	43,19952	46,18887	89,50086	50,03231	154,9478	555,872	0,2172469	4,30E-05	0,2362442	supercritical
481,3373	500	297,8302	0,003357618	43,37	46,39442	89,77354	49,9082	153,3803	556,4968	0,2191794	4,27E-05	0,2335602	supercritical
482,6706	500	294,4209	0,003396498	43,53843	46,59787	90,04295	49,78185	151,7948	557,1841	0,2210419	4,25E-05	0,2309476	supercritical
484,0039	500	291,095	0,003435305	43,7048	46,7992	90,30908	49,65349	150,1962	557,9292	0,2228352	4,23E-05	0,2284052	supercritical
485,3373	500	287,8508	0,003474022	43,86911	46,99838	90,57193	49,52332	148,589	558,7281	0,2245598	4,21E-05	0,2259321	supercritical
486,6706	500	284,6869	0,00351263	44,03138	47,19543	90,83148	49,39156	146,9772	559,5765	0,2262166	4,19E-05	0,2235271	supercritical
488,0039	500	281,6016	0,003551116	44,1916	47,39032	91,08776	49,25839	145,3649	560,4706	0,2278066	4,18E-05	0,221189	supercritical
489,3372	500	278,593	0,003589465	44,3498	47,58306	91,34076	49,12402	143,7554	561,4069	0,2293308	4,16E-05	0,2189165	supercritical
490,6705	500	275,6594	0,003627665	44,506	47,77366	91,59052	48,98862	142,152	562,3819	0,2307903	4,14E-05	0,2167085	supercritical
492,0038	500	272,7989	0,003665704	44,6602	47,96213	91,83705	48,85239	140,5577	563,3923	0,2321864	4,13E-05	0,2145634	supercritical
493,3372	500	270,0096	0,003703571	44,81244	48,14849	92,08038	48,71547	138,975	564,4352	0,2335204	4,11E-05	0,2124801	supercritical
494,6705	500	267,2897	0,003741259	44,96275	48,33274	92,32056	48,57805	137,4062	565,5077	0,2347937	4,10E-05	0,2104571	supercritical
496,0038	500	264,6373	0,003778757	45,11114	48,5149	92,55761	48,44026	135,8534	566,6072	0,2360076	4,09E-05	0,2084931	supercritical
497,3371	500	262,0504	0,00381606	45,25765	48,69501	92,79157	48,30225	134,3184	567,7311	0,2371637	4,07E-05	0,2065867	supercritical
498,6704	500	259,5272	0,003853161	45,4023	48,87309	93,02249	48,16417	132,8027	568,8772	0,2382633	4,06E-05	0,2047364	supercritical
500,0037	500	257,0658	0,003890055	45,54514	49,04916	93,25042	48,02613	131,3077	570,0433	0,239308	4,05E-05	0,2029409	supercritical
501,3371	500	254,6644	0,003926736	45,68619	49,22325	93,47539	47,88825	129,8346	571,2274	0,2402993	4,04E-05	0,2011988	supercritical
502,6704	500	252,3212	0,003963202	45,82548	49,39539	93,69747	47,75066	128,3843	572,4276	0,2412385	4,03E-05	0,1995087	supercritical
504,0037	500	250,0345	0,003999448	45,96306	49,56561	93,91669	47,61344	126,9575	573,6421	0,2421273	4,02E-05	0,1978692	supercritical
505,337	500	247,8024	0,004035473	46,09894	49,73395	94,13311	47,4767	125,5548	574,8693	0,2429671	4,01E-05	0,1962789	supercritical
506,6703	500	245,6234	0,004071274	46,23318	49,90043	94,34678	47,34052	124,1769	576,1077	0,2437593	4,00E-05	0,1947366	supercritical
508,0036	500	243,4956	0,00410685	46,3658	50,0651	94,55776	47,205	122,8239	577,3559	0,2445054	3,99E-05	0,1932408	supercritical
509,337	500	241,4176	0,004142199	46,49683	50,22797	94,76609	47,0702	121,4962	578,6127	0,2452068	3,98E-05	0,1917904	supercritical
510,6703	500	239,3878	0,004177322	46,62631	50,38909	94,97182	46,93619	120,1939	579,8767	0,2458649	3,97E-05	0,1903839	supercritical
512,0036	500	237,4046	0,004212217	46,75428	50,5485	95,17502	46,80305	118,917	581,147	0,2464811	3,97E-05	0,1890202	supercritical
513,3369	500	235,4666	0,004246886	46,88077	50,70621	95,37572	46,67083	117,6655	582,4224	0,2470566	3,96E-05	0,187698	supercritical
514,6702	500	233,5724	0,004281328	47,00581	50,86228	95,57399	46,53958	116,4393	583,702	0,2475927	3,95E-05	0,1864161	supercritical
516,0035	500	231,7205	0,004315545	47,12944	51,01672	95,76986	46,40935	115,2383	584,985	0,2480908	3,95E-05	0,1851733	supercritical
517,3369	500	229,9096	0,004349536	47,25168	51,16959	95,9634	46,28019	114,0621	586,2705	0,248552	3,94E-05	0,1839685	supercritical
518,6702	500	228,1384	0,004383305	47,37258	51,3209	96,15466	46,15213	112,9105	587,5578	0,2489776	3,93E-05	0,1828006	supercritical
520,0035	500	226,4056	0,004416851	47,49215	51,47069	96,34367	46,02522	111,7833	588,8462	0,2493687	3,93E-05	0,1816684	supercritical
521,3368	500	224,7102	0,004450177	47,61044	51,61899	96,5305	45,89948	110,6801	590,1351	0,2497264	3,92E-05	0,180571	supercritical
522,6701	500	223,0508	0,004483284	47,72746	51,76584	96,71518	45,77495	109,6005	591,4238	0,2500518	3,92E-05	0,1795072	supercritical
524,0034	500	221,4264	0,004516174	47,84326	51,91127	96,89776	45,65165	108,5442	592,712	0,250346	3,91E-05	0,1784761	supercritical
525,3368	500	219,8358	0,00454885	47,95786	52,0553	97,07829	45,52959	107,5107	593,999	0,25061	3,91E-05	0,1774767	supercritical
526,6701	500	218,278	0,004581313	48,07129	52,19797	97,25682	45,40881	106,4996	595,2844	0,2508448	3,91E-05	0,176508	supercritical
528,0034	500	216,7521	0,004613565	48,18357	52,33931	97,43338	45,28931	105,5104	596,5679	0,2510513	3,90E-05	0,1755692	supercritical
529,3367	500	215,257	0,00464561	48,29474	52,47934	97,60802	45,17112	104,5428	597,849	0,2512305	3,90E-05	0,1746592	supercritical
530,67	500	213,7918	0,004677449	48,40482	52,61809	97,78079	45,05424	103,5963	599,1274	0,2513833	3,90E-05	0,1737774	supercritical
532,0033	500	212,3555	0,004709084	48,51383	52,7556	97,95171	44,93867	102,6703	600,4028	0,2515105	3,89E-05	0,1729228	supercritical
533,3367	500	210,9474	0,004740518	48,6218	52,89189	98,12084	44,82444	101,7646	601,6749	0,251613	3,89E-05	0,1720945	supercritical
534,67	500	209,5665	0,004771755	48,72875	53,02698	98,28821	44,71155	100,8785	602,9435	0,2516915	3,89E-05	0,1712919	supercritical
536,0033	500	208,2121	0,004802795	48,83472	53,1609	98,45386	44,59999	100,0117	604,2083	0,2517469	3,88E-05	0,1705142	supercritical
537,3366	500	206,8834	0,004833642	48,93971	53,29368	98,61782	44,48977	99,16373	605,4691	0,2517799	3,88E-05	0,1697605	supercritical
538,6699	500	205,5795	0,004864298	49,04376	53,42534	98,78013	44,3809	98,3341	606,7256	0,2517912	3,88E-05	0,1690302	supercritical
540,0032	500	204,2999	0,004894765	49,14688	53,55591	98,94083	44,27336	97,52238	607,9779	0,2517816	3,88E-05	0,1683226	supercritical
541,3366	500	203,0437	0,004925047	49,2491	53,68541	99,09996	44,16717	96,72815	609,2256	0,2517517	3,88E-05	0,1676371	supercritical
542,6699	500	201,8104	0,004955146	49,35044	53,81385	99,25753	44,06231	95,95098	610,4686	0,2517022	3,87E-05	0,1669729	supercritical
544,0032	500	200,5992	0,004985064	49,45092	53,94128	99,4136	43,95878	95,19044	611,7069	0,2516337	3,87E-05	0,1663294	supercritical
545,3365	500	199,4096	0,005014804	49,55055	54,0677	99,56818	43,85658	94,44611	612,9403	0,2515468	3,87E-05	0,1657061	supercritical
546,6698	500	198,2409	0,005044368	49,64936	54,19314	99,72131	43,7557	93,7176	614,1687	0,2514421	3,87E-05	0,1651023	supercritical
548,0031	500	197,0925	0,005073759	49,74736	54,31762	99,87303	43,65614	93,00451	615,392	0,2513203	3,87E-05	0,1645174	supercritical
549,3365	500	195,964	0,005102979	49,84458	54,44115	100,0233	43,55788	92,30644	616,6102	0,2511817	3,87E-05	0,163951	supercritical
550,6698	500	194,8546	0,005132031	49,94103	54,56377	100,1723	43,46092	91,62303	617,8232	0,2510271	3,87E-05	0,1634024	supercritical
552,0031	500	193,764	0,005160917	50,03672	54,68549	100,3199	43,36525	90,95388	619,0309	0,2508568	3,87E-05	0,1628711	supercritical
553,3364	500	192,6916	0,00518964	50,13168	54,80632	100,4663	43,27086	90,29865	620,2332	0,2506715	3,87E-05	0,1623567	supercritical
554,6697	500	191,6369	0,005218201	50,22592	54,92629	100,6113	43,17775	89,65698	621,4303	0,2504715	3,87E-05	0,1618587	supercritical
556,003	500	190,5995	0,005246604	50,31946	55,04541	100,7551	43,08589	89,02853	622,6219	0,2502574	3,87E-05	0,1613765	supercritical
557,3364	500	189,5789	0,00527485	50,41231	55,1637	100,8976	42,99528	88,41295	623,8081	0,2500295	3,87E-05	0,1609097	supercritical
558,6697	500	188,5746	0,005302942	50,50448	55,28118	101,039	42,90591	87,80992	624,9889	0,2497885	3,87E-05	0,1604579	supercritical
560,003	500	187,5862	0,005330882	50,596	55,39786	101,1791	42,81776	87,21913	626,1643	0,2495345	3,87E-05	0,1600206	supercritical
561,3363	500	186,6134	0,005358672	50,68687	55,51376	101,3181	42,73083	86,64026	627,3342	0,2492682	3,87E-05	0,1595975	supercritical
562,6696	500	185,6557	0,005386314	50,77711	55,6289	101,456	42,64511	86,07301	628,4986	0,2489898	3,87E-05	0,1591881	supercritical
564,0029	500	184,7128	0,005413811	50,86673	55,74329	101,5927	42,56057	85,51709	629,6576	0,2486998	3,87E-05	0,158792	supercritical
565,3363	500	183,7842	0,005441165	50,95575	55,85695	101,7284	42,47722	84,97221	630,8111	0,2483985	3,87E-05	0,1584089	supercritical
566,6696	500	182,8696	0,005468377	51,04417	55,96989	101,863	42,39503	84,4381	631,9592	0,2480863	3,87E-05	0,1580384	supercritical
568,0029	500	181,9687	0,005495451	51,13202	56,08212	101,9965	42,31399	83,91448	633,1019	0,2477636	3,87E-05	0,1576801	supercritical
569,3362	500	181,0811	0,005522386	51,2193	56,19366	102,129	42,23409	83,40109	634,2391	0,2474306	3,87E-05	0,1573337	supercritical
570,6695	500	180,2066	0,005549187	51,30602	56,30453	102,2605	42,15533	82,89768	635,3709	0,2470878	3,87E-05	0,1569988	supercritical
572,0028	500	179,3447	0,005575854	51,3922	56,41472	102,391	42,07768	82,404	636,4974	0,2467354	3,87E-05	0,1566752	supercritical
573,3362	500	178,4952	0,00560239	51,47784	56,52427	102,5205	42,00113	81,91981	637,6185	0,2463737	3,88E-05	0,1563625	supercritical
574,6695	500	177,6579	0,005628797	51,56296	56,63318	102,6491	41,92567	81,44487	638,7343	0,2460031	3,88E-05	0,1560604	supercritical
576,0028	500	176,8323	0,005655075	51,64757	56,74146	102,7767	41,85129	80,97896	639,8448	0,2456237	3,88E-05	0,1557686	supercritical
577,3361	500	176,0183	0,005681228	51,73168	56,84912	102,9034	41,77797	80,52186	640,95	0,245236	3,88E-05	0,1554869	supercritical
578,6694	500	175,2155	0,005707257	51,8153	56,95618	103,0292	41,7057	80,07335	642,05	0,2448402	3,88E-05	0,1552149	supercritical
580,0027	500	174,4238	0,005733163	51,89843	57,06265	103,1541	41,63447	79,63322	643,1447	0,2444366	3,88E-05	0,1549524	supercritical
581,3361	500	173,6428	0,005758949	51,98109	57,16854	103,2781	41,56426	79,20128	644,2343	0,2440253	3,88E-05	0,1546991	supercritical
582,6694	500	172,8723	0,005784616	52,06329	57,27386	103,4012	41,49507	78,77733	645,3187	0,2436067	3,89E-05	0,1544548	supercritical
584,0027	500	172,1121	0,005810166	52,14503	57,37861	103,5235	41,42687	78,36116	646,398	0,243181	3,89E-05	0,1542192	supercritical
585,336	500	171,362	0,0058356	52,22633	57,48282	103,645	41,35966	77,95261	647,4723	0,2427485	3,89E-05	0,1539921	supercritical
586,6693	500	170,6217	0,00586092	52,30719	57,58649	103,7657	41,29343	77,55149	648,5415	0,2423093	3,89E-05	0,1537733	supercritical
588,0026	500	169,891	0,005886127	52,38762	57,68963	103,8855	41,22816	77,15762	649,6057	0,2418637	3,89E-05	0,1535624	supercritical
589,336	500	169,1697	0,005911224	52,46763	57,79224	104,0046	41,16384	76,77083	650,6649	0,2414119	3,89E-05	0,1533594	supercritical
590,6693	500	168,4576	0,005936211	52,54723	57,89435	104,1229	41,10045	76,39096	651,7192	0,2409541	3,90E-05	0,153164	supercritical
592,0026	500	167,7545	0,005961091	52,62642	57,99595	104,2404	41,03799	76,01785	652,7687	0,2404906	3,90E-05	0,152976	supercritical
593,3359	500	167,0603	0,005985864	52,70522	58,09706	104,3572	40,97644	75,65134	653,8133	0,2400214	3,90E-05	0,1527952	supercritical
594,6692	500	166,3746	0,006010532	52,78362	58,19769	104,4733	40,91579	75,29128	654,853	0,2395469	3,90E-05	0,1526214	supercritical
596,0025	500	165,6974	0,006035096	52,86165	58,29784	104,5886	40,85603	74,93753	655,8881	0,2390672	3,91E-05	0,1524544	supercritical
597,3359	500	165,0285	0,006059559	52,93929	58,39752	104,7032	40,79715	74,58993	656,9184	0,2385824	3,91E-05	0,152294	supercritical
598,6692	500	164,3677	0,00608392	53,01657	58,49675	104,8171	40,73913	74,24835	657,944	0,2380928	3,91E-05	0,1521401	supercritical
600,0025	500	163,7148	0,006108182	53,09349	58,59552	104,9303	40,68196	73,91266	658,965	0,2375986	3,91E-05	0,1519924	supercritical
601,3358	500	163,0697	0,006132346	53,17005	58,69385	105,0428	40,62564	73,58271	659,9813	0,2370998	3,91E-05	0,1518509	supercritical
602,6691	500	162,4322	0,006156414	53,24627	58,79174	105,1547	40,57015	73,25839	660,9931	0,2365967	3,92E-05	0,1517153	supercritical
604,0024	500	161,8022	0,006180385	53,32214	58,8892	105,2659	40,51547	72,93957	662,0004	0,2360894	3,92E-05	0,1515855	supercritical
605,3358	500	161,1795	0,006204262	53,39767	58,98625	105,3764	40,46161	72,62613	663,0032	0,2355781	3,92E-05	0,1514613	supercritical
606,6691	500	160,564	0,006228047	53,47288	59,08287	105,4863	40,40854	72,31795	664,0016	0,2350629	3,92E-05	0,1513426	supercritical
608,0024	500	159,9555	0,006251739	53,54776	59,17909	105,5956	40,35626	72,01491	664,9956	0,2345439	3,93E-05	0,1512293	supercritical
609,3357	500	159,3539	0,006275341	53,62232	59,27491	105,7043	40,30476	71,7169	665,9852	0,2340214	3,93E-05	0,1511211	supercritical
610,669	500	158,7591	0,006298853	53,69656	59,37034	105,8123	40,25402	71,42382	666,9705	0,2334954	3,93E-05	0,151018	supercritical
612,0023	500	158,1709	0,006322276	53,7705	59,46538	105,9198	40,20404	71,13556	667,9515	0,2329661	3,94E-05	0,1509199	supercritical
613,3357	500	157,5892	0,006345613	53,84414	59,56003	106,0266	40,15481	70,85202	668,9283	0,2324336	3,94E-05	0,1508265	supercritical
614,669	500	157,0139	0,006368863	53,91748	59,65431	106,1329	40,10631	70,57309	669,9008	0,2318981	3,94E-05	0,1507378	supercritical
616,0023	500	156,4449	0,006392028	53,99052	59,74823	106,2386	40,05853	70,29868	670,8692	0,2313596	3,94E-05	0,1506537	supercritical
617,3356	500	155,882	0,006415109	54,06328	59,84178	106,3437	40,01147	70,02869	671,8335	0,2308183	3,95E-05	0,150574	supercritical
618,6689	500	155,3252	0,006438107	54,13576	59,93497	106,4483	39,96511	69,76304	672,7937	0,2302743	3,95E-05	0,1504986	supercritical
620,0022	500	154,7742	0,006461024	54,20796	60,02781	106,5523	39,91945	69,50162	673,7499	0,2297277	3,95E-05	0,1504274	supercritical
621,3356	500	154,2291	0,006483859	54,27988	60,12031	106,6558	39,87448	69,24436	674,7021	0,2291786	3,96E-05	0,1503603	supercritical
622,6689	500	153,6898	0,006506614	54,35154	60,21246	106,7588	39,83018	68,99117	675,6502	0,2286272	3,96E-05	0,1502971	supercritical
624,0022	500	153,156	0,006529291	54,42294	60,30428	106,8612	39,78656	68,74196	676,5945	0,2280735	3,96E-05	0,1502379	supercritical
625,3355	500	152,6277	0,006551889	54,49407	60,39577	106,9631	39,74359	68,49666	677,5349	0,2275177	3,96E-05	0,1501824	supercritical
626,6688	500	152,1049	0,006574411	54,56495	60,48694	107,0645	39,70127	68,25517	678,4714	0,2269598	3,97E-05	0,1501306	supercritical
628,0021	500	151,5874	0,006596856	54,63558	60,57779	107,1654	39,65959	68,01744	679,404	0,2263999	3,97E-05	0,1500824	supercritical
629,3355	500	151,0751	0,006619226	54,70596	60,66832	107,2658	39,61855	67,78338	680,3329	0,2258382	3,97E-05	0,1500377	supercritical
630,6688	500	150,5679	0,006641522	54,7761	60,75854	107,3657	39,57813	67,55292	681,2581	0,2252747	3,98E-05	0,1499964	supercritical
632,0021	500	150,0658	0,006663745	54,846	60,84846	107,4651	39,53832	67,32598	682,1795	0,2247095	3,98E-05	0,1499584	supercritical
633,3354	500	149,5686	0,006685895	54,91567	60,93808	107,564	39,49912	67,10251	683,0973	0,2241427	3,98E-05	0,1499237	supercritical
634,6687	500	149,0763	0,006707973	54,9851	61,0274	107,6625	39,46052	66,88242	684,0114	0,2235744	3,99E-05	0,149892	supercritical
636,002	500	148,5888	0,00672998	55,05431	61,11643	107,7605	39,42252	66,66566	684,9219	0,2230047	3,99E-05	0,1498635	supercritical
637,3354	500	148,1061	0,006751918	55,12329	61,20517	107,858	39,38509	66,45216	685,8288	0,2224336	3,99E-05	0,1498379	supercritical
638,6687	500	147,6279	0,006773786	55,19206	61,29363	107,9551	39,34824	66,24185	686,7322	0,2218613	4,00E-05	0,1498152	supercritical
640,002	500	147,1544	0,006795586	55,2606	61,38182	108,0517	39,31196	66,03468	687,6321	0,2212878	4,00E-05	0,1497954	supercritical
641,3353	500	146,6853	0,006817318	55,32894	61,46973	108,1479	39,27624	65,83059	688,5285	0,2207131	4,00E-05	0,1497783	supercritical
642,6686	500	146,2206	0,006838983	55,39706	61,55736	108,2437	39,24107	65,62951	689,4214	0,2201374	4,01E-05	0,1497639	supercritical
644,0019	500	145,7602	0,006860583	55,46498	61,64474	108,339	39,20644	65,43139	690,311	0,2195608	4,01E-05	0,1497521	supercritical
645,3353	500	145,3041	0,006882117	55,53269	61,73185	108,434	39,17236	65,23618	691,1972	0,2189832	4,01E-05	0,1497429	supercritical
646,6686	500	144,8523	0,006903586	55,6002	61,8187	108,5284	39,1388	65,04382	692,08	0,2184048	4,02E-05	0,1497361	supercritical
648,0019	500	144,4045	0,006924992	55,66752	61,9053	108,6225	39,10577	64,85425	692,9595	0,2178256	4,02E-05	0,1497318	supercritical
649,3352	500	143,9608	0,006946334	55,73464	61,99164	108,7162	39,07325	64,66743	693,8357	0,2172458	4,02E-05	0,1497298	supercritical
650,6685	500	143,5212	0,006967614	55,80157	62,07774	108,8095	39,04124	64,4833	694,7087	0,2166652	4,03E-05	0,1497302	supercritical
652,0018	500	143,0854	0,006988832	55,86831	62,1636	108,9023	39,00974	64,30182	695,5784	0,2160841	4,03E-05	0,1497327	supercritical
653,3352	500	142,6536	0,007009989	55,93487	62,24921	108,9948	38,97873	64,12293	696,445	0,2155025	4,03E-05	0,1497375	supercritical
654,6685	500	142,2255	0,007031086	56,00125	62,33459	109,0869	38,94821	63,9466	697,3084	0,2149204	4,04E-05	0,1497444	supercritical
656,0018	500	141,8013	0,007052123	56,06744	62,41974	109,1786	38,91818	63,77276	698,1686	0,2143379	4,04E-05	0,1497533	supercritical
657,3351	500	141,3807	0,007073101	56,13346	62,50465	109,2699	38,88862	63,60139	699,0257	0,213755	4,04E-05	0,1497643	supercritical
658,6684	500	140,9638	0,007094021	56,1993	62,58934	109,3609	38,85953	63,43242	699,8798	0,2131718	4,05E-05	0,1497773	supercritical
660,0017	500	140,5505	0,007114883	56,26498	62,6738	109,4514	38,83091	63,26583	700,7308	0,2125884	4,05E-05	0,1497921	supercritical
661,3351	500	140,1407	0,007135688	56,33048	62,75805	109,5417	38,80275	63,10157	701,5788	0,2120048	4,06E-05	0,1498088	supercritical
662,6684	500	139,7344	0,007156436	56,39582	62,84207	109,6315	38,77503	62,9396	702,4238	0,211421	4,06E-05	0,1498274	supercritical
664,0017	500	139,3315	0,007177128	56,46099	62,92588	109,721	38,74777	62,77988	703,2658	0,2108371	4,06E-05	0,1498477	supercritical
665,335	500	138,932	0,007197765	56,526	63,00948	109,8102	38,72094	62,62236	704,1049	0,2102532	4,07E-05	0,1498698	supercritical
666,6683	500	138,5359	0,007218347	56,59085	63,09288	109,8989	38,69455	62,46701	704,9411	0,2096693	4,07E-05	0,1498935	supercritical
668,0016	500	138,143	0,007238874	56,65555	63,17606	109,9874	38,66859	62,3138	705,7743	0,2090853	4,07E-05	0,1499189	supercritical
669,335	500	137,7534	0,007259349	56,72009	63,25905	110,0755	38,64306	62,16268	706,6048	0,2085015	4,08E-05	0,1499459	supercritical
670,6683	500	137,367	0,00727977	56,78448	63,34183	110,1633	38,61794	62,01363	707,4323	0,2079178	4,08E-05	0,1499745	supercritical
672,0016	500	136,9837	0,007300138	56,84872	63,42441	110,2507	38,59323	61,86659	708,2571	0,2073342	4,08E-05	0,1500045	supercritical
673,3349	500	136,6035	0,007320455	56,91281	63,5068	110,3378	38,56894	61,72155	709,0791	0,2067508	4,09E-05	0,1500361	supercritical
674,6682	500	136,2264	0,00734072	56,97675	63,589	110,4246	38,54504	61,57847	709,8983	0,2061677	4,09E-05	0,1500691	supercritical
676,0015	500	135,8523	0,007360934	57,04055	63,67101	110,5111	38,52154	61,43731	710,7148	0,2055848	4,10E-05	0,1501035	supercritical
677,3349	500	135,4812	0,007381098	57,10421	63,75284	110,5972	38,49844	61,29804	711,5285	0,2050023	4,10E-05	0,1501393	supercritical
678,6682	500	135,113	0,007401212	57,16773	63,83447	110,6831	38,47572	61,16063	712,3396	0,2044201	4,10E-05	0,1501764	supercritical
680,0015	500	134,7477	0,007421277	57,23111	63,91593	110,7686	38,45338	61,02505	713,148	0,2038383	4,11E-05	0,1502148	supercritical
681,3348	500	134,3853	0,007441292	57,29436	63,99721	110,8538	38,43142	60,89127	713,9538	0,2032569	4,11E-05	0,1502545	supercritical
682,6681	500	134,0256	0,00746126	57,35747	64,0783	110,9387	38,40983	60,75926	714,7569	0,2026759	4,11E-05	0,1502955	supercritical
684,0014	500	133,6688	0,007481179	57,42046	64,15923	111,0233	38,38862	60,62899	715,5574	0,2020954	4,12E-05	0,1503376	supercritical
685,3348	500	133,3146	0,007501051	57,48331	64,23998	111,1076	38,36776	60,50044	716,3554	0,2015154	4,12E-05	0,1503809	supercritical
686,6681	500	132,9632	0,007520876	57,54603	64,32056	111,1916	38,34726	60,37357	717,1508	0,200936	4,13E-05	0,1504254	supercritical
688,0014	500	132,6145	0,007540655	57,60863	64,40098	111,2753	38,32712	60,24835	717,9437	0,2003572	4,13E-05	0,150471	supercritical
689,3347	500	132,2684	0,007560387	57,6711	64,48122	111,3588	38,30733	60,12477	718,734	0,1997789	4,13E-05	0,1505177	supercritical
690,668	500	131,9248	0,007580074	57,73345	64,56131	111,4419	38,28788	60,00279	719,5219	0,1992013	4,14E-05	0,1505654	supercritical
692,0013	500	131,5839	0,007599716	57,79568	64,64123	111,5248	38,26877	59,88239	720,3073	0,1986243	4,14E-05	0,1506142	supercritical
693,3347	500	131,2454	0,007619313	57,85779	64,72099	111,6074	38,25	59,76355	721,0903	0,198048	4,15E-05	0,150664	supercritical
694,668	500	130,9095	0,007638866	57,91979	64,8006	111,6897	38,23156	59,64623	721,8708	0,1974724	4,15E-05	0,1507148	supercritical
696,0013	500	130,576	0,007658375	57,98166	64,88005	111,7717	38,21346	59,53042	722,649	0,1968976	4,15E-05	0,1507665	supercritical
697,3346	500	130,245	0,007677841	58,04343	64,95934	111,8535	38,19567	59,41609	723,4247	0,1963235	4,16E-05	0,1508192	supercritical
698,6679	500	129,9163	0,007697263	58,10508	65,03849	111,935	38,17821	59,30322	724,1981	0,1957502	4,16E-05	0,1508727	supercritical
700,0012	500	129,59	0,007716643	58,16661	65,11748	112,0162	38,16106	59,19179	724,9691	0,1951777	4,16E-05	0,1509272	supercritical
701,3346	500	129,2661	0,007735981	58,22804	65,19633	112,0972	38,14422	59,08177	725,7378	0,194606	4,17E-05	0,1509826	supercritical
702,6679	500	128,9445	0,007755277	58,28936	65,27503	112,1779	38,1277	58,97315	726,5042	0,1940351	4,17E-05	0,1510387	supercritical
704,0012	500	128,6251	0,007774532	58,35058	65,35359	112,2583	38,11148	58,86589	727,2683	0,1934652	4,18E-05	0,1510957	supercritical
705,3345	500	128,308	0,007793746	58,41169	65,43201	112,3385	38,09555	58,75999	728,0301	0,1928961	4,18E-05	0,1511536	supercritical
706,6678	500	127,9931	0,007812919	58,47269	65,51028	112,4185	38,07993	58,65542	728,7897	0,1923279	4,18E-05	0,1512121	supercritical
708,0011	500	127,6805	0,007832051	58,5336	65,58842	112,4982	38,0646	58,55215	729,547	0,1917607	4,19E-05	0,1512715	supercritical
709,3345	500	127,37	0,007851144	58,5944	65,66642	112,5776	38,04956	58,45018	730,3022	0,1911944	4,19E-05	0,1513316	supercritical
710,6678	500	127,0616	0,007870197	58,6551	65,74429	112,6568	38,03481	58,34947	731,0551	0,190629	4,20E-05	0,1513924	supercritical
712,0011	500	126,7554	0,007889212	58,71571	65,82202	112,7358	38,02034	58,25002	731,8058	0,1900647	4,20E-05	0,151454	supercritical
713,3344	500	126,4512	0,007908187	58,77621	65,89962	112,8145	38,00615	58,1518	732,5544	0,1895013	4,20E-05	0,1515162	supercritical
714,6677	500	126,1492	0,007927124	58,83663	65,97709	112,893	37,99224	58,0548	733,3009	0,188939	4,21E-05	0,1515791	supercritical
716,001	500	125,8491	0,007946023	58,89694	66,05443	112,9712	37,9786	57,95899	734,0452	0,1883777	4,21E-05	0,1516426	supercritical
717,3344	500	125,5511	0,007964884	58,95717	66,13165	113,0492	37,96523	57,86436	734,7874	0,1878174	4,22E-05	0,1517068	supercritical
718,6677	500	125,2551	0,007983708	59,0173	66,20873	113,127	37,95213	57,77089	735,5275	0,1872582	4,22E-05	0,1517716	supercritical
720,001	500	124,961	0,008002495	59,07735	66,2857	113,2045	37,93929	57,67857	736,2655	0,1867001	4,22E-05	0,151837	supercritical
721,3343	500	124,6689	0,008021245	59,1373	66,36254	113,2819	37,92671	57,58738	737,0015	0,1861431	4,23E-05	0,151903	supercritical
722,6676	500	124,3788	0,008039958	59,19716	66,43926	113,359	37,91439	57,4973	737,7354	0,1855872	4,23E-05	0,1519696	supercritical
724,0009	500	124,0905	0,008058636	59,25694	66,51587	113,4358	37,90233	57,40831	738,4673	0,1850324	4,24E-05	0,1520367	supercritical
725,3343	500	123,8041	0,008077277	59,31664	66,59235	113,5125	37,89051	57,32041	739,1971	0,1844787	4,24E-05	0,1521044	supercritical
726,6676	500	123,5196	0,008095884	59,37624	66,66872	113,5889	37,87894	57,23357	739,925	0,1839262	4,24E-05	0,1521726	supercritical
728,0009	500	123,2369	0,008114455	59,43577	66,74497	113,6651	37,86762	57,14778	740,6509	0,1833749	4,25E-05	0,1522414	supercritical
729,3342	500	122,956	0,008132991	59,49521	66,82111	113,7411	37,85654	57,06303	741,3748	0,1828247	4,25E-05	0,1523106	supercritical
730,6675	500	122,6769	0,008151493	59,55457	66,89714	113,8169	37,8457	56,97929	742,0968	0,1822757	4,26E-05	0,1523803	supercritical
732,0008	500	122,3996	0,00816996	59,61385	66,97306	113,8925	37,8351	56,89657	742,8168	0,1817279	4,26E-05	0,1524506	supercritical
733,3342	500	122,1241	0,008188394	59,67306	67,04886	113,9679	37,82473	56,81483	743,5349	0,1811812	4,27E-05	0,1525213	supercritical
734,6675	500	121,8503	0,008206794	59,73218	67,12456	114,043	37,81459	56,73408	744,2511	0,1806358	4,27E-05	0,1525924	supercritical
736,0008	500	121,5782	0,008225161	59,79123	67,20015	114,118	37,80468	56,65428	744,9654	0,1800917	4,27E-05	0,152664	supercritical
737,3341	500	121,3078	0,008243494	59,8502	67,27564	114,1927	37,795	56,57544	745,6778	0,1795487	4,28E-05	0,152736	supercritical
738,6674	500	121,0391	0,008261795	59,9091	67,35102	114,2673	37,78554	56,49754	746,3883	0,179007	4,28E-05	0,1528084	supercritical
740,0007	500	120,772	0,008280064	59,96792	67,4263	114,3416	37,7763	56,42056	747,097	0,1784666	4,29E-05	0,1528813	supercritical
741,3341	500	120,5066	0,0082983	60,02667	67,50147	114,4158	37,76727	56,3445	747,8039	0,1779274	4,29E-05	0,1529546	supercritical
742,6674	500	120,2428	0,008316504	60,08534	67,57655	114,4897	37,75847	56,26933	748,5089	0,1773895	4,29E-05	0,1530282	supercritical
744,0007	500	119,9807	0,008334676	60,14395	67,65152	114,5635	37,74988	56,19505	749,2121	0,1768528	4,30E-05	0,1531022	supercritical
745,334	500	119,7201	0,008352817	60,20249	67,7264	114,6371	37,74149	56,12165	749,9135	0,1763174	4,30E-05	0,1531766	supercritical
746,6673	500	119,4611	0,008370927	60,26095	67,80118	114,7104	37,73332	56,04911	750,6132	0,1757834	4,31E-05	0,1532514	supercritical
748,0006	500	119,2036	0,008389006	60,31935	67,87586	114,7836	37,72535	55,97743	751,311	0,1752506	4,31E-05	0,1533265	supercritical
749,334	500	118,9477	0,008407054	60,37768	67,95045	114,8566	37,71759	55,90658	752,0071	0,1747191	4,31E-05	0,1534019	supercritical
750,6673	500	118,6933	0,008425072	60,43595	68,02494	114,9294	37,71002	55,83657	752,7015	0,174189	4,32E-05	0,1534777	supercritical
752,0006	500	118,4405	0,00844306	60,49415	68,09935	115,002	37,70266	55,76738	753,3941	0,1736601	4,32E-05	0,1535538	supercritical
753,3339	500	118,1891	0,008461018	60,55228	68,17366	115,0745	37,69549	55,69899	754,085	0,1731326	4,33E-05	0,1536303	supercritical
754,6672	500	117,9392	0,008478946	60,61035	68,24788	115,1467	37,68852	55,6314	754,7742	0,1726064	4,33E-05	0,153707	supercritical
756,0005	500	117,6907	0,008496845	60,66836	68,322	115,2188	37,68174	55,56459	755,4617	0,1720816	4,33E-05	0,153784	supercritical
757,3339	500	117,4437	0,008514715	60,7263	68,39605	115,2907	37,67514	55,49857	756,1475	0,171558	4,34E-05	0,1538613	supercritical
758,6672	500	117,1982	0,008532556	60,78419	68,47	115,3624	37,66874	55,43331	756,8316	0,1710359	4,34E-05	0,1539389	supercritical
760,0005	500	116,954	0,008550368	60,84201	68,54387	115,434	37,66252	55,3688	757,5141	0,1705151	4,35E-05	0,1540168	supercritical
761,3338	500	116,7113	0,008568152	60,89977	68,61765	115,5053	37,65649	55,30505	758,1949	0,1699956	4,35E-05	0,154095	supercritical
762,6671	500	116,4699	0,008585907	60,95747	68,69135	115,5765	37,65064	55,24203	758,874	0,1694775	4,36E-05	0,1541734	supercritical
764,0004	500	116,23	0,008603634	61,01512	68,76496	115,6476	37,64496	55,17973	759,5516	0,1689608	4,36E-05	0,1542521	supercritical
765,3338	500	115,9913	0,008621334	61,07271	68,83849	115,7184	37,63947	55,11816	760,2275	0,1684454	4,36E-05	0,154331	supercritical
766,6671	500	115,7541	0,008639006	61,13024	68,91194	115,7891	37,63415	55,05729	760,9019	0,1679314	4,37E-05	0,1544101	supercritical
768,0004	500	115,5181	0,008656651	61,18771	68,98531	115,8596	37,629	54,99713	761,5746	0,1674188	4,37E-05	0,1544895	supercritical
769,3337	500	115,2835	0,008674268	61,24513	69,0586	115,93	37,62403	54,93765	762,2458	0,1669075	4,38E-05	0,1545691	supercritical
770,667	500	115,0502	0,008691859	61,3025	69,13181	116,0001	37,61922	54,87886	762,9153	0,1663976	4,38E-05	0,154649	supercritical
772,0003	500	114,8182	0,008709423	61,35981	69,20494	116,0702	37,61459	54,82074	763,5834	0,1658892	4,38E-05	0,154729	supercritical
773,3337	500	114,5874	0,00872696	61,41707	69,27799	116,14	37,61012	54,76329	764,2498	0,1653821	4,39E-05	0,1548093	supercritical
774,667	500	114,358	0,008744471	61,47427	69,35097	116,2097	37,60581	54,70649	764,9148	0,1648764	4,39E-05	0,1548897	supercritical
776,0003	500	114,1298	0,008761956	61,53143	69,42388	116,2792	37,60166	54,65034	765,5782	0,1643721	4,40E-05	0,1549704	supercritical
777,3336	500	113,9028	0,008779415	61,58853	69,4967	116,3486	37,59768	54,59483	766,2401	0,1638691	4,40E-05	0,1550512	supercritical
778,6669	500	113,6771	0,008796849	61,64558	69,56946	116,4178	37,59386	54,53996	766,9005	0,1633676	4,41E-05	0,1551323	supercritical
780,0002	500	113,4526	0,008814257	61,70258	69,64214	116,4869	37,59019	54,48571	767,5593	0,1628675	4,41E-05	0,1552135	supercritical
781,3336	500	113,2293	0,008831639	61,75954	69,71475	116,5558	37,58668	54,43207	768,2167	0,1623688	4,41E-05	0,1552949	supercritical
782,6669	500	113,0072	0,008848997	61,81644	69,78729	116,6245	37,58332	54,37905	768,8726	0,1618715	4,42E-05	0,1553765	supercritical
784,0002	500	112,7862	0,00886633	61,8733	69,85976	116,6931	37,58011	54,32663	769,5271	0,1613756	4,42E-05	0,1554582	supercritical
785,3335	500	112,5665	0,008883638	61,93011	69,93216	116,7616	37,57705	54,2748	770,1801	0,1608811	4,43E-05	0,1555401	supercritical
786,6668	500	112,3479	0,008900921	61,98687	70,00449	116,8299	37,57415	54,22356	770,8316	0,160388	4,43E-05	0,1556221	supercritical
788,0001	500	112,1305	0,00891818	62,04359	70,07676	116,898	37,57138	54,1729	771,4817	0,1598963	4,43E-05	0,1557043	supercritical
789,3335	500	111,9142	0,008935415	62,10026	70,14895	116,966	37,56877	54,12282	772,1304	0,159406	4,44E-05	0,1557867	supercritical
790,6668	500	111,6991	0,008952626	62,15689	70,22108	117,0338	37,5663	54,0733	772,7776	0,1589171	4,44E-05	0,1558692	supercritical
792,0001	500	111,485	0,008969813	62,21347	70,29315	117,1015	37,56397	54,02434	773,4235	0,1584297	4,45E-05	0,1559518	supercritical
793,3334	500	111,2721	0,008986976	62,27001	70,36515	117,1691	37,56178	53,97593	774,0679	0,1579436	4,45E-05	0,1560345	supercritical
794,6667	500	111,0603	0,009004116	62,3265	70,43708	117,2365	37,55973	53,92807	774,7109	0,157459	4,46E-05	0,1561174	supercritical
796	500	110,8496	0,009021233	62,38296	70,50895	117,3038	37,55782	53,88075	775,3526	0,1569758	4,46E-05	0,1562004	supercritical
797,3334	500	110,64	0,009038326	62,43937	70,58076	117,3709	37,55604	53,83397	775,9929	0,1564939	4,46E-05	0,1562836	supercritical
798,6667	500	110,4314	0,009055397	62,49574	70,65251	117,4379	37,5544	53,78771	776,6318	0,1560135	4,47E-05	0,1563668	supercritical
800	500	110,2239	0,009072445	62,55207	70,7242	117,5047	37,55289	53,74197	777,2693	0,1555345	4,47E-05	0,1564502	supercritical
